{
  "nodes": [
    {
      "feedJSON": {
        "media_url": "https://scontent-cdg4-2.cdninstagram.com/o1/v/t16/f2/m82/AQMpUr9uADuVxbrv3p-wE_pe5mi-HK21DiyAB_M1FrXRNwEdVQALioEkVAtPecjHdnJyLhcrjRAr0c3CV_t706h150ddVMXkpfN04-w.mp4?efg=eyJ2ZW5jb2RlX3RhZyI6InZ0c192b2RfdXJsZ2VuLmNsaXBzLnVua25vd24tQzMuNzIwLmRhc2hfYmFzZWxpbmVfMV92MSJ9&_nc_ht=scontent-cdg4-2.cdninstagram.com&edm=AM6HXa8EAAAA&_nc_gid=LjiY-W0TOtCnefgHl_MvlA&_nc_cat=107&_nc_oc=AdlgDi6iBb5Zd0UH0hpAo_kwcU_7GIq3pk9g2L4kG_V5ue_T0lEQEj9WMmnbRP0U-pkuQM2xe8UxTgekzihhXeFu&vs=6717179478362423_2641358092&_nc_vs=HBksFQIYT2lnX3hwdl9yZWVsc19wZXJtYW5lbnRfcHJvZC8wNjQyRUFFODc4NTgxMTc3NzhDMDgzN0VBMEI4QkM5NF92aWRlb19kYXNoaW5pdC5tcDQVAALIARIAFQIYOnBhc3N0aHJvdWdoX2V2ZXJzdG9yZS9HTmd2OXhZSi1JZEhkVUFDQUkxMHNDM3FxUlllYnFfRUFBQUYVAgLIARIAKAAYABsBiAd1c2Vfb2lsATEVAAAmmMG10NuJuD8VAigCQzMsF0AtWJN0vGp%2FGBJkYXNoX2Jhc2VsaW5lXzFfdjERAHUAZeadAQA%3D&ccb=9-4&oh=00_AfMPue9N1wW8Z4nyTYEHFXT5sEtijYozno07h-IFEq8YSg&oe=684626C1&_nc_sid=1d576d",
        "media_type": "VIDEO",
        "thumbnail_url": "https://scontent-cdg4-3.cdninstagram.com/v/t51.29350-15/418845031_3491762034470169_4853228330444224406_n.jpg?stp=dst-jpg_e35_tt6&_nc_cat=110&ccb=1-7&_nc_sid=18de74&_nc_ohc=4dGxfyykxy0Q7kNvwF8sz0n&_nc_oc=Adlqn0EPqnEjZ3O_E1LOB0KhmjI4by3ejXmJa9b28wO2oMWszBdM0VJg10BPPvqA4X4Lw-KUSYlsCGZnZcUhdhqW&_nc_zt=23&_nc_ht=scontent-cdg4-3.cdninstagram.com&edm=AM6HXa8EAAAA&_nc_gid=LjiY-W0TOtCnefgHl_MvlA&oh=00_AfMVBQcSu_lfATXvu0FUH-NxOFV1nFErgDKjQImQD_BNaA&oe=684A0579",
        "like_count": 22,
        "comments_count": 4,
        "caption": "Le lâcher prise est parfois la meilleure chose à faire ! \nMais parfois difficile pour bon nombre d'entre nous !\nQu'en penses-tu ? \nN'hésite pas à me donner ton avis en commentaire 😊\n.\n.\n.\nJe m’appelle Laure et je suis Naturopathe Iridologue.\nJe vous accompagne et vous donne les clés pour retrouver votre santé et votre bien-être au naturel 🌱.\n\nN’hésitez pas à réserver une consultation ou un appel découverte offert ici : https://laurenatu#creonmaville #farguessainthilaire #bordeauxmaville #bordeauxmaville🇫🇷 #tressesmaville #latresnes #latresne33 #bouliac #bouliacmaville #naturopathie #naturopathieholistique #bienétre #bienêtre #sante #santé #lâcherprise #lacherprise ro.fr\n\n C’est avec plaisir et bienveillance que je vous accompagnerai !\n\nA bientôt, \n\nLaure",
        "shortcode": "CyBc1UMIaXa",
        "timestamp": "2023-10-05T15:46:39+0000",
        "id": "17879588375897967"
      }
    },
    {
      "feedJSON": {
        "media_url": "https://scontent-cdg4-3.cdninstagram.com/v/t51.29350-15/366457901_947818566280245_708970871414908088_n.jpg?stp=dst-jpg_e35_tt6&_nc_cat=111&ccb=1-7&_nc_sid=18de74&_nc_ohc=f-kIbnF6pUQQ7kNvwHeuwbE&_nc_oc=Adm8tYMB-IUT8ZTGud4nCXeMOM01s2STVaQveiPGpRZ7momUduv0rZbS15SPnvOLxlsgzb_JLIX6EMjpvWZBmWwI&_nc_zt=23&_nc_ht=scontent-cdg4-3.cdninstagram.com&edm=AM6HXa8EAAAA&_nc_gid=LjiY-W0TOtCnefgHl_MvlA&oh=00_AfMlikAeJAoT0-340PQ3ceT-IBVuDgw_Cg37NLrrKe-oNw&oe=684A065E",
        "media_type": "CAROUSEL_ALBUM",
        "like_count": 32,
        "comments_count": 6,
        "caption": "Le bowl cake 🥧\n\nFacile et rapide à préparer, le bowl cake constitue un petit déjeuner idéal :\n- il est facile et très rapide à préparer ⏱️\n- Il apporte les nutriments nécessaires  pour bien démarrer la journée et éviter le fameux « coup de barre » de 11h 💪\n- Il est idéal pour les personnes qui souhaitent maigrir ou contrôler leur poids\n\nBien sûr vous pouvez aussi le prendre au goûter et l’accessoiriser avec les fruits de votre choix 🍌 🍊 🥝 \n\nA vos fourneaux ! 😉\n\nDis-moi en commentaires si tu connaissais le bowl cake 😋 \n\n.\n.\n.\n\nJe m’appelle Laure et je suis Naturopathe Iridologue.\nJe vous accompagne et vous donne les clés pour retrouver votre santé et votre bien-être au naturel 🌱.\n\nN’hésitez pas à réserver une consultation ou un appel découverte offert ici : https://laurenaturo.fr\n\n C’est avec plaisir et bienveillance que je vous accompagnerai !\n\nA bientôt, \n\nLaure",
        "shortcode": "CvxUZhetHm7",
        "children": {
          "data": [
            {
              "media_url": "https://scontent-cdg4-3.cdninstagram.com/v/t51.29350-15/366457901_947818566280245_708970871414908088_n.jpg?stp=dst-jpg_e35_tt6&_nc_cat=111&ccb=1-7&_nc_sid=18de74&_nc_ohc=f-kIbnF6pUQQ7kNvwHeuwbE&_nc_oc=Adm8tYMB-IUT8ZTGud4nCXeMOM01s2STVaQveiPGpRZ7momUduv0rZbS15SPnvOLxlsgzb_JLIX6EMjpvWZBmWwI&_nc_zt=23&_nc_ht=scontent-cdg4-3.cdninstagram.com&edm=AM6HXa8EAAAA&_nc_gid=LjiY-W0TOtCnefgHl_MvlA&oh=00_AfMlikAeJAoT0-340PQ3ceT-IBVuDgw_Cg37NLrrKe-oNw&oe=684A065E",
              "id": "17988712262487397"
            },
            {
              "media_url": "https://scontent-cdg4-2.cdninstagram.com/v/t51.29350-15/366138081_959669401956053_3447471644935574653_n.jpg?stp=dst-jpg_e35_tt6&_nc_cat=103&ccb=1-7&_nc_sid=18de74&_nc_ohc=gGVeXquoQAgQ7kNvwFsvEKd&_nc_oc=AdlRvueZiuTksL8-Xv63o4676GdVqLADXv3VkhTZyg9ZG0OZ4xWkxX2UDR4V_gWFv1njMN8GkQGhbs1Rm21eSosD&_nc_zt=23&_nc_ht=scontent-cdg4-2.cdninstagram.com&edm=AM6HXa8EAAAA&_nc_gid=LjiY-W0TOtCnefgHl_MvlA&oh=00_AfM3p6MXkgGdjbYj18ppp-wdJhGyrP3BEzc8on9dmDYOOg&oe=684A32CA",
              "id": "17965256852422441"
            },
            {
              "media_url": "https://scontent-cdg4-1.cdninstagram.com/v/t51.29350-15/366114275_286274717430558_7988432544625306568_n.jpg?stp=dst-jpg_e35_tt6&_nc_cat=102&ccb=1-7&_nc_sid=18de74&_nc_ohc=VWQj364T1rcQ7kNvwE-3cw6&_nc_oc=AdkzhCSouqvSj_y-54qxtmbOWKhk1iJXjUmBaTUEQZxh2rfpcnuLp7n9VuIPntjRzgt0LAm8DjbJF3xeV7qE9gzi&_nc_zt=23&_nc_ht=scontent-cdg4-1.cdninstagram.com&edm=AM6HXa8EAAAA&_nc_gid=LjiY-W0TOtCnefgHl_MvlA&oh=00_AfMM9yav2IwOBsxwRTjoAdBngCSrai7xQ86ZDkBNgovKgg&oe=684A21F4",
              "id": "18016013521684029"
            },
            {
              "media_url": "https://scontent-cdg4-2.cdninstagram.com/v/t51.29350-15/366443593_1481231995958832_5715443749534627462_n.jpg?stp=dst-jpg_e35_tt6&_nc_cat=101&ccb=1-7&_nc_sid=18de74&_nc_ohc=6O_p15u3j9kQ7kNvwHbb43Q&_nc_oc=AdmbLUwcjnb4Q1Ha1r72idXVyr8V64audjoZufBAc0sLY5uBBVOoipIsmOfRXV3KsDxKLDENFaz9vf9O9hT9DNSM&_nc_zt=23&_nc_ht=scontent-cdg4-2.cdninstagram.com&edm=AM6HXa8EAAAA&_nc_gid=LjiY-W0TOtCnefgHl_MvlA&oh=00_AfOmV24VlKLinbcFRMjNgIFcs88edvOSoyHFUr2zvp_QRw&oe=684A0EC8",
              "id": "17955455129637964"
            }
          ]
        },
        "timestamp": "2023-08-10T16:22:02+0000",
        "id": "18231954934168112"
      }
    },
    {
      "feedJSON": {
        "media_url": "https://scontent-cdg4-1.cdninstagram.com/v/t39.30808-6/484857443_1096340342505786_2567918890556929941_n.jpg?stp=dst-jpg_e35_tt6&_nc_cat=105&ccb=1-7&_nc_sid=18de74&_nc_ohc=t4bCLzCvw3wQ7kNvwEjH6gE&_nc_oc=AdmFDOr5bduepfyA7uPEM-msDOj4aqTRljoIM6VhtXuEd92sJfTmcImGg5cudqZsjtvU1iQ7a_fGzOafHDDCRZ3_&_nc_zt=23&_nc_ht=scontent-cdg4-1.cdninstagram.com&edm=AM6HXa8EAAAA&_nc_gid=LjiY-W0TOtCnefgHl_MvlA&oh=00_AfPq9VeOeA1XsxH6wICiSqjCiEylFLo0P9mOhuzUzy-ehw&oe=684A1269",
        "media_type": "IMAGE",
        "like_count": 12,
        "comments_count": 1,
        "caption": "Petite citation du jour 😌\nIl est vrai que la plupart du temps, si le corps ne nous envoie pas de signal, c'est plutôt bon signe ! \nA nous aussi de nous écouter, car nous sommes trop souvent \"dans notre tête\" et pas assez \"dans notre corps\" !\n.\n.\n.\nJe m’appelle Laure et je suis Naturopathe Iridologue.\nJe vous accompagne et vous donne les clés pour retrouver votre santé et votre bien-être au naturel 🌱.\n\nN’hésitez pas à réserver une consultation ou un appel découverte offert ici : https://laurenaturo.fr\n\nC’est avec plaisir et bienveillance que je vous accompagnerai !\n\nA bientôt,\n\nLaure",
        "shortcode": "CvpxPCjNX99",
        "timestamp": "2023-08-07T18:00:05+0000",
        "id": "17967818897382783"
      }
    },
    {
      "feedJSON": {
        "media_url": "https://scontent-cdg4-2.cdninstagram.com/v/t51.29350-15/364366000_829021685132543_4811404289514906343_n.jpg?stp=dst-jpg_e35_tt6&_nc_cat=107&ccb=1-7&_nc_sid=18de74&_nc_ohc=HN9kN4zGK-4Q7kNvwE1Vf2V&_nc_oc=AdmDVLKnbyyedpUA8dDHWYzVLqXqz3d-_uG-ETVrBqjLR3jx_VvQXczQYo8-2tDOL-ehEgUcihcWl9Q8_hTZ6xHQ&_nc_zt=23&_nc_ht=scontent-cdg4-2.cdninstagram.com&edm=AM6HXa8EAAAA&_nc_gid=LjiY-W0TOtCnefgHl_MvlA&oh=00_AfNX5e3eCxyy4yL9b6IPlv7__VbeHOs9gUybEvZEjf8JcQ&oe=684A088A",
        "media_type": "CAROUSEL_ALBUM",
        "like_count": 27,
        "comments_count": 1,
        "caption": "Aujourd’hui je te parle de grignotage 🍪🍫🍩 !\nEt surtout conseils anti-grignotages ! \nSavais-tu qu’il existait plusieurs raisons au grignotage ? Alimentation non adaptée, manque d’hydratation, stress, fatigue, déprime, manque de sommeil… Et si tu les cumules c’est la compulsion alimentaire assurée ! \nJe te donne donc des conseils pour mieux gérer tes compulsions et diminuer tes envies de grignoter car comme nous le savons, ce n’est pas vers les légumes que nous sommes attirés dans ces moments-là 😅\nEt toi ? As-tu des astuces anti-grignotage ? \n\n.\n.\n.\n\nJe m’appelle Laure et je suis Naturopathe Iridologue.\nJe vous accompagne et vous donne les clés pour retrouver votre santé et votre bien-être au naturel 🌱.\n\nN’hésitez pas à réserver une consultation ou un appel découverte offert ici : https://laurenaturo.fr\n\n C’est avec plaisir et bienveillance que je vous accompagnerai !\n\nA bientôt, \n\nLaure",
        "shortcode": "Cvh0YLbtxdU",
        "children": {
          "data": [
            {
              "media_url": "https://scontent-cdg4-2.cdninstagram.com/v/t51.29350-15/364366000_829021685132543_4811404289514906343_n.jpg?stp=dst-jpg_e35_tt6&_nc_cat=107&ccb=1-7&_nc_sid=18de74&_nc_ohc=HN9kN4zGK-4Q7kNvwE1Vf2V&_nc_oc=AdmDVLKnbyyedpUA8dDHWYzVLqXqz3d-_uG-ETVrBqjLR3jx_VvQXczQYo8-2tDOL-ehEgUcihcWl9Q8_hTZ6xHQ&_nc_zt=23&_nc_ht=scontent-cdg4-2.cdninstagram.com&edm=AM6HXa8EAAAA&_nc_gid=LjiY-W0TOtCnefgHl_MvlA&oh=00_AfNX5e3eCxyy4yL9b6IPlv7__VbeHOs9gUybEvZEjf8JcQ&oe=684A088A",
              "id": "18026538664597469"
            },
            {
              "media_url": "https://scontent-cdg4-2.cdninstagram.com/v/t51.29350-15/364963093_996406328060242_3415057257202543252_n.jpg?stp=dst-jpg_e35_tt6&_nc_cat=100&ccb=1-7&_nc_sid=18de74&_nc_ohc=vNvxBqPH-zoQ7kNvwEh0Kpo&_nc_oc=AdlyVzDJ3Fpd8PwRKg4pFqWzIzw-sLnsv--47QiKNgPipuR7drg_z1O1d1zFI1lxs-wQbIQWCsLvKwF2X3f-EwJv&_nc_zt=23&_nc_ht=scontent-cdg4-2.cdninstagram.com&edm=AM6HXa8EAAAA&_nc_gid=LjiY-W0TOtCnefgHl_MvlA&oh=00_AfN-I4MDgevZoWDsdDu9uPSrjFtN2ItPbfq2RzQk2f3-hQ&oe=684A228F",
              "id": "18299696614109430"
            },
            {
              "media_url": "https://scontent-cdg4-1.cdninstagram.com/v/t51.29350-15/364328873_3487725098137775_9105015638940558025_n.jpg?stp=dst-jpg_e35_tt6&_nc_cat=108&ccb=1-7&_nc_sid=18de74&_nc_ohc=DZWzuHjd8xsQ7kNvwH_NrCl&_nc_oc=Adk-_CGpabdkURPy2xgpko8psfa2Qnj-tVVrXF8yXbg2UdI8tgIxmVTmSK0c3LT4GK-Qu8Se49c3LbVei8nyUl9C&_nc_zt=23&_nc_ht=scontent-cdg4-1.cdninstagram.com&edm=AM6HXa8EAAAA&_nc_gid=LjiY-W0TOtCnefgHl_MvlA&oh=00_AfOPxrKQbEAuLvd504qXe7Plaw_K1iuEnxDctTkQW0JNjg&oe=684A262E",
              "id": "18025027060548896"
            },
            {
              "media_url": "https://scontent-cdg4-3.cdninstagram.com/v/t51.29350-15/365508462_24247531221500736_300356318111637178_n.jpg?stp=dst-jpg_e35_tt6&_nc_cat=106&ccb=1-7&_nc_sid=18de74&_nc_ohc=-3i8Jo2c-xEQ7kNvwEbqDZP&_nc_oc=Adn5CdjH_ZakIGiT7MAOqj5g1HKrjafFWmbR0-bgYkLMWM_9LRgorsDp5Dy_OWFI_e_zjcuSjUCOUhgVUyjGCGDJ&_nc_zt=23&_nc_ht=scontent-cdg4-3.cdninstagram.com&edm=AM6HXa8EAAAA&_nc_gid=LjiY-W0TOtCnefgHl_MvlA&oh=00_AfOJlt6DtgT3bjf6uMZ1LBmnT3a3AzHomW_MyKtkIPayxA&oe=684A33FC",
              "id": "18010299205796883"
            },
            {
              "media_url": "https://scontent-cdg4-3.cdninstagram.com/v/t51.29350-15/365039980_6614287315284320_7780107415889133557_n.jpg?stp=dst-jpg_e35_tt6&_nc_cat=110&ccb=1-7&_nc_sid=18de74&_nc_ohc=eocdCCoWROAQ7kNvwHPz4OD&_nc_oc=Adl_9TUKjm8HkOgPi1RayAvY1rWMNQPyMuWQ8_RWa16IQwtbwZ9C2bO7mqyzW8rBUEt41IvIFNVCx5Dv093mTCvg&_nc_zt=23&_nc_ht=scontent-cdg4-3.cdninstagram.com&edm=AM6HXa8EAAAA&_nc_gid=LjiY-W0TOtCnefgHl_MvlA&oh=00_AfOsqriBinwqTiXoyjcpzPeHN-PGMWFFvwHSknyZDqwMjw&oe=684A30D8",
              "id": "18067335097404108"
            }
          ]
        },
        "timestamp": "2023-08-04T15:53:37+0000",
        "id": "18225232978241381"
      }
    },
    {
      "feedJSON": {
        "media_url": "https://scontent-cdg4-2.cdninstagram.com/o1/v/t16/f2/m82/AQNx9b6kkMF5NKkRBbiQsFXzVNoA3lF6iM-mZkusl1nG4p8SYLdKqFkpqI7XYw0FwKy72svnenfEVfowmKWIisM9JqgJfetlg94d8VI.mp4?efg=eyJ2ZW5jb2RlX3RhZyI6InZ0c192b2RfdXJsZ2VuLmNsaXBzLnVua25vd24tQzMuNzIwLmRhc2hfYmFzZWxpbmVfMV92MSJ9&_nc_ht=scontent-cdg4-2.cdninstagram.com&edm=AM6HXa8EAAAA&_nc_gid=LjiY-W0TOtCnefgHl_MvlA&_nc_cat=101&_nc_oc=AdmKenwD2krbdPfVRARA9h9B9aHKk5_2UlftaJgDQsKTxYnj7Ag3RVYvSYGCGyhoSnPT-CBsUM0FgTtY0hacqoyU&vs=654036493435393_2237064930&_nc_vs=HBksFQIYT2lnX3hwdl9yZWVsc19wZXJtYW5lbnRfcHJvZC9GQjQwODM1Mjk1MTExNTFBNEY3NTAwQTNBMjI2NTY4OF92aWRlb19kYXNoaW5pdC5tcDQVAALIARIAFQIYOnBhc3N0aHJvdWdoX2V2ZXJzdG9yZS9HTUoyUXhYdWdVdHBsRWtFQUV3M05PZDhtVllXYnFfRUFBQUYVAgLIARIAKAAYABsBiAd1c2Vfb2lsATEVAAAmwJiZpNeMrUAVAigCQzMsF0BHlT987ZFoGBJkYXNoX2Jhc2VsaW5lXzFfdjERAHUAZeadAQA%3D&ccb=9-4&oh=00_AfPGnmeWw6yOKMhh4ErYv38cwoTO8m30h8SXNh-9Qt1xWQ&oe=68461D13&_nc_sid=1d576d",
        "media_type": "VIDEO",
        "thumbnail_url": "https://scontent-cdg4-3.cdninstagram.com/v/t51.36329-15/356042699_818557609843580_2817195391096401539_n.jpg?stp=dst-jpg_e35_tt6&_nc_cat=111&ccb=1-7&_nc_sid=18de74&_nc_ohc=OrhJ87MlhtwQ7kNvwF5bqO2&_nc_oc=AdkGP4edPgeM0KwxXMGXLqVhX4sVzyzU6u5eRH1OMbLcAzST28zMUHzhEhs4sVN8eKVqBOEq7gQl8RBIxfn9pZP6&_nc_zt=23&_nc_ht=scontent-cdg4-3.cdninstagram.com&edm=AM6HXa8EAAAA&_nc_gid=LjiY-W0TOtCnefgHl_MvlA&oh=00_AfPyIxYoJWOaKwooq29UWAb0Ucw-5jBO5SOjJl5RILqFIg&oe=684A2E4A",
        "like_count": 15,
        "comments_count": 1,
        "caption": "Pancakes aux flocons d’avoine 🥞 \n\nJe vous partage aujourd’hui une idée de petit déjeuner (ou goûter!) délicieux et bon pour la santé 😋 \n\nLa recette : \n🥄 150g de flocons d’avoine \n🥄 120g de farine d’épeautre \n🥚 2 oeufs \n🥛 300ml de lait végétal (ici riz)\n🥄 1/2 c. à café  de cannelle\n1 sachet de levure chimique \n🥥 huile de coco pour la cuisson\n\nTopping : \n🍁 1 c. à soupe de sirop d’érable\n🫐 des myrtilles et des framboises \n\nComme topping, tu peux varier et choisir les fruits que tu souhaites et/ou agrémenter avec du beurre de cacahuète, du chocolat noir fondu🍫, du miel … \n\n✅ Les flocons d’avoine sont riches en fer, calcium, magnésium, phosphore, et potassium. Grâce à leur richesse en fibres, on se sent rapidement rassasié et la glycémie est régulée (adieu les hypoglycémies)!. \n\n✅ L’huile de coco est très digeste et constitue une excellente source d’acides gras. \n\n✅ La farine d’épeautre a une faible teneur en gluten, elle est riche en fibres, vitamines et minéraux. \n\n✅ Le lait végétal ne contient ni cholestérol, ni lactose et est riche en vitamines et minéraux. \n\nEn bref, laissez-vous tenter et dites-moi en commentaires ce que vous en pensez ! \n\nIci tout le monde s’est régalé (surtout les enfants...) ! 😋 \n.\n.\n.\n\nJe m’appelle Laure et je suis Naturopathe Iridologue.\nJe vous accompagne et vous donne les clés pour retrouver votre santé et votre bien-être au naturel 🌱.\n\nN’hésitez pas à réserver une consultation ou un appel découverte offert ici : https://laurenaturo.fr\n\n C’est avec plaisir et bienveillance que je vous accompagnerai !\n\nA bientôt, \n\nLaure",
        "shortcode": "CuACJ-ENfyx",
        "timestamp": "2023-06-27T16:31:06+0000",
        "id": "17981143055197073"
      }
    }
  ],
  "pageInfo": {
    "pageCount": 20,
    "page": 5,
    "total": 99,
    "pageSize": 5
  }
}