{
  "nodes": [
    {
      "feedJSON": {
        "media_url": "https://scontent-cdg4-3.cdninstagram.com/v/t51.29350-15/261356713_618191339628151_429475774663633435_n.jpg?stp=dst-jpg_e35_tt6&_nc_cat=110&ccb=1-7&_nc_sid=18de74&_nc_ohc=7urawgMJeOQQ7kNvwEVLbT4&_nc_oc=Adn8XrQaI98VBzvj1TB68buUmVR9dw8fX4ElAha6cMgjORvPaciHTuHP4guOfJnNDkIYq5yvnXsB-zxIRt8XqAuJ&_nc_zt=23&_nc_ht=scontent-cdg4-3.cdninstagram.com&edm=AM6HXa8EAAAA&_nc_gid=uKSsQs8gxM_wFWSAh6MQ1Q&oh=00_AfPpe874oH-cCJIC2FBYfOY38SIl7Q-t1k9gVAB-cb4Owg&oe=684A0D2F",
        "media_type": "CAROUSEL_ALBUM",
        "like_count": 30,
        "comments_count": 4,
        "caption": "Le petit déjeuner 🍵 \n\nLe petit déjeuner est un moment plaisir, le 1er repas de la journée après le long jeûne de la nuit.. \n\nEn France, nous avons coutume de consommer un petit déjeuner « continental  » avec la célèbre tartiner de pain, beurre, confiture.. 🥖 \n\nMalheureusement, ce petit déjeuner fait monter la glycémie en flèche et vous connaissez la suite… : le fameux coup de barre de 11h.. 😴 On appelle cela l’hypoglycémie réactionnelle. \n\nPour éviter cela, il suffit de prendre de nouvelles habitudes. \n\nDès le matin, ton corps a besoin de protéines et de lipides. \nLes protéines te permettront de synthétiser la dopamine. Il s’agit de l’hormone du cerveau qui favorise l'énergie, la motivation et la positivité (rien que ca !). 💪\n\nJe sais combien il est difficile de changer ses habitudes (je suis passée par là 😅) mais promis, quand on constate les bienfaits, on n’a pas du tout envie de revenir en arrière !\n\nJe faisais partie de la team tartine confiture, beurre.. jusqu’à ce que je rencontre une naturopathe qui m’a conseillé de changer mon petit déjeuner. \n\nAujourd’hui, je petit-déjeune salé avec du fromage de brebis, des oeufs 🍳 , du pain complet. J’ai arrêté le jus d’orange…\n\nRésultats : j’ai perdu du poids, je n’ai plus d’hypoglycémie et je me sens beaucoup plus en forme ! \n\nEt toi ? Que manges-tu au petit déjeuner? \nAs-tu envie de changer tes habitudes ? 😉",
        "shortcode": "CWuw1TwIUFU",
        "children": {
          "data": [
            {
              "media_url": "https://scontent-cdg4-3.cdninstagram.com/v/t51.29350-15/261356713_618191339628151_429475774663633435_n.jpg?stp=dst-jpg_e35_tt6&_nc_cat=110&ccb=1-7&_nc_sid=18de74&_nc_ohc=7urawgMJeOQQ7kNvwEVLbT4&_nc_oc=Adn8XrQaI98VBzvj1TB68buUmVR9dw8fX4ElAha6cMgjORvPaciHTuHP4guOfJnNDkIYq5yvnXsB-zxIRt8XqAuJ&_nc_zt=23&_nc_ht=scontent-cdg4-3.cdninstagram.com&edm=AM6HXa8EAAAA&_nc_gid=uKSsQs8gxM_wFWSAh6MQ1Q&oh=00_AfPpe874oH-cCJIC2FBYfOY38SIl7Q-t1k9gVAB-cb4Owg&oe=684A0D2F",
              "id": "17910678908096687"
            },
            {
              "media_url": "https://scontent-cdg4-2.cdninstagram.com/v/t51.29350-15/260292093_580611196350817_1988457527585357543_n.jpg?stp=dst-jpg_e35_tt6&_nc_cat=109&ccb=1-7&_nc_sid=18de74&_nc_ohc=Qb7KoKb4XOwQ7kNvwGSmq30&_nc_oc=AdksSEK60ZTBr-vx7w517U5EyDHFBRIstN862geuOaUjR8MSY6wr9_GfXaWgLP-PsIrPZYs3883kXDmnV9ySIlTn&_nc_zt=23&_nc_ht=scontent-cdg4-2.cdninstagram.com&edm=AM6HXa8EAAAA&_nc_gid=uKSsQs8gxM_wFWSAh6MQ1Q&oh=00_AfN69PvYlEM_vD-088HgT3iZ9OMMvTf-lbPOxs2eHQJwSA&oe=684A27F0",
              "id": "17900167523290080"
            },
            {
              "media_url": "https://scontent-cdg4-2.cdninstagram.com/v/t51.29350-15/260437041_111528567903528_8497331333757132854_n.jpg?stp=dst-jpg_e35_tt6&_nc_cat=109&ccb=1-7&_nc_sid=18de74&_nc_ohc=Z8N_sst5uboQ7kNvwEbmrrl&_nc_oc=AdmcV_M0BmigBhjOA6vWxoI8sv4QUCSFIt9Ce74hU-PyXkOCmHjo2KpR7_TL_hKi3ybVnvCdQfMbZ-vyYLpGogNa&_nc_zt=23&_nc_ht=scontent-cdg4-2.cdninstagram.com&edm=AM6HXa8EAAAA&_nc_gid=uKSsQs8gxM_wFWSAh6MQ1Q&oh=00_AfMVnTg23U9K7HGbE68tr0GvMwdmGqhdR3mv0D5_PJ7wYw&oe=684A1B08",
              "id": "17879340563592726"
            },
            {
              "media_url": "https://scontent-cdg4-3.cdninstagram.com/v/t51.29350-15/260374255_708682193855335_5359357422548664775_n.jpg?stp=dst-jpg_e35_tt6&_nc_cat=111&ccb=1-7&_nc_sid=18de74&_nc_ohc=9QW9B_tPzg0Q7kNvwGkhz6h&_nc_oc=AdkPSi-inBx-6k2JabOMtynEaP4tH_MnQmDZNofmxgXmMy-rXJ90Fm-udUlhLUToBwrmL0PC-dQnXPJJrOTUEZ7E&_nc_zt=23&_nc_ht=scontent-cdg4-3.cdninstagram.com&edm=AM6HXa8EAAAA&_nc_gid=uKSsQs8gxM_wFWSAh6MQ1Q&oh=00_AfPU-0Hg2bIbdLr0gDz0_BI-uuPrXG0MoI-Rv2OgqWUzHw&oe=684A050F",
              "id": "17950312744598937"
            },
            {
              "media_url": "https://scontent-cdg4-3.cdninstagram.com/v/t51.29350-15/260586848_1065551574200763_5586703634891835669_n.jpg?stp=dst-jpg_e35_tt6&_nc_cat=110&ccb=1-7&_nc_sid=18de74&_nc_ohc=tUBbz5eMID0Q7kNvwEhOnj9&_nc_oc=AdlU3s3LknkUFUNohU-o0VFtgh6cPoq0hsdNTqLDssQqceTgRMl17c1n4bduOgmos823m0leZw4osrDg_nrbTXvt&_nc_zt=23&_nc_ht=scontent-cdg4-3.cdninstagram.com&edm=AM6HXa8EAAAA&_nc_gid=uKSsQs8gxM_wFWSAh6MQ1Q&oh=00_AfNf-VSulfXKIAl8K6DV1TBJHjgzIO1i9W30hgYSBU-p2w&oe=6849FD22",
              "id": "18266801002063076"
            },
            {
              "media_url": "https://scontent-cdg4-1.cdninstagram.com/v/t51.29350-15/260347772_441607837427827_1630572405459286897_n.jpg?stp=dst-jpg_e35_tt6&_nc_cat=105&ccb=1-7&_nc_sid=18de74&_nc_ohc=jQiGAsD3cRsQ7kNvwFXey0k&_nc_oc=AdmJL0WNYm8bX-yCq9SVxmtLJgh4DAbvgJ5JmBfJAy5K3B1AHAW148mv8g2VQO9VdS6f_ME_gMs8xiGqNOZZJ6lh&_nc_zt=23&_nc_ht=scontent-cdg4-1.cdninstagram.com&edm=AM6HXa8EAAAA&_nc_gid=uKSsQs8gxM_wFWSAh6MQ1Q&oh=00_AfPf5deZLG6NS-rky9i3yia97_04cQeVLp7W37nADvq29g&oe=684A2A97",
              "id": "17916995449996828"
            }
          ]
        },
        "timestamp": "2021-11-26T07:27:55+0000",
        "id": "17907602495323717"
      }
    },
    {
      "feedJSON": {
        "media_url": "https://scontent-cdg4-1.cdninstagram.com/v/t51.29350-15/260032309_437983437933720_27542747038043256_n.jpg?stp=dst-jpg_e35_tt6&_nc_cat=108&ccb=1-7&_nc_sid=18de74&_nc_ohc=x80u6bXSs6oQ7kNvwGWBWfc&_nc_oc=AdkKvRS-TPs4hDomxnFKYiPoQKXF2R6-5WXgNJHi_-gwu37dwbzka6rxno96EAvqip_pMp50HJ3j_JQtmkJcMXQv&_nc_zt=23&_nc_ht=scontent-cdg4-1.cdninstagram.com&edm=AM6HXa8EAAAA&_nc_gid=uKSsQs8gxM_wFWSAh6MQ1Q&oh=00_AfMS5WsPnHldB91cH5QJVkaWlohqirpNP3KWQXax-i8aAg&oe=684A0477",
        "media_type": "CAROUSEL_ALBUM",
        "like_count": 75,
        "comments_count": 7,
        "caption": "Les émonctoires \n\nQu’est-ce donc…? 🧐\n\nCe sont les 5 organes qui éliminent les déchets et toxines de ton corps : Le foie, les intestins, les reins, la peau et les poumons. \n\nOn peut également en citer un 6ème uniquement présent chez la femme 👩 : l’utérus.\n\n Il permet d’évacuer les colles (mucosités) avec les pertes blanches et le sang vicié de la muqueuse utérine lors des menstruations. \n\nCes organes se surchargent et s’encrassent tous les jours, surtout avec notre mode de vie moderne qui n’est pas toujours adapté…😌\n\nIl est donc important d’en prendre soin à l’aide d’une bonne hygiène de vie afin de faciliter leur travail et l’élimination de tes toxines 💪. \n\nJe te laisse apprécier l’utilité de chacun d’eux ! \n\nBonne lecture 📖 😉",
        "shortcode": "CWnEU7rIeF5",
        "children": {
          "data": [
            {
              "media_url": "https://scontent-cdg4-1.cdninstagram.com/v/t51.29350-15/260032309_437983437933720_27542747038043256_n.jpg?stp=dst-jpg_e35_tt6&_nc_cat=108&ccb=1-7&_nc_sid=18de74&_nc_ohc=x80u6bXSs6oQ7kNvwGWBWfc&_nc_oc=AdkKvRS-TPs4hDomxnFKYiPoQKXF2R6-5WXgNJHi_-gwu37dwbzka6rxno96EAvqip_pMp50HJ3j_JQtmkJcMXQv&_nc_zt=23&_nc_ht=scontent-cdg4-1.cdninstagram.com&edm=AM6HXa8EAAAA&_nc_gid=uKSsQs8gxM_wFWSAh6MQ1Q&oh=00_AfMS5WsPnHldB91cH5QJVkaWlohqirpNP3KWQXax-i8aAg&oe=684A0477",
              "id": "18177876199081310"
            },
            {
              "media_url": "https://scontent-cdg4-2.cdninstagram.com/v/t51.29350-15/259418161_303493331635025_1799768170717461337_n.jpg?stp=dst-jpg_e35_tt6&_nc_cat=107&ccb=1-7&_nc_sid=18de74&_nc_ohc=luI816j3SeUQ7kNvwEXdRvR&_nc_oc=AdngRmw4jaHZWSaRaX9Dp38qJFGVOGDyfistihsXJfSFSLm4QuU_MDrUpHTSq4ukdG1-wcRSt6Fss9G6Fz4wMd5Z&_nc_zt=23&_nc_ht=scontent-cdg4-2.cdninstagram.com&edm=AM6HXa8EAAAA&_nc_gid=uKSsQs8gxM_wFWSAh6MQ1Q&oh=00_AfO9sR3EbWtFN7QtMYv3NuEtJlE2wu-HQLEIE6omFUt68A&oe=684A2358",
              "id": "17951847931561301"
            },
            {
              "media_url": "https://scontent-cdg4-3.cdninstagram.com/v/t51.29350-15/260560005_433252938209024_3025511953554802759_n.jpg?stp=dst-jpg_e35_tt6&_nc_cat=111&ccb=1-7&_nc_sid=18de74&_nc_ohc=MVyFQIcVdaAQ7kNvwEKnjqH&_nc_oc=AdmdyvR6DVMHAJLXeG1cbb3z3J4scTjR22tNnKkiZP7k6hHOTiSFiQ4A6Z31VYLT_bjnG2Tiz13IlrF-l_RNY1tz&_nc_zt=23&_nc_ht=scontent-cdg4-3.cdninstagram.com&edm=AM6HXa8EAAAA&_nc_gid=uKSsQs8gxM_wFWSAh6MQ1Q&oh=00_AfN_sreLJeSXL3KEHjHUUSWvxAQ4--TsxSX13VDz6OcePw&oe=684A1B41",
              "id": "17942798860641864"
            },
            {
              "media_url": "https://scontent-cdg4-1.cdninstagram.com/v/t51.29350-15/259178817_433729821662437_6695061392911643934_n.jpg?stp=dst-jpg_e35_tt6&_nc_cat=104&ccb=1-7&_nc_sid=18de74&_nc_ohc=s6BQc4a94GQQ7kNvwHq9Zxf&_nc_oc=AdkyzBU4_t2hW4mwo9L4FxplsDeGa0SygfuQnHBTbDZlax22qxvcEjIFyVLQXr721tDXSJm1hA8AYOkZc8X6rP6K&_nc_zt=23&_nc_ht=scontent-cdg4-1.cdninstagram.com&edm=AM6HXa8EAAAA&_nc_gid=uKSsQs8gxM_wFWSAh6MQ1Q&oh=00_AfMO_bxAK2pM6QEBr-Xkdf9yo9-txTtmFo6aNseULydzoQ&oe=684A2958",
              "id": "18186005215151117"
            },
            {
              "media_url": "https://scontent-cdg4-3.cdninstagram.com/v/t51.29350-15/259994793_630022758035226_7486809689496816750_n.jpg?stp=dst-jpg_e35_tt6&_nc_cat=110&ccb=1-7&_nc_sid=18de74&_nc_ohc=Qd934wTwsdYQ7kNvwGSFA7v&_nc_oc=AdkCp-WSLjaQfu6ao-BisRoSkzeJXju8lekBsx82N5XC9LIIQx6b7et5mCWW0JdXwHSXplq2Ymy7lUpLeyBAFdtY&_nc_zt=23&_nc_ht=scontent-cdg4-3.cdninstagram.com&edm=AM6HXa8EAAAA&_nc_gid=uKSsQs8gxM_wFWSAh6MQ1Q&oh=00_AfMUGzQK0QFg6rnh3i6QT3BpZhx3BjF_woPmiGVDkOLp6A&oe=684A05FB",
              "id": "18201063463139678"
            },
            {
              "media_url": "https://scontent-cdg4-2.cdninstagram.com/v/t51.29350-15/259158256_1318221815292996_7848186751248253232_n.jpg?stp=dst-jpg_e35_tt6&_nc_cat=109&ccb=1-7&_nc_sid=18de74&_nc_ohc=uvTwBaIuLAsQ7kNvwFbCNes&_nc_oc=AdnqBPD6qVhRlpnJ10Eb5ItnqBTzM7iiHe8-jJlNUuAPqnHCGlo0dQozTpBlBkahdrZYK5tZlzLq8uh2lwEC8Pi7&_nc_zt=23&_nc_ht=scontent-cdg4-2.cdninstagram.com&edm=AM6HXa8EAAAA&_nc_gid=uKSsQs8gxM_wFWSAh6MQ1Q&oh=00_AfNxV68DA_hhvkWucS7c2AAhqhsmLVrMAGvMgj5z7zzs1w&oe=684A2A9A",
              "id": "17913661376143211"
            },
            {
              "media_url": "https://scontent-cdg4-2.cdninstagram.com/v/t51.29350-15/259099247_930453021214481_1740504847261837617_n.jpg?stp=dst-jpg_e35_tt6&_nc_cat=109&ccb=1-7&_nc_sid=18de74&_nc_ohc=L7qkh5gxnZQQ7kNvwFUg0SV&_nc_oc=AdlR1N2x2Zo7Oda4EqBsX1kyqmZoBChv7-MM9IhbT98oxxCD4yxD_2fxMLlabfc4Bvwcia1ro4IRSasq8yQS2uJz&_nc_zt=23&_nc_ht=scontent-cdg4-2.cdninstagram.com&edm=AM6HXa8EAAAA&_nc_gid=uKSsQs8gxM_wFWSAh6MQ1Q&oh=00_AfOtpBk2HVYK5vNZLzJWmIru2Ec_6rufPXwqm9fPEytsWw&oe=684A1653",
              "id": "17881481825560933"
            },
            {
              "media_url": "https://scontent-cdg4-2.cdninstagram.com/v/t51.29350-15/259676907_283390540464449_5568482208166821984_n.jpg?stp=dst-jpg_e35_tt6&_nc_cat=103&ccb=1-7&_nc_sid=18de74&_nc_ohc=wsvE_JBLO34Q7kNvwENlyzt&_nc_oc=AdkRtP4DGQP3PqOsCeCJ0wZfTVLFfzNeefYFYqNUWNfEAqFCAMBevojOLOJytM9grJ53dPBiZI6G_1pNrdaOtSQ8&_nc_zt=23&_nc_ht=scontent-cdg4-2.cdninstagram.com&edm=AM6HXa8EAAAA&_nc_gid=uKSsQs8gxM_wFWSAh6MQ1Q&oh=00_AfOQtWIg9I_xiEGU13lTizkioz-atWkrqWSdWuEESQAJfQ&oe=684A326D",
              "id": "17968471030468085"
            }
          ]
        },
        "timestamp": "2021-11-23T07:44:20+0000",
        "id": "18176248993093305"
      }
    },
    {
      "feedJSON": {
        "media_url": "https://scontent-cdg4-1.cdninstagram.com/v/t51.29350-15/258883534_1304828919955184_5928187241763311827_n.jpg?stp=dst-jpg_e35_tt6&_nc_cat=105&ccb=1-7&_nc_sid=18de74&_nc_ohc=gAg1SlgCDSEQ7kNvwGGLaZF&_nc_oc=AdmF1Cqz8Gv0bsfc6VWfCpN4_Eqkxkr8ht8Femux9_t18_ZlNfnHzgUaGIHJyr9qQ0Xr0r4JRI-PyEDYteY-UgC9&_nc_zt=23&_nc_ht=scontent-cdg4-1.cdninstagram.com&edm=AM6HXa8EAAAA&_nc_gid=uKSsQs8gxM_wFWSAh6MQ1Q&oh=00_AfO86kErJ3kgKVnv1ditFly1IPANrG2YDFNQ1RXJhMyFtA&oe=684A1F4C",
        "media_type": "IMAGE",
        "like_count": 24,
        "comments_count": 1,
        "shortcode": "CWgsiiaI3Fs",
        "timestamp": "2021-11-20T20:21:02+0000",
        "id": "18264439555061142"
      }
    },
    {
      "feedJSON": {
        "media_url": "https://scontent-cdg4-1.cdninstagram.com/v/t51.29350-15/257883555_279556254101346_4346089844259007258_n.jpg?stp=dst-jpg_e35_tt6&_nc_cat=104&ccb=1-7&_nc_sid=18de74&_nc_ohc=4V3Sq3i3qb8Q7kNvwFY04mA&_nc_oc=AdlkIbznL_4LYJitV-hf8ErtTxfB2vrlZq5EZoTB5AI_wDRRslBwakt6a6vPNy_Vh_9cBjesY8pOVEkDOVQUHmuL&_nc_zt=23&_nc_ht=scontent-cdg4-1.cdninstagram.com&edm=AM6HXa8EAAAA&_nc_gid=uKSsQs8gxM_wFWSAh6MQ1Q&oh=00_AfOTdZORkMJ0ZcgB2JVoOeNlcud0kg6fdauaHmEqCzoiVA&oe=684A2AB7",
        "media_type": "IMAGE",
        "like_count": 33,
        "comments_count": 5,
        "caption": "Les préjugés sur la naturopathie 🌱 \n\n✅ Une pratique qui soigne avec des plantes 🌱 et des graines : c’est ce que je pensais avant de connaître la naturopathie 😅 Mais sache que c’est une toute petite partie de la naturo.. Il y a 10 grandes techniques en tout pour t’accompagner vers la pleine santé 🧘‍♀️.\n\n✅ Les naturopathes sont tous vegans ou végérariens : alors non..pas du tout ! J’en suis la preuve vivante 😋\n\n✅ Un truc à finir dans une temple bouddhiste avec des tisanes 🍵 : chacun fais ce qu’il veut mais la grande majorité des naturopathes ont une vie comme la tienne 😉. \n\n✅ Une médecine douce à l’opposé de la médecine conventionnelle : absolument pas ! Ces 2 médecines se complètent parfaitement. Elles sont chacune l’alliée de l’autre (je détaillerai tout ca dans un post spécifique).\n\n✅ Une pratique bien triste avec aucun plaisir : non, non et re-non ! Le secret de l’équilibre c’est 80/20. 80% de bonnes pratiques et 20% de lâcher prise ! J’adore me faire plaisir et pour rien au monde, je me priverai. D’ailleurs il vaut mieux manger une bonne pizza bien accompagné que des haricots verts tout seul en train de déprimer ! C’est prouvé 😀\n\n✅ C’est cher 💶 … : à toi de voir ce qui est important pour toi dans la vie ! \nPour moi, la santé n’a pas de prix. Une bonne santé te permettra de faire tout ce dont tu as envie, et le plus longtemps possible ! Et si tu tires sur la corde, tu risques de payer les pots cassés physiquement, mentalement et pécuniairement parlant.. \n\nEt toi ? Quels sont tes préjugés sur la naturopathie et les naturopathes ?",
        "shortcode": "CWbF0RBoKJ1",
        "timestamp": "2021-11-18T16:06:28+0000",
        "id": "17900627273257152"
      }
    },
    {
      "feedJSON": {
        "media_url": "https://scontent-cdg4-2.cdninstagram.com/v/t51.29350-15/258184585_261258689198415_5148748041175595150_n.jpg?stp=dst-jpg_e35_tt6&_nc_cat=100&ccb=1-7&_nc_sid=18de74&_nc_ohc=CBhceD5yQ_QQ7kNvwEWFym_&_nc_oc=AdkZwD3OfbiNdWwfr2D2auv6u9M6yKv4NayIDnhOOTMNOe3L70YuazIPvo_8xftY5c6VhYp8Xc2oH38-3L7ft67a&_nc_zt=23&_nc_ht=scontent-cdg4-2.cdninstagram.com&edm=AM6HXa8EAAAA&_nc_gid=uKSsQs8gxM_wFWSAh6MQ1Q&oh=00_AfMg3eIk-TnNhRuF0gnRlPW5Ryip6AmwMJjG870Hzc5PaQ&oe=684A2117",
        "media_type": "CAROUSEL_ALBUM",
        "like_count": 18,
        "comments_count": 1,
        "caption": "Le gluten 🌾 \n\nRégime sans gluten, intolérance au gluten, allergie au gluten.. Mais qu’en est-il vraiment ? 🧐\n\nTout d’abord, le gluten est un terme générique que l’on utilise pour définir les protéines végétales que l’on trouve dans certaines céréales comme : le blé, l’avoine, le seigle, l’orge, l’épeautre, le froment et le kamut. 🌱 \n\nLe gluten rend la farine élastique et résistante : on dit qu’elle est panifiable. \n\nC’est pour cela que la baguette 🥖 ou la brioche sont toutes moelleuses (et délicieuses…!)… 😋 \n\nLe petit hic, c’est que nous n’avons pas tout à fait toutes les enzymes nécessaires pour digérer ce gluten. \nC’est pour cela que certaines personnes en sont incommodées. 🤢 \n\nDe plus, le gluten se retrouve dans la plupart des produits transformés, très (trop) consommés aujourd’hui (pain, pâtes, pizzas, pâtisseries, sauces, conserves, plats préparés..). \n\nEt pour couronner le tout, le blé utilisé de nos jours n’est pas celui d’hier.. \nIl contient aujourd’hui 2X plus de gluten que le blé dit « ancien ». Les céréales modernes ont subi un grand nombre de transformations génétiques au cours de ces derniers siècles.. 😞\n\nLes personnes qui optent pour un régime sans gluten retrouvent de l’énergie, elles sont moins ballonnées, leur digestion est facilitée. 😀 \n\nEt pour celles qui ont le syndrome de l’intestin irritable, leur inflammation se réduit considérablement ! \n\nDans tous les cas, le régime stricte sans gluten doit être suivi par les personnes intolérantes, allergiques, ayant des maladies ou douleurs liées au gluten. \n\nEt pour les autres ? \nJe dirais, à toi de voir ! Limiter le gluten peut t’apporter un confort digestif et un regain d’énergie. 🏃 \n\nPour ma part, j’ai récemment fait le test de remplacer les « biscuits plaisir » par des « biscuits plaisir sans gluten » car je me sentais toujours « fatiguée » après en avoir mangé (même très peu!) et mon coeur s’emballait… \n\nVerdict : absolument rien avec les biscuits sans gluten 😮😁\n\nAlors je te conseille d’écouter ton corps avant tout, il a beaucoup à t’apprendre 🙂.",
        "shortcode": "CWYZSbuIOp0",
        "children": {
          "data": [
            {
              "media_url": "https://scontent-cdg4-2.cdninstagram.com/v/t51.29350-15/258184585_261258689198415_5148748041175595150_n.jpg?stp=dst-jpg_e35_tt6&_nc_cat=100&ccb=1-7&_nc_sid=18de74&_nc_ohc=CBhceD5yQ_QQ7kNvwEWFym_&_nc_oc=AdkZwD3OfbiNdWwfr2D2auv6u9M6yKv4NayIDnhOOTMNOe3L70YuazIPvo_8xftY5c6VhYp8Xc2oH38-3L7ft67a&_nc_zt=23&_nc_ht=scontent-cdg4-2.cdninstagram.com&edm=AM6HXa8EAAAA&_nc_gid=uKSsQs8gxM_wFWSAh6MQ1Q&oh=00_AfMg3eIk-TnNhRuF0gnRlPW5Ryip6AmwMJjG870Hzc5PaQ&oe=684A2117",
              "id": "17898195314387101"
            },
            {
              "media_url": "https://scontent-cdg4-2.cdninstagram.com/v/t51.29350-15/258779145_688209165490727_5299990184207380450_n.jpg?stp=dst-jpg_e35_tt6&_nc_cat=101&ccb=1-7&_nc_sid=18de74&_nc_ohc=hM1qZvDWnR4Q7kNvwErvJiS&_nc_oc=AdlmCTz6O9ANF8yeOFBKRvioKyzW7FTtnBJD_aim4wzGq8X2VQrIEVfR9Ed3W0EmVDu_j28SQn1Ok7FRHfChgObf&_nc_zt=23&_nc_ht=scontent-cdg4-2.cdninstagram.com&edm=AM6HXa8EAAAA&_nc_gid=uKSsQs8gxM_wFWSAh6MQ1Q&oh=00_AfOQpySOw3f0dKbEdI_Mj9DGSifkLLfulANpByNyIEFeoQ&oe=684A1054",
              "id": "17932441837833582"
            },
            {
              "media_url": "https://scontent-cdg4-1.cdninstagram.com/v/t51.29350-15/257184594_3106567562963556_8384524201381129229_n.jpg?stp=dst-jpg_e35_tt6&_nc_cat=102&ccb=1-7&_nc_sid=18de74&_nc_ohc=zqrGALYBzkgQ7kNvwGIJ4Zp&_nc_oc=Adlq-ylcIZJmXm9UzNQCN5A44zXxx3LHRo0cC5tyM3hKV4hAchR11lt4BmBrv9Ay7KIfVhEcKNhZyhHtIDfSDSzG&_nc_zt=23&_nc_ht=scontent-cdg4-1.cdninstagram.com&edm=AM6HXa8EAAAA&_nc_gid=uKSsQs8gxM_wFWSAh6MQ1Q&oh=00_AfNegwpPdSwqbKdEgEONKsa1uDsDnHMehHrhf0eeUlVJgQ&oe=684A2975",
              "id": "17937593449731713"
            }
          ]
        },
        "timestamp": "2021-11-17T14:58:53+0000",
        "id": "17880414377572280"
      }
    }
  ],
  "pageInfo": {
    "pageCount": 20,
    "page": 16,
    "total": 99,
    "pageSize": 5
  }
}