{"nodes":[{"feedJSON":{"media_type":"CAROUSEL_ALBUM","like_count":21,"comments_count":1,"caption":"Les ions négatifs .. \n\nTu connais ? 🧐\nIls sont très bénéfiques sur notre santé mais malheureusement, notre mode de vie nous expose plutôt aux ions positifs..(pollution atmosphérique, climatisation, télévision, chauffage électrique, téléphone portable, tabac, changement de temps..). Tout cela entraîne fatigue chronique, problème respiratoire, maux de tête et même dépression..). \n\nIl est donc important de faire le plein d’ions négatifs ! Mais comment ..?? \nOn les retrouve en grande quantité à la campagne, au soleil, en bord de mer, à la montagne, près d’une chute d’eau ou après un orage ou sous la pluie. \nEt encore plus facilement : en aérant son intérieur, en prenant une douche, en lisant à côté d’une fontaine.. \n\nLes ions négatifs favorise le calme et la relaxation. Ils ont un impact sur la stabilisation de notre métabolisme. En bref, ils nous font du bien 🤩 \n\nEt si vraiment vous voulez avoir des ions négatifs à portée de main, il existe des ioniseurs tout comme le mien en photo. Parfait pour une bonne nuit de sommeil 😴😉 ! \n\nAvais-tu remarqué les effets de ces ions positifs et négatifs ? Dans quelle situation ?","shortcode":"CVDkNwjIXmo","children":{"data":[{"id":"17877454202544437","media":[{"rawOptions":{"src":"https://ln-admin.laurenaturo.fr/uploads/17867473097611245_media_url_870853a01c.jpeg","width":1440,"height":1439,"format":"webp"},"options":{"src":"https://ln-admin.laurenaturo.fr/uploads/17867473097611245_media_url_870853a01c.jpeg","width":1440,"height":1439,"format":"webp"},"src":"/_astro/17867473097611245_media_url_870853a01c_Z1DY5Co.webp","srcSet":{"values":[],"attribute":""},"attributes":{"width":1440,"height":1439,"loading":"lazy","decoding":"async"}}]},{"id":"17925903361876749","media":[{"rawOptions":{"src":"https://ln-admin.laurenaturo.fr/uploads/17867473097611245_media_url_c04302a8fb.jpeg","width":640,"height":640,"format":"webp"},"options":{"src":"https://ln-admin.laurenaturo.fr/uploads/17867473097611245_media_url_c04302a8fb.jpeg","width":640,"height":640,"format":"webp"},"src":"/_astro/17867473097611245_media_url_c04302a8fb_1z32Bq.webp","srcSet":{"values":[],"attribute":""},"attributes":{"width":640,"height":640,"loading":"lazy","decoding":"async"}}]},{"id":"18262859932054283","media":[{"rawOptions":{"src":"https://ln-admin.laurenaturo.fr/uploads/17867473097611245_media_url_9217b5d6f5.jpeg","width":640,"height":640,"format":"webp"},"options":{"src":"https://ln-admin.laurenaturo.fr/uploads/17867473097611245_media_url_9217b5d6f5.jpeg","width":640,"height":640,"format":"webp"},"src":"/_astro/17867473097611245_media_url_9217b5d6f5_Z1gMj3P.webp","srcSet":{"values":[],"attribute":""},"attributes":{"width":640,"height":640,"loading":"lazy","decoding":"async"}}]}]},"timestamp":"2021-10-15T16:18:55+0000","id":"17867473097611245","media":[{"rawOptions":{"src":"https://ln-admin.laurenaturo.fr/uploads/17867473097611245_media_url_e483559fe6.jpeg","width":1440,"height":1439,"format":"webp"},"options":{"src":"https://ln-admin.laurenaturo.fr/uploads/17867473097611245_media_url_e483559fe6.jpeg","width":1440,"height":1439,"format":"webp"},"src":"/_astro/17867473097611245_media_url_e483559fe6_Z7Y8sK.webp","srcSet":{"values":[],"attribute":""},"attributes":{"width":1440,"height":1439,"loading":"lazy","decoding":"async"}}]}},{"feedJSON":{"media_type":"CAROUSEL_ALBUM","like_count":26,"comments_count":3,"caption":"C’est bientôt Halloween et c’est la saison des citrouilles et courges en tout genre 🎃 ! \nMais quels sont ses bienfaits ..? 🤔\n\nJe vous donne 7 raisons de la consommer :\n1 - Elle réduit le risque de cancer\nElle contient du bêta-carotène, un anti-oxydant qui joue un rôle dans l’oxydation et donc dans la prévention du cancer tout comme l’orange, la patate douce et la carotte.\n\n2- Elle aide à protéger la peau \nSes anti-oxydants et sa vitamine A nous donnent une belle peau \n\n3- Elle est idéale pour récupérer après une séance de sport 🏋️‍♀️ \nPar son apport en potassium, elle aide à rétablir l’équilibre des électrolytes de l’organisme après un entraînement sportif. \n\n4- Elle aide à stimuler le système immunitaire \nGrâce à sa vitamine A, on fait le plein pour lutter contre les microbes.\n\n5- Elle améliore le transit intestinal \nGrâce à son riche apport en fibres, notre bidou nous remercie.\n\n6- Elle aide à la gestion du poids\nElle est peu calorique et contient des fibres qui permettent une bonne digestion et donc un bon transit : un cocktail gagnant dans la gestion du poids. \n\n7- Elle est facile à cuisiner et à conserver \nElle se conserve longuement alors plus d’excuse pour ne pas en acheter !\n\nEt si tout comme moi, vous avez avez des enfants (ou adultes) un peu réticents.. N’hésitez pas à la cuisiner! Elle est aussi bonne sucrée que salée ! En gratin, poêlée, risotto, soupe, velouté, purée… et gâteau ! \nVous pouvez voir la tarte que j’ai préparée pour mes petits gloutons !\nAlors plus d’excuses pour délaisser la citrouille, à vos fourneaux ! \nEt vous, connaissez-vous ce fruit ? (oui oui c’est un fruit 😉). Comment le cuisinez-vous ?","shortcode":"CVAyPeoolFF","children":{"data":[{"id":"18202174258105489","media":[{"rawOptions":{"src":"https://ln-admin.laurenaturo.fr/uploads/17971601743451217_media_url_2f77012a9d.jpeg","width":1440,"height":1440,"format":"webp"},"options":{"src":"https://ln-admin.laurenaturo.fr/uploads/17971601743451217_media_url_2f77012a9d.jpeg","width":1440,"height":1440,"format":"webp"},"src":"/_astro/17971601743451217_media_url_2f77012a9d_ZCybvC.webp","srcSet":{"values":[],"attribute":""},"attributes":{"width":1440,"height":1440,"loading":"lazy","decoding":"async"}}]},{"id":"18185949430133294","media":[{"rawOptions":{"src":"https://ln-admin.laurenaturo.fr/uploads/17971601743451217_media_url_6ad30a2479.jpeg","width":640,"height":640,"format":"webp"},"options":{"src":"https://ln-admin.laurenaturo.fr/uploads/17971601743451217_media_url_6ad30a2479.jpeg","width":640,"height":640,"format":"webp"},"src":"/_astro/17971601743451217_media_url_6ad30a2479_2dyDyW.webp","srcSet":{"values":[],"attribute":""},"attributes":{"width":640,"height":640,"loading":"lazy","decoding":"async"}}]},{"id":"18256153021011169","media":[{"rawOptions":{"src":"https://ln-admin.laurenaturo.fr/uploads/17971601743451217_media_url_606f0fa216.jpeg","width":640,"height":640,"format":"webp"},"options":{"src":"https://ln-admin.laurenaturo.fr/uploads/17971601743451217_media_url_606f0fa216.jpeg","width":640,"height":640,"format":"webp"},"src":"/_astro/17971601743451217_media_url_606f0fa216_7bNRj.webp","srcSet":{"values":[],"attribute":""},"attributes":{"width":640,"height":640,"loading":"lazy","decoding":"async"}}]}]},"timestamp":"2021-10-14T14:23:46+0000","id":"17971601743451217","media":[{"rawOptions":{"src":"https://ln-admin.laurenaturo.fr/uploads/17971601743451217_media_url_6689289d14.jpeg","width":1440,"height":1440,"format":"webp"},"options":{"src":"https://ln-admin.laurenaturo.fr/uploads/17971601743451217_media_url_6689289d14.jpeg","width":1440,"height":1440,"format":"webp"},"src":"/_astro/17971601743451217_media_url_6689289d14_Z2appeG.webp","srcSet":{"values":[],"attribute":""},"attributes":{"width":1440,"height":1440,"loading":"lazy","decoding":"async"}}]}}],"pageInfo":{"pageCount":21,"page":21,"total":102,"pageSize":5}}