{
  "nodes": [
    {
      "feedJSON": {
        "media_url": "https://scontent-cdg4-1.cdninstagram.com/v/t51.75761-15/499173802_18508558411059471_7478235505662734532_n.jpg?stp=dst-jpg_e35_tt6&_nc_cat=108&ccb=1-7&_nc_sid=18de74&_nc_ohc=p-w4FnGyWWYQ7kNvwFVcIK4&_nc_oc=AdmKRXvgFSpFbPgNm_53sbGuCs2TFx0L6m-1ElSSQALiaHyE0jxcvpZWLKKVzU3nj3TVXnd_gh33Zodyk5NCHh3Y&_nc_zt=23&_nc_ht=scontent-cdg4-1.cdninstagram.com&edm=AM6HXa8EAAAA&_nc_gid=LjiY-W0TOtCnefgHl_MvlA&oh=00_AfOWlE9aHm_b9trYOfu32bCM9JsU9Fi-Pz0kjv215WVphA&oe=684A253A",
        "media_type": "CAROUSEL_ALBUM",
        "like_count": 18,
        "comments_count": 3,
        "caption": "💥 6 Habitudes Matinales à Éviter pour Réduire votre Stress et votre Cortisol ! 💡\n\nSaviez-vous que certaines erreurs au réveil peuvent déclencher un pic de cortisol, l’hormone du stress ? Résultat : vous commencez votre journée épuisé(e), stressé(e) et sans énergie. 🚫\n\n👉 Découvrez dans ce post les 6 habitudes à éviter dès le matin pour prendre soin de votre corps et de votre esprit :\n☑️ Arrêter de snoozer\n☑️ Dire adieu au téléphone dès le réveil\n☑️ Ne pas sauter le petit-déjeuner\n☑️ Éviter le café à jeun\n☑️ S’exposer à la lumière naturelle\n☑️ Boire de l’eau pour bien s’hydrater\n\n🌿 Adoptez une morning routine plus saine et zen pour booster votre bien-être et votre productivité. 🕊️💪\n\n📌 Enregistrez ce post pour vous en souvenir et commencez à intégrer ces astuces dès demain matin.\n💬 Dites-nous en commentaire : quelle est VOTRE habitude préférée pour bien commencer la journée ? ☀️\n\n—————————————————————————————\n\nJe suis Laure, naturopathe 🌱 et praticienne en drainage lymphatique 💦 sur Baron (proche Créon) et Latresne (Bordeaux rive droite). \n\nJe vous accompagne sur le chemin du mieux être avec bienveillance !\n\nN’hésitez pas à réserver votre séance, lien en bio. \n\nA très vite 🌸",
        "shortcode": "DJ13530icTL",
        "children": {
          "data": [
            {
              "media_url": "https://scontent-cdg4-1.cdninstagram.com/v/t51.75761-15/499173802_18508558411059471_7478235505662734532_n.jpg?stp=dst-jpg_e35_tt6&_nc_cat=108&ccb=1-7&_nc_sid=18de74&_nc_ohc=p-w4FnGyWWYQ7kNvwFVcIK4&_nc_oc=AdmKRXvgFSpFbPgNm_53sbGuCs2TFx0L6m-1ElSSQALiaHyE0jxcvpZWLKKVzU3nj3TVXnd_gh33Zodyk5NCHh3Y&_nc_zt=23&_nc_ht=scontent-cdg4-1.cdninstagram.com&edm=AM6HXa8EAAAA&_nc_gid=LjiY-W0TOtCnefgHl_MvlA&oh=00_AfOWlE9aHm_b9trYOfu32bCM9JsU9Fi-Pz0kjv215WVphA&oe=684A253A",
              "id": "17930397981027039"
            },
            {
              "media_url": "https://scontent-cdg4-2.cdninstagram.com/v/t51.75761-15/498582601_18508558426059471_8033033283920433720_n.jpg?stp=dst-jpg_e35_tt6&_nc_cat=109&ccb=1-7&_nc_sid=18de74&_nc_ohc=54Uonw57mXMQ7kNvwG7MnN-&_nc_oc=AdlgTavYZlQwRuqEjWAKdRm7ZkI4ApkRqF5DGk5KR-qzLNZmzX1HBARKWKRBDJCTHyvz8BUidHN0Z6FNSVpSxgFA&_nc_zt=23&_nc_ht=scontent-cdg4-2.cdninstagram.com&edm=AM6HXa8EAAAA&_nc_gid=LjiY-W0TOtCnefgHl_MvlA&oh=00_AfN_sitPpHAgashGJ8nk3knnFQpi26Ynt7cmPQBWPCRYeg&oe=684A0422",
              "id": "17891487942238032"
            },
            {
              "media_url": "https://scontent-cdg4-2.cdninstagram.com/v/t51.75761-15/498998150_18508558429059471_5327662891266515794_n.jpg?stp=dst-jpg_e35_tt6&_nc_cat=109&ccb=1-7&_nc_sid=18de74&_nc_ohc=tY9s6XULSfkQ7kNvwFCY1t5&_nc_oc=AdljT3cdZc8OGfR6VA-rlTWiBzND8r6ibPmqjSPwuMmHiRxtU2eGjVQJnj_UtZoK9Dg1Ynwtl1mL2UosmeYDfLwr&_nc_zt=23&_nc_ht=scontent-cdg4-2.cdninstagram.com&edm=AM6HXa8EAAAA&_nc_gid=LjiY-W0TOtCnefgHl_MvlA&oh=00_AfNYp73Mwur-gA52M-QE0sV_nfHsY578byA-bU_zLvjMoQ&oe=684A12CF",
              "id": "17933228943043234"
            },
            {
              "media_url": "https://scontent-cdg4-1.cdninstagram.com/v/t51.75761-15/498559045_18508558438059471_8675562502573802041_n.jpg?stp=dst-jpg_e35_tt6&_nc_cat=105&ccb=1-7&_nc_sid=18de74&_nc_ohc=SvH_NjPgpt8Q7kNvwHJTR4a&_nc_oc=Admx3O8_lTK7euULbzxU7K3hXm95vqoG5APAawZRh4C_DF8rC836CvHDbVyfKCagFaG9eOUo1LSD5S4FjrQHsENk&_nc_zt=23&_nc_ht=scontent-cdg4-1.cdninstagram.com&edm=AM6HXa8EAAAA&_nc_gid=LjiY-W0TOtCnefgHl_MvlA&oh=00_AfNXEXNEmgG73UX7QQ9duLKKRz7SuZ2Abq2JaErUtDVFIg&oe=684A2ACC",
              "id": "18098344456557481"
            },
            {
              "media_url": "https://scontent-cdg4-2.cdninstagram.com/v/t51.75761-15/498217648_18508558441059471_3415906253400302227_n.jpg?stp=dst-jpg_e35_tt6&_nc_cat=100&ccb=1-7&_nc_sid=18de74&_nc_ohc=-_9Tgxg8bTQQ7kNvwF33v85&_nc_oc=AdnNGQXKYOMh38jLA3zlhzC1LgHbm3ZG4VJ3p3__HAx34SnfuThMkC1rWT11Irr_bo1q9Mac98tqqTp5ET0hH0Xm&_nc_zt=23&_nc_ht=scontent-cdg4-2.cdninstagram.com&edm=AM6HXa8EAAAA&_nc_gid=LjiY-W0TOtCnefgHl_MvlA&oh=00_AfMP0-nyUN1xHxduakWpSoDvxDmak2wKF6yPAgxJUfi3YQ&oe=684A0BD7",
              "id": "18075132589889766"
            },
            {
              "media_url": "https://scontent-cdg4-3.cdninstagram.com/v/t51.75761-15/498939735_18508558444059471_3886782689414257906_n.jpg?stp=dst-jpg_e35_tt6&_nc_cat=111&ccb=1-7&_nc_sid=18de74&_nc_ohc=14i2m6AWCNEQ7kNvwGT21HN&_nc_oc=Adl1Pyps6INuRxf6tNVVDUn3I2I7BP8A9XSTpfJLArlIrl6d6pp0bXC0Gtgxt9GezlzlQWoMi-req-D95GY89Qk9&_nc_zt=23&_nc_ht=scontent-cdg4-3.cdninstagram.com&edm=AM6HXa8EAAAA&_nc_gid=LjiY-W0TOtCnefgHl_MvlA&oh=00_AfNq6wJyBY_Fq5IhoNbNsMA-Si5bt65WGhslB8ITE8Zddw&oe=684A2F69",
              "id": "17987448932811567"
            },
            {
              "media_url": "https://scontent-cdg4-2.cdninstagram.com/v/t51.75761-15/499697994_18508558459059471_2372283738285336287_n.jpg?stp=dst-jpg_e35_tt6&_nc_cat=107&ccb=1-7&_nc_sid=18de74&_nc_ohc=i7_GSJOmqVIQ7kNvwGxE1yj&_nc_oc=AdmVF39_PZfGo584weIzsxvhxnQ8ZlCHZfvqOXIw-vUleNwVgZlmaa83bY3HEnW--Ow7yUpGZMby_4GVYtqQ1fUo&_nc_zt=23&_nc_ht=scontent-cdg4-2.cdninstagram.com&edm=AM6HXa8EAAAA&_nc_gid=LjiY-W0TOtCnefgHl_MvlA&oh=00_AfN0OdR2iuE98wVNxoFClUbpxaAdvG-T7X-dsrVUS2PNhA&oe=684A019C",
              "id": "18015936455525431"
            },
            {
              "media_url": "https://scontent-cdg4-2.cdninstagram.com/v/t51.75761-15/498827315_18508558465059471_2845357829337407840_n.jpg?stp=dst-jpg_e35_tt6&_nc_cat=100&ccb=1-7&_nc_sid=18de74&_nc_ohc=GFH0iH2EtYIQ7kNvwEs_78e&_nc_oc=AdmVDwkYoZ2aehpmeWaG7N_fA-JArdDG1M4NZUwxSBgrAf-hlLZKKSXJbPAajuE1sMkRHwn8zUaHspjj4bxr9cCi&_nc_zt=23&_nc_ht=scontent-cdg4-2.cdninstagram.com&edm=AM6HXa8EAAAA&_nc_gid=LjiY-W0TOtCnefgHl_MvlA&oh=00_AfP942L1aB4-V5nIjKQ7pXaNlNtkBiEm-0YkcXnaDcQK6g&oe=684A2011",
              "id": "18041104466267765"
            }
          ]
        },
        "timestamp": "2025-05-19T16:25:00+0000",
        "id": "17990588642656248"
      }
    },
    {
      "feedJSON": {
        "media_url": "https://scontent-cdg4-2.cdninstagram.com/v/t51.75761-15/494589564_18505846885059471_8550115106788239337_n.jpg?stp=dst-jpg_e35_tt6&_nc_cat=101&ccb=1-7&_nc_sid=18de74&_nc_ohc=F9hDuY_zepUQ7kNvwFhgQAE&_nc_oc=AdmT8QkVlhxMyhfIlVRtbERjpLQuAl2G5-p9dfDbFprOAPRq56pWFz7KVEukizhOvOVVSFmDl17iNqbTN-F_AgHJ&_nc_zt=23&_nc_ht=scontent-cdg4-2.cdninstagram.com&edm=AM6HXa8EAAAA&_nc_gid=LjiY-W0TOtCnefgHl_MvlA&oh=00_AfMVSAf1w_X0gjHR_Z9Gl1jyLmPpq_mtws97TT045D4zWg&oe=684A2F4A",
        "media_type": "CAROUSEL_ALBUM",
        "like_count": 18,
        "comments_count": 1,
        "caption": "🌸 Pré-ménopause, ménopause : votre corps a du mal à éliminer ? 🌸\n\nVous ressentez des gonflements, de la fatigue persistante, des ballonnements, ou encore une peau terne ? Ces symptômes sont fréquents durant cette transition hormonale, mais ils ne sont pas une fatalité !\n\n👉 Dans mon carrousel, je vous explique pourquoi votre corps ralentit à cette période et comment la naturopathie et le drainage lymphatique peuvent vous aider à retrouver votre énergie, votre légèreté et votre bien-être.\n\n💆‍♀️ Avec des solutions naturelles et adaptées :\n* Stimulez votre circulation lymphatique.\n* Améliorez l’élimination des toxines.\n* Apaisez votre esprit et votre corps.\n\n✨ Envie d’agir dès maintenant ? Réservez une séance de drainage lymphatique et/ou de naturopathie ou bien une cure complète à mes côtés. \n\n📲 Cliquez sur le lien en bio ou envoyez-moi un message directement. Prenez soin de vous aujourd’hui pour un mieux-être dès demain !",
        "shortcode": "DJPPlguiuJe",
        "children": {
          "data": [
            {
              "media_url": "https://scontent-cdg4-2.cdninstagram.com/v/t51.75761-15/494589564_18505846885059471_8550115106788239337_n.jpg?stp=dst-jpg_e35_tt6&_nc_cat=101&ccb=1-7&_nc_sid=18de74&_nc_ohc=F9hDuY_zepUQ7kNvwFhgQAE&_nc_oc=AdmT8QkVlhxMyhfIlVRtbERjpLQuAl2G5-p9dfDbFprOAPRq56pWFz7KVEukizhOvOVVSFmDl17iNqbTN-F_AgHJ&_nc_zt=23&_nc_ht=scontent-cdg4-2.cdninstagram.com&edm=AM6HXa8EAAAA&_nc_gid=LjiY-W0TOtCnefgHl_MvlA&oh=00_AfMVSAf1w_X0gjHR_Z9Gl1jyLmPpq_mtws97TT045D4zWg&oe=684A2F4A",
              "id": "18049266323584308"
            },
            {
              "media_url": "https://scontent-cdg4-1.cdninstagram.com/v/t51.75761-15/491448714_18505846888059471_5108199624851062250_n.jpg?stp=dst-jpg_e35_tt6&_nc_cat=108&ccb=1-7&_nc_sid=18de74&_nc_ohc=_oS7lPRKpqQQ7kNvwEhfmXx&_nc_oc=Adkzr8lY0XvA-yW-Hl28q68vtu33iAOsulqfvtkbqBWrHaPX2vtKlWuYYp5zmv-3uS-ihToHdx8n9vEwsiwVD-WD&_nc_zt=23&_nc_ht=scontent-cdg4-1.cdninstagram.com&edm=AM6HXa8EAAAA&_nc_gid=LjiY-W0TOtCnefgHl_MvlA&oh=00_AfNkvXc8XOBtFyG_NsnDqSJ53IW_w6o1TGolOkvQhLQp4w&oe=684A1C3E",
              "id": "18038904350296010"
            },
            {
              "media_url": "https://scontent-cdg4-3.cdninstagram.com/v/t51.75761-15/491447905_18505846897059471_60690029563304014_n.jpg?stp=dst-jpg_e35_tt6&_nc_cat=110&ccb=1-7&_nc_sid=18de74&_nc_ohc=ZpeIsqz2w8MQ7kNvwHKQCVy&_nc_oc=AdlsIFducR_b--9iPIG-Nnm6kpNt6Eh13odPnp_yiZPEL9QYUdXgaP0GAhPptxCFVhAh3cusOrE3a0ew-vfw1Jjm&_nc_zt=23&_nc_ht=scontent-cdg4-3.cdninstagram.com&edm=AM6HXa8EAAAA&_nc_gid=LjiY-W0TOtCnefgHl_MvlA&oh=00_AfPGFXepR_3VdnChKQ6BzHoJzuMY3Z7aE6drAbG5XAEhQA&oe=684A31FA",
              "id": "18058990262133331"
            },
            {
              "media_url": "https://scontent-cdg4-3.cdninstagram.com/v/t51.75761-15/491446404_18505846906059471_6680411145901390217_n.jpg?stp=dst-jpg_e35_tt6&_nc_cat=110&ccb=1-7&_nc_sid=18de74&_nc_ohc=2rrDqtog_hAQ7kNvwHic1Hz&_nc_oc=AdlxQbNwQ2UrwHM0hXUfUEuEqyWIGTEnGmUTe2QzxlAUaFRRks9Z3i5fr3yJT4Q4JX2R5NvQhMupsfD7rX07kZaD&_nc_zt=23&_nc_ht=scontent-cdg4-3.cdninstagram.com&edm=AM6HXa8EAAAA&_nc_gid=LjiY-W0TOtCnefgHl_MvlA&oh=00_AfMfVHjGdig-VmnKngNjnazofQzeJfnEScDsAzEv0ty7Hg&oe=684A15F6",
              "id": "17963447009867941"
            },
            {
              "media_url": "https://scontent-cdg4-2.cdninstagram.com/v/t51.75761-15/491450997_18505846915059471_5738006331328071041_n.jpg?stp=dst-jpg_e35_tt6&_nc_cat=107&ccb=1-7&_nc_sid=18de74&_nc_ohc=XKMqbZNwsPYQ7kNvwGefYXU&_nc_oc=Adk27sRZp2wmGPGT0pl9UZtk4UBDtb-F-DcOA9HGYayxy1-EURHMG35YSkRNa_bpLF_0D_igWSP_LfpS018Q1Qlz&_nc_zt=23&_nc_ht=scontent-cdg4-2.cdninstagram.com&edm=AM6HXa8EAAAA&_nc_gid=LjiY-W0TOtCnefgHl_MvlA&oh=00_AfNbJGbXYs7UcW__oRLwTD96PPFDoqBxUuiwyDxm71buag&oe=6849FD5F",
              "id": "17865442059385925"
            },
            {
              "media_url": "https://scontent-cdg4-1.cdninstagram.com/v/t51.75761-15/495304560_18505846918059471_568868682404884449_n.jpg?stp=dst-jpg_e35_tt6&_nc_cat=102&ccb=1-7&_nc_sid=18de74&_nc_ohc=iFtTqk3DU8IQ7kNvwFrd4Ii&_nc_oc=AdnuY_jODC0j2eRP8zVQmmrar9eDR5QQzzmrIrxjtXvmtAgt5dbA7oOu6KcKBOfLXrDEdNI1cVu3coKbwDhlbHp7&_nc_zt=23&_nc_ht=scontent-cdg4-1.cdninstagram.com&edm=AM6HXa8EAAAA&_nc_gid=LjiY-W0TOtCnefgHl_MvlA&oh=00_AfOXC678PuCFEuB8uxERgJ12ErzWitClUDQFAAGdBb8kCg&oe=684A2B8D",
              "id": "18329645317167163"
            },
            {
              "media_url": "https://scontent-cdg4-3.cdninstagram.com/v/t51.75761-15/491447889_18505846927059471_9207609283556119811_n.jpg?stp=dst-jpg_e35_tt6&_nc_cat=106&ccb=1-7&_nc_sid=18de74&_nc_ohc=KRtn-TMiBj0Q7kNvwF_BvS1&_nc_oc=Adk5GFF0eyt66_swlhfOrAFqOx-eIGsBd4hsMv-x4i8U7HFiYbZuNLsfnKt-oIlkM-Sc3Jlza0wj-lYiionL6D6k&_nc_zt=23&_nc_ht=scontent-cdg4-3.cdninstagram.com&edm=AM6HXa8EAAAA&_nc_gid=LjiY-W0TOtCnefgHl_MvlA&oh=00_AfMzlLcdTgl0aLKw-C4IyrMvVXmE8EeuvmoOhQRC1jlE0A&oe=684A1A22",
              "id": "17856256599375005"
            }
          ]
        },
        "timestamp": "2025-05-04T16:22:03+0000",
        "id": "17850807975446326"
      }
    },
    {
      "feedJSON": {
        "media_url": "https://scontent-cdg4-2.cdninstagram.com/o1/v/t16/f2/m86/AQMNvfbumqsOYmH0mljQ0zLYXaxm_tFpZ3wXfSp0O1LiHy4w-USu5eAPx6s4H-lPJ2go8-G4xsDOyANKDBKKQe72ya1vlQfdlH2qV2w.mp4?efg=eyJ2ZW5jb2RlX3RhZyI6InZ0c192b2RfdXJsZ2VuLmNsaXBzLnVua25vd24tQzMuNzIwLmRhc2hfYmFzZWxpbmVfMV92MSJ9&_nc_ht=scontent-cdg4-2.cdninstagram.com&edm=AM6HXa8EAAAA&_nc_gid=LjiY-W0TOtCnefgHl_MvlA&_nc_cat=106&_nc_oc=AdlKxgjJxN_BH2h1NJWnLT0Qa__xAnxpO4rTD1LskEo-65bGDhUH3wTIAg-FjXGG6v4HNu1uKrAPIGgftKzHr3I4&vs=1205885907552310_964770993&_nc_vs=HBksFQIYUmlnX3hwdl9yZWVsc19wZXJtYW5lbnRfc3JfcHJvZC9FNTRFMUQ2QjBERDA5NDZGM0Y4MUVBNzc4MzBERDg5N192aWRlb19kYXNoaW5pdC5tcDQVAALIARIAFQIYOnBhc3N0aHJvdWdoX2V2ZXJzdG9yZS9HR1B0U0IxSVltVVhkV0VPQUpfRWFFM05kLVJ1YnFfRUFBQUYVAgLIARIAKAAYABsBiAd1c2Vfb2lsATEVAAAm4JT9tr2Zsz8VAigCQzMsF0AhAAAAAAAAGBJkYXNoX2Jhc2VsaW5lXzFfdjERAHUAZeadAQA%3D&ccb=9-4&oh=00_AfM8w6cz1-4ycOltmNXE1rNfHt5KEMshHMC_BkLJepZu1Q&oe=68461782&_nc_sid=1d576d",
        "media_type": "VIDEO",
        "thumbnail_url": "https://scontent-cdg4-1.cdninstagram.com/v/t51.71878-15/491497381_1181664069897191_7384993895604787528_n.jpg?stp=dst-jpg_e35_tt6&_nc_cat=108&ccb=1-7&_nc_sid=18de74&_nc_ohc=ggxriaVSIDsQ7kNvwGDiZMl&_nc_oc=AdkW4qThaaNtHDYAf2xDcStBQ5vGPqYJ1zRL4YFTF1B9gXfDZ-0q58ReGclt04fVp02Rw3_sivJ8CLRYwsNUZNhM&_nc_zt=23&_nc_ht=scontent-cdg4-1.cdninstagram.com&edm=AM6HXa8EAAAA&_nc_gid=LjiY-W0TOtCnefgHl_MvlA&oh=00_AfNiXYG6uLYSBOXzRJzYYBs1rv8rly8i0tBWc8qh41xOOA&oe=684A27A4",
        "like_count": 33,
        "comments_count": 2,
        "caption": "Tu veux améliorer ton alimentation, mais tu ne sais pas par où commencer ?\n\nParfois, il suffit de remplacer certains aliments du quotidien par de meilleures options. Je te montre des échanges simples, mais puissants, pour adopter une alimentation plus équilibrée, sans frustration.\n\nPourquoi c’est important ?\nCertains aliments ultra-transformés, riches en sucres, en graisses saturées ou en additifs, peuvent nuire à ta santé à long terme. En les remplaçant par des alternatives naturelles et nutritives, tu apportes à ton corps ce dont il a vraiment besoin : énergie, vitamines, fibres et bons nutriments.\n\nL’idée n’est pas d’être parfait, mais de faire des choix plus conscients 😊\n\nChaque petit changement compte. Et surtout, une alimentation saine peut (et doit) rester gourmande !\n\nTon assiette peut devenir ton meilleur allié santé.\nPrêt(e) à faire le tri dans tes habitudes alimentaires ?\n\nEt si tu veux aller plus loin, n’hésite pas à prendre un RDV de rééquilibrage alimentaire avec moi ! Lien en bio.",
        "shortcode": "DI4B_ExCFLR",
        "timestamp": "2025-04-25T16:00:00+0000",
        "id": "18058037849151161"
      }
    },
    {
      "feedJSON": {
        "media_url": "https://scontent-cdg4-3.cdninstagram.com/v/t51.75761-15/491438490_18502165570059471_6485787773537470017_n.jpg?stp=dst-jpg_e35_tt6&_nc_cat=111&ccb=1-7&_nc_sid=18de74&_nc_ohc=dM5to2Vj5CQQ7kNvwGLdDyY&_nc_oc=AdnOge9H1B3gsQSAcZaYTqsvyIagpOJvOnMObS5rqGVQ_4havxqBvn6AqrMHOcHGkckbmu6af26oHj-lZhbrpTpu&_nc_zt=23&_nc_ht=scontent-cdg4-3.cdninstagram.com&edm=AM6HXa8EAAAA&_nc_gid=LjiY-W0TOtCnefgHl_MvlA&oh=00_AfMeXaQnfrYfsc9ahmZPuiCs9Mt4BxlnQx-mjDQ1SX1JFA&oe=684A023B",
        "media_type": "CAROUSEL_ALBUM",
        "like_count": 25,
        "comments_count": 1,
        "caption": "✨ Prolongez les bienfaits de vos drainages lymphatiques avec ces 6 conseils simples et efficaces ! ✨\n\n🌿 Votre système lymphatique est un véritable allié pour éliminer les toxines, réduire les gonflements et améliorer votre bien-être global. Entre 2 séances, quelques gestes et habitudes peuvent faire toute la différence pour prendre soin de votre corps.\n\n💧 Au programme :\n1️⃣ Une bonne hydratation.\n2️⃣ Des activités douces pour booster la circulation.\n3️⃣ Une alimentation légère et riche en nutriments.\n4️⃣ Des gestes d’auto-drainage faciles à adopter.\n5️⃣ Un sommeil réparateur pour une régénération optimale.\n6️⃣ La réduction des toxines pour protéger votre corps.\n\n🌸 Petite astuce bonus : Prendre soin de soi, c’est aussi se réserver des moments de calme et de détente au quotidien. 😌\n\n👉 Swipez le carrousel pour découvrir tous les détails et appliquer ces conseils dès aujourd’hui.\n\n💬 Dites-moi en commentaire : Lequel de ces conseils allez-vous tester en premier ?\n📩 Besoin d’un drainage lymphatique ou de conseils en hygiène de vie ? Contactez-moi en DM ou via le lien en bio !\nÀ très vite !",
        "shortcode": "DIbviLaC3MJ",
        "children": {
          "data": [
            {
              "media_url": "https://scontent-cdg4-3.cdninstagram.com/v/t51.75761-15/491438490_18502165570059471_6485787773537470017_n.jpg?stp=dst-jpg_e35_tt6&_nc_cat=111&ccb=1-7&_nc_sid=18de74&_nc_ohc=dM5to2Vj5CQQ7kNvwGLdDyY&_nc_oc=AdnOge9H1B3gsQSAcZaYTqsvyIagpOJvOnMObS5rqGVQ_4havxqBvn6AqrMHOcHGkckbmu6af26oHj-lZhbrpTpu&_nc_zt=23&_nc_ht=scontent-cdg4-3.cdninstagram.com&edm=AM6HXa8EAAAA&_nc_gid=LjiY-W0TOtCnefgHl_MvlA&oh=00_AfMeXaQnfrYfsc9ahmZPuiCs9Mt4BxlnQx-mjDQ1SX1JFA&oe=684A023B",
              "id": "18360796717177763"
            },
            {
              "media_url": "https://scontent-cdg4-2.cdninstagram.com/v/t51.75761-15/489804153_18502165585059471_1937182806259903883_n.jpg?stp=dst-jpg_e35_tt6&_nc_cat=109&ccb=1-7&_nc_sid=18de74&_nc_ohc=cakSxtevzn8Q7kNvwEkEhTm&_nc_oc=Adn6h__PWhi0tEw7uNLEMx4SssyeEMFK4eU2AtCNDGrDKzhLiBvKKgIlEy04puqxGVVb2cmBsTCk77x2BguY23fS&_nc_zt=23&_nc_ht=scontent-cdg4-2.cdninstagram.com&edm=AM6HXa8EAAAA&_nc_gid=LjiY-W0TOtCnefgHl_MvlA&oh=00_AfMY-IVeBfIpsr2xJ6K-jdEz3e5a0ddniNqDTO0A4fdRrg&oe=684A02D7",
              "id": "18063223799050186"
            },
            {
              "media_url": "https://scontent-cdg4-3.cdninstagram.com/v/t51.75761-15/489776404_18502165594059471_3480979635375399012_n.jpg?stp=dst-jpg_e35_tt6&_nc_cat=106&ccb=1-7&_nc_sid=18de74&_nc_ohc=_sGCZmZllecQ7kNvwGp-R_3&_nc_oc=Adn68P0MhHNdAILTtleCqWJhGdbhMu8x76d1D4s3XHcp7Czq4YMrJauw4cwpCx4lB3r1jT8J8so0JXGRRr7hQSYp&_nc_zt=23&_nc_ht=scontent-cdg4-3.cdninstagram.com&edm=AM6HXa8EAAAA&_nc_gid=LjiY-W0TOtCnefgHl_MvlA&oh=00_AfMJlTAm-KHWQMHFn8eCe1xwtRF4CRdXrAxLU6kEkybKug&oe=684A1414",
              "id": "17878493076294302"
            },
            {
              "media_url": "https://scontent-cdg4-1.cdninstagram.com/v/t51.75761-15/490064490_18502165609059471_894910890938980251_n.jpg?stp=dst-jpg_e35_tt6&_nc_cat=104&ccb=1-7&_nc_sid=18de74&_nc_ohc=Rl6hdPnuT0YQ7kNvwEoEIzd&_nc_oc=AdlcBfQpd4EpGzxXFSl-IQTQDPQ4QIZBNcJSGGlW2EMhGD5By_T4i10St2PLuWgDDQnCaNk5j_h3UEZX1nWjj9Hz&_nc_zt=23&_nc_ht=scontent-cdg4-1.cdninstagram.com&edm=AM6HXa8EAAAA&_nc_gid=LjiY-W0TOtCnefgHl_MvlA&oh=00_AfM7aXOgaU1YcsjAw61JgDcdAo8z50rfGHmshmJT83QjLA&oe=684A32E5",
              "id": "18050810657337960"
            },
            {
              "media_url": "https://scontent-cdg4-3.cdninstagram.com/v/t51.75761-15/490744580_18502165618059471_5422055973826595931_n.jpg?stp=dst-jpg_e35_tt6&_nc_cat=106&ccb=1-7&_nc_sid=18de74&_nc_ohc=t8FNQAALbVUQ7kNvwHgacMa&_nc_oc=AdksXNBzLXE2ZLmP3EAwsUo2rqhe43WQMdL7SUNMJTFpXMeeKG0zn9B-V82bkZrfEUiE2_1ho83UAMU-OdhJocKe&_nc_zt=23&_nc_ht=scontent-cdg4-3.cdninstagram.com&edm=AM6HXa8EAAAA&_nc_gid=LjiY-W0TOtCnefgHl_MvlA&oh=00_AfMgDQCDpn0rp5joV1c4oz372dATh5IHCQ8o_G_0HSGbdA&oe=684A044D",
              "id": "17892074250212761"
            },
            {
              "media_url": "https://scontent-cdg4-3.cdninstagram.com/v/t51.75761-15/491502810_18502165636059471_4195295654430740298_n.jpg?stp=dst-jpg_e35_tt6&_nc_cat=106&ccb=1-7&_nc_sid=18de74&_nc_ohc=LvtqMlUSYg0Q7kNvwHkjhGO&_nc_oc=Admtum3scj5IU2q21viVY-IrDFRURSed_wz10LvcqWYQ5ocGh_lRCyS3lcYQkIL81IrcWoRQgEJr4BVuxdIRXkbV&_nc_zt=23&_nc_ht=scontent-cdg4-3.cdninstagram.com&edm=AM6HXa8EAAAA&_nc_gid=LjiY-W0TOtCnefgHl_MvlA&oh=00_AfMD0albV-O8mhhIiJ6UdSgPv8z1qbGssKwUxzKTNrFpXA&oe=684A0FC4",
              "id": "18498716752049459"
            },
            {
              "media_url": "https://scontent-cdg4-1.cdninstagram.com/v/t51.75761-15/491442550_18502165633059471_4719169504684226089_n.jpg?stp=dst-jpg_e35_tt6&_nc_cat=108&ccb=1-7&_nc_sid=18de74&_nc_ohc=xG__Aa6_5yEQ7kNvwFODA5t&_nc_oc=Adn_MNYl8Ql8G1ElotOph0e4KE6ALpFSL9MU47c5XnoLW5WAi64Nl51di8x0YAFo9X8wfF_hxMHw4RLsYQN-Jz-f&_nc_zt=23&_nc_ht=scontent-cdg4-1.cdninstagram.com&edm=AM6HXa8EAAAA&_nc_gid=LjiY-W0TOtCnefgHl_MvlA&oh=00_AfOTmKx6THmsRrZzZ3Qt3Pvo2rkpz5T1BQDZ5FLauk9TKw&oe=684A27BB",
              "id": "18030614870356854"
            },
            {
              "media_url": "https://scontent-cdg4-3.cdninstagram.com/v/t51.75761-15/489883540_18502165654059471_2687265604041068094_n.jpg?stp=dst-jpg_e35_tt6&_nc_cat=110&ccb=1-7&_nc_sid=18de74&_nc_ohc=og6_1lgkf8oQ7kNvwFxrS7_&_nc_oc=AdmmW2LChMYMuJyfztfyNlkmVcslJB39pjsdjDhZK3OKUe4J0Qgb9hQrWqTg6l3eUS4wDuEJQVoBoGdwXyv0nvlF&_nc_zt=23&_nc_ht=scontent-cdg4-3.cdninstagram.com&edm=AM6HXa8EAAAA&_nc_gid=LjiY-W0TOtCnefgHl_MvlA&oh=00_AfPo5wo-Jp_8EXUS7UU97PMJPwjXLfN5l2Hl-IrgTfFcwQ&oe=684A30BA",
              "id": "18081667912660022"
            }
          ]
        },
        "timestamp": "2025-04-14T16:20:00+0000",
        "id": "17964057314909448"
      }
    },
    {
      "feedJSON": {
        "media_url": "https://scontent-cdg4-2.cdninstagram.com/v/t51.75761-15/488995943_18500866732059471_5802317460937809619_n.jpg?stp=dst-jpg_e35_tt6&_nc_cat=101&ccb=1-7&_nc_sid=18de74&_nc_ohc=8e4i4Nj_v0sQ7kNvwEoozue&_nc_oc=AdlvJt5ErGntHbwc_kHas5NOWobXr-kJdP5ITzSiah_sTECFmLXGp8cbqxRc4mHmMAhi6lLRv2v-Fi0vXW9Cu4j-&_nc_zt=23&_nc_ht=scontent-cdg4-2.cdninstagram.com&edm=AM6HXa8EAAAA&_nc_gid=LjiY-W0TOtCnefgHl_MvlA&oh=00_AfMGTM6nLOMHpEDab98VTAeo9NagQbCzBKmFEEoGlD4aLg&oe=684A317B",
        "media_type": "CAROUSEL_ALBUM",
        "like_count": 23,
        "comments_count": 3,
        "caption": "✨ Vous faites tout “bien”, mais les résultats tardent à se voir ? Et si votre corps avait simplement besoin d’un coup de pouce pour relancer la machine ?\n\n💡 Le drainage lymphatique, c’est quoi ? Ce soin ne fait pas perdre du poids comme par magie… 👉 Mais il peut devenir un allié puissant dans votre processus minceur.\n\nVoici ce qu’il peut vous apporter : ✔️ Réduction de la rétention d’eau ✔️ Moins de gonflements ✔️ Une silhouette visiblement plus fine ✔️ Un système digestif et lymphatique relancés ✔️ Et une sensation de légèreté incroyable dès les premières séances !\n\n🌿 Que vous soyez en pleine remise en forme ou à la recherche d’un rituel bien-être, le drainage est bien plus qu’un simple massage : c’est un véritable soutien globale pour votre corps.\n\n📲 Réservez votre séance dès maintenant ! ➡️ Par message privé ou via le lien en bio\n 💙 Votre corps va adorer, et vous aussi !",
        "shortcode": "DILg__viL6W",
        "children": {
          "data": [
            {
              "media_url": "https://scontent-cdg4-2.cdninstagram.com/v/t51.75761-15/488995943_18500866732059471_5802317460937809619_n.jpg?stp=dst-jpg_e35_tt6&_nc_cat=101&ccb=1-7&_nc_sid=18de74&_nc_ohc=8e4i4Nj_v0sQ7kNvwEoozue&_nc_oc=AdlvJt5ErGntHbwc_kHas5NOWobXr-kJdP5ITzSiah_sTECFmLXGp8cbqxRc4mHmMAhi6lLRv2v-Fi0vXW9Cu4j-&_nc_zt=23&_nc_ht=scontent-cdg4-2.cdninstagram.com&edm=AM6HXa8EAAAA&_nc_gid=LjiY-W0TOtCnefgHl_MvlA&oh=00_AfMGTM6nLOMHpEDab98VTAeo9NagQbCzBKmFEEoGlD4aLg&oe=684A317B",
              "id": "17944505930845907"
            },
            {
              "media_url": "https://scontent-cdg4-2.cdninstagram.com/v/t51.75761-15/488484317_18500866726059471_3459353373633616498_n.jpg?stp=dst-jpg_e35_tt6&_nc_cat=100&ccb=1-7&_nc_sid=18de74&_nc_ohc=mu9Gd4rd124Q7kNvwH2xNym&_nc_oc=AdlYG0NBXt9yJtUdfLdtkpjMhB4ShIwO4TIIc5c25CbS1DHWInCvKanh_spMWTZ-UPzb95Tbl9AhOsJxODN-JZTx&_nc_zt=23&_nc_ht=scontent-cdg4-2.cdninstagram.com&edm=AM6HXa8EAAAA&_nc_gid=LjiY-W0TOtCnefgHl_MvlA&oh=00_AfP-Kzur0KZ0_wBPkt5EHg2bUryy6uDRMs847Zhvjxhqzg&oe=6849FE0C",
              "id": "17964210215903188"
            },
            {
              "media_url": "https://scontent-cdg4-2.cdninstagram.com/v/t51.75761-15/488815714_18500866729059471_2129410291578971818_n.jpg?stp=dst-jpg_e35_tt6&_nc_cat=103&ccb=1-7&_nc_sid=18de74&_nc_ohc=my82aqBS7hgQ7kNvwENuYg8&_nc_oc=AdkbiRfkJmurqjuE1zr-DdmR375UFy6Qx46PXwTi9L5bEwOGqBTAKuPz0TCyHpI1ZGcEsiVwMG2wU_wipuCwwwwV&_nc_zt=23&_nc_ht=scontent-cdg4-2.cdninstagram.com&edm=AM6HXa8EAAAA&_nc_gid=LjiY-W0TOtCnefgHl_MvlA&oh=00_AfMe9tBKOkH0YdKUhknxBIVdsY9oOejDbg_aeS_-p1T9FA&oe=684A2E1D",
              "id": "17923839987060834"
            },
            {
              "media_url": "https://scontent-cdg4-1.cdninstagram.com/v/t51.75761-15/489678059_18500866735059471_6837276957384728289_n.jpg?stp=dst-jpg_e35_tt6&_nc_cat=102&ccb=1-7&_nc_sid=18de74&_nc_ohc=NOfGOz0djH8Q7kNvwFJGOgg&_nc_oc=AdkYg4xwm31ODy1Y-_Qfvox-qZ_XZdY16gyexxcLzYOUDV7c_rgwYL-rkaz-JvYDlXcoNFoixE1R62W-rJg6RsRg&_nc_zt=23&_nc_ht=scontent-cdg4-1.cdninstagram.com&edm=AM6HXa8EAAAA&_nc_gid=LjiY-W0TOtCnefgHl_MvlA&oh=00_AfOFpgZxwNbmjEn0niOlkchZhY9t7PUlL2xHSQTLoUEL_w&oe=684A1D4A",
              "id": "18326357671166208"
            },
            {
              "media_url": "https://scontent-cdg4-1.cdninstagram.com/v/t51.75761-15/489017694_18500866750059471_3067523466287569308_n.jpg?stp=dst-jpg_e35_tt6&_nc_cat=104&ccb=1-7&_nc_sid=18de74&_nc_ohc=u5AHgibIaYgQ7kNvwFmUFyI&_nc_oc=Adma4wWwANsWgsiGtDa34o83rFkeh0Q3Y9JyS_hBeiWUH6oMY-Cwu47xH7H6oPTIAAVZHOORgrSKQsKpV_MIlvSq&_nc_zt=23&_nc_ht=scontent-cdg4-1.cdninstagram.com&edm=AM6HXa8EAAAA&_nc_gid=LjiY-W0TOtCnefgHl_MvlA&oh=00_AfM9zHnq3tEAlxeeda05PjzeuLBFIIT3xjhytEc7G5ZEJw&oe=684A09A4",
              "id": "18072465826841992"
            },
            {
              "media_url": "https://scontent-cdg4-1.cdninstagram.com/v/t51.75761-15/488943000_18500866759059471_682234057471196093_n.jpg?stp=dst-jpg_e35_tt6&_nc_cat=105&ccb=1-7&_nc_sid=18de74&_nc_ohc=-S8Kj9gOX-0Q7kNvwGm-Bdy&_nc_oc=Adm4EIRl0eZo83L7XiWjJ2xNK8tGJOGjRB5zp5gk_XeSnfJNpc9QWmG7w4Z77mDj0c_Z-Z0sitfFjXpbwkOgP5gd&_nc_zt=23&_nc_ht=scontent-cdg4-1.cdninstagram.com&edm=AM6HXa8EAAAA&_nc_gid=LjiY-W0TOtCnefgHl_MvlA&oh=00_AfNJsSTSFpfdNnb-tUNtPEm-cx_AUD9gMwy2I_ymDBUsew&oe=684A302C",
              "id": "18076493932756010"
            },
            {
              "media_url": "https://scontent-cdg4-3.cdninstagram.com/v/t51.75761-15/489364873_18500866762059471_2608671796823290041_n.jpg?stp=dst-jpg_e35_tt6&_nc_cat=110&ccb=1-7&_nc_sid=18de74&_nc_ohc=FsYQG31WvsQQ7kNvwFcyMwz&_nc_oc=AdmRe9PpNryQ2exSTCQfyVegxj3rwuqNkIGm-HTia0DbOo-yPssxextOvX2eyNJYqBnGiSyhE--kgnfxvIXDVk29&_nc_zt=23&_nc_ht=scontent-cdg4-3.cdninstagram.com&edm=AM6HXa8EAAAA&_nc_gid=LjiY-W0TOtCnefgHl_MvlA&oh=00_AfNFceHkepTMOr8Yy-EHoKaH0iV6li9gLyU-4CmJ5n7W-w&oe=684A1CDB",
              "id": "18124808686429485"
            },
            {
              "media_url": "https://scontent-cdg4-2.cdninstagram.com/v/t51.75761-15/488484317_18500866780059471_3764657028348883894_n.jpg?stp=dst-jpg_e35_tt6&_nc_cat=100&ccb=1-7&_nc_sid=18de74&_nc_ohc=i22pjyal-PsQ7kNvwFcGpR4&_nc_oc=AdkOAXLFIitMBYfgnRjf_lfLFXzNm4BtvOvFMERa5rF6uuMJFILdcDysteE2aLmDk2H1CHbe1eCOqnSoPjYAlgYe&_nc_zt=23&_nc_ht=scontent-cdg4-2.cdninstagram.com&edm=AM6HXa8EAAAA&_nc_gid=LjiY-W0TOtCnefgHl_MvlA&oh=00_AfP27YHdQUbwsz9w17ZR8tuAq0NyPnz1zJ_tpR87YTnXug&oe=684A332B",
              "id": "18153414400365602"
            },
            {
              "media_url": "https://scontent-cdg4-2.cdninstagram.com/v/t51.75761-15/489011148_18500866777059471_6698657531477017498_n.jpg?stp=dst-jpg_e35_tt6&_nc_cat=101&ccb=1-7&_nc_sid=18de74&_nc_ohc=jB6GpgRE0uEQ7kNvwGxhfqg&_nc_oc=Adn4mAIqdR2PP_hAE4BqqqhSMFz-egmSE5zjU1D1GgRpPwe1ATYJJLInOtWV3x-nlnjDFm1fBl-4Fypj6RYzMxM_&_nc_zt=23&_nc_ht=scontent-cdg4-2.cdninstagram.com&edm=AM6HXa8EAAAA&_nc_gid=LjiY-W0TOtCnefgHl_MvlA&oh=00_AfNo6YO3Fkg1y_SXBJT0RqhtQlfqACiXa6E7K3mKE4bJ1w&oe=684A3056",
              "id": "18081944992643922"
            }
          ]
        },
        "timestamp": "2025-04-08T09:05:51+0000",
        "id": "18499974172010706"
      }
    }
  ],
  "pageInfo": {
    "pageCount": 20,
    "page": 1,
    "total": 99,
    "pageSize": 5
  }
}