{
  "nodes": [
    {
      "feedJSON": {
        "media_url": "https://scontent-cdg4-2.cdninstagram.com/v/t51.29350-15/252343108_1596170474144380_320920421529708136_n.jpg?stp=dst-jpg_e35_tt6&_nc_cat=101&ccb=1-7&_nc_sid=18de74&_nc_ohc=j_RkRnwW5BQQ7kNvwFbQfbW&_nc_oc=Adl6-ADLpNOKM_pl_TPSFM-DK6nw0kPbJ5J-sNtHjzlTbAVIegQNn0Ubh9L73emD0szsCx17Kh-cK1-CCyGeElea&_nc_zt=23&_nc_ht=scontent-cdg4-2.cdninstagram.com&edm=AM6HXa8EAAAA&_nc_gid=uKSsQs8gxM_wFWSAh6MQ1Q&oh=00_AfMcGK7VxiAGoIuemD24SGiA4Ft9LCzr3ElSIN04K__1jQ&oe=684A2128",
        "media_type": "IMAGE",
        "like_count": 16,
        "comments_count": 1,
        "caption": "La bouillotte 👀\n\nAussi loin que je m’en rappelle, j’ai toujours adoré les bouillottes en automne-hiver 🥶 ❄️ (#teampiedscongelés 😅).\n\nJe te donne donc tous les bienfaits insoupçonnés de la bouillotte mise à part le fait de te réchauffer bien sûr 😉\n\n✅ Elle permet de détoxifier le corps.\nEn effet, la chaleur ramène le sang sur la zone d’application de la bouillotte.\n- Si tu l’appliques sur le foie après le repas, cela permet à ton foie de bien travailler et d’évacuer les toxines 👌\n\n- Si tu l’appliques sur les reins (milieu du dos) en fin de journée cela nettoiera les toxines de tes reins 👍\n\n✅ Elle soulage les douleurs musculaires.\nApplique la bouillotte sur tes muscles douloureux et tu retrouveras légèreté et souplesse ! 🧘 \n\n✅ Elle soulage les maux de ventre\nPlace ta bouillotte sur ton ventre après le repas, cela diminuera les ballonnements, douleurs et autres troubles digestifs.\n\n✅ Et enfin la chaleur est source d’apaisement…. 😴\nPlace la bouillotte sur ton plexus ou tes reins et respire calmement… Au revoir les angoisses ! 🤩\n\nPour chacun de ces conseils, il est recommandé de garder la bouillotte 30 minutes pour des effets optimums !\n\nÀ toi de jouer 😉",
        "shortcode": "CVyH96OIjaN",
        "timestamp": "2021-11-02T18:16:24+0000",
        "id": "17936495221707093"
      }
    },
    {
      "feedJSON": {
        "media_url": "https://scontent-cdg4-1.cdninstagram.com/v/t51.29350-15/249866274_611959040252116_2462676823197659353_n.jpg?stp=dst-jpg_e35_tt6&_nc_cat=104&ccb=1-7&_nc_sid=18de74&_nc_ohc=7zHRRrUJQVIQ7kNvwHkWLyL&_nc_oc=AdldQCm0i6xnK-OxlyKfPFpwvw35jsdUbb3RxCmEjif0MAWLRIquRVCGh1eaUjFLkLkvsVLgTP9n590nVDHPIs4N&_nc_zt=23&_nc_ht=scontent-cdg4-1.cdninstagram.com&edm=AM6HXa8EAAAA&_nc_gid=uKSsQs8gxM_wFWSAh6MQ1Q&oh=00_AfP49sNmCsBJ-cblnW1wLcTBc5O3VVVgu-R5x5t-Kg6QUw&oe=684A045D",
        "media_type": "CAROUSEL_ALBUM",
        "like_count": 25,
        "comments_count": 1,
        "caption": "La luminothérapie 💡 \n\nJe profite de ma session de luminothérapie pour écrire ce post ☀️ \n\nEn automne les jours raccourcissent, les nuages cachent le soleil.. ⛅️ et le manque de lumière se fait sentir..! \n\nTu te sens peut être fatigué, tu as des difficultés à te réveiller, une motivation en berne, une envie de rester sous la couette 🛏 ou des envies de gras et de sucré ? Tu as peut être besoin de lumière 🌞 \n\nAfin d’être en bonne santé et de maintenir notre équilibre interne, notre cerveau, et donc nos yeux 👀 , ont besoin de recevoir de la lumière. \n\nLa baisse de luminosité entraîne un excès de mélatonine dans notre corps et une fatigue chronique pouvant même aller jusqu’à la dépression 😞. \n\nMais il y a des solutions pour pallier à ça 😀 Et la lampe de luminothérapie en est une ! \n\nPersonnellement, c’est la fatigue et le moral en berne que je ressens lors de la baisse de luminosité. Avec ma lampe et mes petites sessions de 20min/jour tout va mieux 🤩. \n\nSi cela t’intéresse, choisis une lampe qui émet au moins 10 000 lux et expose-toi quotidiennement entre 20 et 30 minutes (au petit déjeuner par exemple). \nEffets garantis ✨",
        "shortcode": "CVs2gU2IaYP",
        "children": {
          "data": [
            {
              "media_url": "https://scontent-cdg4-1.cdninstagram.com/v/t51.29350-15/249866274_611959040252116_2462676823197659353_n.jpg?stp=dst-jpg_e35_tt6&_nc_cat=104&ccb=1-7&_nc_sid=18de74&_nc_ohc=7zHRRrUJQVIQ7kNvwHkWLyL&_nc_oc=AdldQCm0i6xnK-OxlyKfPFpwvw35jsdUbb3RxCmEjif0MAWLRIquRVCGh1eaUjFLkLkvsVLgTP9n590nVDHPIs4N&_nc_zt=23&_nc_ht=scontent-cdg4-1.cdninstagram.com&edm=AM6HXa8EAAAA&_nc_gid=uKSsQs8gxM_wFWSAh6MQ1Q&oh=00_AfP49sNmCsBJ-cblnW1wLcTBc5O3VVVgu-R5x5t-Kg6QUw&oe=684A045D",
              "id": "17916855479025511"
            },
            {
              "media_url": "https://scontent-cdg4-2.cdninstagram.com/v/t51.29350-15/251072995_364757645442244_336550517581999395_n.jpg?stp=dst-jpg_e35_tt6&_nc_cat=103&ccb=1-7&_nc_sid=18de74&_nc_ohc=YTiaXu5xocwQ7kNvwEr0MF9&_nc_oc=AdkcJGzXyBJXfkePcYekg2CeVwCeDUNESxraIHJ0HRQu-7TUDblLX4twEuvTLhTU8a7cw9mtTcjfPUzWyEWjJZyS&_nc_zt=23&_nc_ht=scontent-cdg4-2.cdninstagram.com&edm=AM6HXa8EAAAA&_nc_gid=uKSsQs8gxM_wFWSAh6MQ1Q&oh=00_AfPwtC09K_qRjNtVLAbB5vp5npVZ-mwi0SDokw9uOxzUVw&oe=684A09F3",
              "id": "17942642896624800"
            }
          ]
        },
        "timestamp": "2021-10-31T17:07:36+0000",
        "id": "18004104352347038"
      }
    },
    {
      "feedJSON": {
        "media_url": "https://scontent-cdg4-1.cdninstagram.com/v/t51.29350-15/250432802_176268468032502_1159809006631008509_n.jpg?stp=dst-jpg_e35_tt6&_nc_cat=104&ccb=1-7&_nc_sid=18de74&_nc_ohc=OZQG2La3Lb0Q7kNvwG4Nfi7&_nc_oc=AdlFwertRJ_Mbe7Dkn6x2l3TCeKvkLAlIaGf5VUSsphHLIAQt5ZDs8HktGJKrz8wRwH550X1IGY_J2oamCNNRJ65&_nc_zt=23&_nc_ht=scontent-cdg4-1.cdninstagram.com&edm=AM6HXa8EAAAA&_nc_gid=uKSsQs8gxM_wFWSAh6MQ1Q&oh=00_AfOagUvWeeNNioTHqcF1KtFzsjKMfABZwbVKXDmcW_Dm2g&oe=684A0703",
        "media_type": "CAROUSEL_ALBUM",
        "like_count": 27,
        "comments_count": 5,
        "caption": "L’automne… 🍁 🍂 🌰 \n\nIl faut clairement admettre que c’est la saison que j’aime le moins.. En fait, je ne l’apprécie pas du tout..! 🙁 🍁 \n\nPour moi, c’est comme une petite mort, le soleil n’est plus là pour réchauffer mon cœur et ma peau, la fraîcheur me rend vulnérable, le manque de luminosité joue sur mon moral … 😤 \n\nCette année j’ai décidé de le vivre différemment.. De faire preuve de résilience.. \nTout simplement parce que je n’ai pas le choix. L’automne est là et reviendra tous les ans 🤨 (enfin normalement 😅). \n\nAlors cet automne j’ai décidé de m’écouter, d’écouter mon corps et mon esprit et de faire ce dont j’avais vraiment besoin et envie. \n\nLa nature a tendance à se replier, à se préparer à l’hiver, et nous aussi par la même occasion. Nous avons besoin de plus de sommeil, plus de cocooning, plus de calme, de RALENTIR… 😴 \n\nAlors je mise sur les bains chauds pour un soin relaxant et apaisant tout en permettant l’élimination des toxines de la peau. \n\nJe prends des cours de Pilates pour prendre soin de mon corps et de mon esprit. \n\nJe potasse mes cours de Naturopathie au coin de la cheminée 🔥, c’est tellement apaisant.. \n\nJe sors tous les jours pour prendre les quelques rayons de soleil qu’il y a à prendre (car il fait toujours plus ensoleillé dehors même si tu as l’impression que non 😅). \n\nJe bois des boissons chaudes avec du miel 🍯 … \n\nEt j’adopte les pensées positives au maximum !!\n\nEt toi? Tu aimes l’automne ? \nQuels sont tes petits rituels de la saison ?",
        "shortcode": "CVqKhwBohvl",
        "children": {
          "data": [
            {
              "media_url": "https://scontent-cdg4-1.cdninstagram.com/v/t51.29350-15/250432802_176268468032502_1159809006631008509_n.jpg?stp=dst-jpg_e35_tt6&_nc_cat=104&ccb=1-7&_nc_sid=18de74&_nc_ohc=OZQG2La3Lb0Q7kNvwG4Nfi7&_nc_oc=AdlFwertRJ_Mbe7Dkn6x2l3TCeKvkLAlIaGf5VUSsphHLIAQt5ZDs8HktGJKrz8wRwH550X1IGY_J2oamCNNRJ65&_nc_zt=23&_nc_ht=scontent-cdg4-1.cdninstagram.com&edm=AM6HXa8EAAAA&_nc_gid=uKSsQs8gxM_wFWSAh6MQ1Q&oh=00_AfOagUvWeeNNioTHqcF1KtFzsjKMfABZwbVKXDmcW_Dm2g&oe=684A0703",
              "id": "17928520567844448"
            },
            {
              "media_url": "https://scontent-cdg4-2.cdninstagram.com/v/t51.29350-15/251188538_287817896399014_8792597830653939698_n.jpg?stp=dst-jpg_e35_tt6&_nc_cat=103&ccb=1-7&_nc_sid=18de74&_nc_ohc=QZk_VN6sEsAQ7kNvwFxf9gw&_nc_oc=AdlsD3Gb8WA4qFcU4jDmhrMfdEyI_mAzD5eSgResQr3_axp6paFtlSZLk043lUJSMuf66gqwRdLz--2QbB7_jWDv&_nc_zt=23&_nc_ht=scontent-cdg4-2.cdninstagram.com&edm=AM6HXa8EAAAA&_nc_gid=uKSsQs8gxM_wFWSAh6MQ1Q&oh=00_AfMuYsRoOXioBDOcp8YTGvHOU9x0WyI-lPS3w6aF_L_H7Q&oe=684A10B4",
              "id": "17925721312806336"
            }
          ]
        },
        "timestamp": "2021-10-30T16:04:50+0000",
        "id": "18189781450121603"
      }
    },
    {
      "feedJSON": {
        "media_url": "https://scontent-cdg4-1.cdninstagram.com/v/t51.29350-15/249033823_4546938135364646_7821398695700096179_n.jpg?stp=dst-jpg_e35_tt6&_nc_cat=104&ccb=1-7&_nc_sid=18de74&_nc_ohc=ojmmeWfrpecQ7kNvwF39yFe&_nc_oc=AdnYIUN1i8YQ3OavF7gNGFJu4IdzsWwNSxvgfy9QBsIDgR-agPc_DBAQaBZyHzPRZ7fqstt6OwXDvHfxZyDitMQR&_nc_zt=23&_nc_ht=scontent-cdg4-1.cdninstagram.com&edm=AM6HXa8EAAAA&_nc_gid=uKSsQs8gxM_wFWSAh6MQ1Q&oh=00_AfNP3mZtGhVAUx5TdldpaZ1E5PX0BY343wKImDDJerQY_A&oe=684A221C",
        "media_type": "CAROUSEL_ALBUM",
        "like_count": 30,
        "comments_count": 5,
        "caption": "Le beurre de cacahuète 🥜 ..\n\nC’est un aliment riche en protéines 💪. \nIl a été inventé par un pharmacien canadien pour des patients qui souffraient de problèmes dentaires et qui ne pouvaient pas mâcher de viande..! 🍖 \n\nLe vrai beurre de cacahuète (pas celui où on rajoute du sucre etc…😅) est donc une source importante de protéines végétales. \n\nIl est donc idéal pour ton petit déjeuner 🥞 🥖. \n\nComme tu t’en doutes, il est riche en lipides (mais il s’agit de « bonnes graisses »). Ces lipides sont nécessaires pour lutter contre le cholestérol.\n\nIl est également riche en fibres ce qui t’apporte une sensation rapide de satiété 🤤 et régule donc ton appétit.\n\nSon index glycémique est bas (encore une raison de plus de le consommer au petit déjeuner) et il est riche en antioxydants.\n\nEt enfin il contient de la vitamine B8 qui protège ta peau de l’oxydation. \n\nMon fils de bientôt 4 ans adore en prendre au petit déjeuner sur ses tartines 🥖. Cela constitue un petit déjeuner copieux et équilibré tout en lui évitant le fameux coup de barre de 11h… (je ferai un post prochainement là-dessus). \n\nAlors convaincu ? \nEt toi? Tu consommes du beurre de cacahuète 🥜 ?",
        "shortcode": "CVkwLi9I2mG",
        "children": {
          "data": [
            {
              "media_url": "https://scontent-cdg4-1.cdninstagram.com/v/t51.29350-15/249033823_4546938135364646_7821398695700096179_n.jpg?stp=dst-jpg_e35_tt6&_nc_cat=104&ccb=1-7&_nc_sid=18de74&_nc_ohc=ojmmeWfrpecQ7kNvwF39yFe&_nc_oc=AdnYIUN1i8YQ3OavF7gNGFJu4IdzsWwNSxvgfy9QBsIDgR-agPc_DBAQaBZyHzPRZ7fqstt6OwXDvHfxZyDitMQR&_nc_zt=23&_nc_ht=scontent-cdg4-1.cdninstagram.com&edm=AM6HXa8EAAAA&_nc_gid=uKSsQs8gxM_wFWSAh6MQ1Q&oh=00_AfNP3mZtGhVAUx5TdldpaZ1E5PX0BY343wKImDDJerQY_A&oe=684A221C",
              "id": "17905038290265214"
            },
            {
              "media_url": "https://scontent-cdg4-2.cdninstagram.com/v/t51.29350-15/250276779_466839864662297_2921011562021825598_n.jpg?stp=dst-jpg_e35_tt6&_nc_cat=103&ccb=1-7&_nc_sid=18de74&_nc_ohc=vZt_Jh16uMsQ7kNvwHrPs8t&_nc_oc=AdmrmVAkBXbCFyWLDjpz8KAXaIvtcqxOTRuT3GmCfdQNFX93Upc0lO84EyKVqZoQC20zTJ0BtPFLN6KAldjzC42d&_nc_zt=23&_nc_ht=scontent-cdg4-2.cdninstagram.com&edm=AM6HXa8EAAAA&_nc_gid=uKSsQs8gxM_wFWSAh6MQ1Q&oh=00_AfOOoYxktLgJ-SLL-CPfdNiHQDAZmYod79k7l44f0tb94Q&oe=684A3534",
              "id": "17932146364720699"
            },
            {
              "media_url": "https://scontent-cdg4-2.cdninstagram.com/v/t51.29350-15/250185433_3029966920574731_2992663406793810642_n.jpg?stp=dst-jpg_e35_tt6&_nc_cat=103&ccb=1-7&_nc_sid=18de74&_nc_ohc=RKjDKTnuXmIQ7kNvwH8pD3a&_nc_oc=AdkPEb0TftCyuAgo6M5elP-DF5qOVXJsAs8-ulvdAFvUEPpmhj9EnFBbZn0Pgy8N9xyEiEPMNNeSlhJKb4tAt76S&_nc_zt=23&_nc_ht=scontent-cdg4-2.cdninstagram.com&edm=AM6HXa8EAAAA&_nc_gid=uKSsQs8gxM_wFWSAh6MQ1Q&oh=00_AfOY7H6leFaPbw2RzQBhpWiWH4nPv_4r8aVwPT3a4NMM8Q&oe=684A2882",
              "id": "17892518831443072"
            }
          ]
        },
        "timestamp": "2021-10-28T13:38:25+0000",
        "id": "17993034163383098"
      }
    },
    {
      "feedJSON": {
        "media_url": "https://scontent-cdg4-1.cdninstagram.com/v/t51.29350-15/248434230_860567057988466_7556787167852064516_n.jpg?stp=dst-jpg_e35_tt6&_nc_cat=105&ccb=1-7&_nc_sid=18de74&_nc_ohc=iaBpJTx-tpMQ7kNvwENnTB9&_nc_oc=AdmjYo7ABCWKWacwQbLNW2aGeXlJKy1zk9Vfh-Fa9191YH76ntDXOMC9trfHz1Gmnx731hc8GzcmwfCJKSMgjOtI&_nc_zt=23&_nc_ht=scontent-cdg4-1.cdninstagram.com&edm=AM6HXa8EAAAA&_nc_gid=uKSsQs8gxM_wFWSAh6MQ1Q&oh=00_AfNheCe5_IP1oWX-Qpe7J7ZIb7Qnx2309u05vy1rD_wIAw&oe=684A0D22",
        "media_type": "CAROUSEL_ALBUM",
        "like_count": 28,
        "comments_count": 9,
        "caption": "L’extrait de pépins de pamplemousse.. \n\nC’est un incontournable de tes placards ! Surtout pour la saison 🤧 🌧 \n\nL’extrait de pépins de pamplemousse (ou EPP) est un excellent antibiotique naturel. \nC’est le remède naturel anti-bactérien le plus puissant que l’on connaisse. Tu peux l’utiliser en prévention ou bien en traitement. \n\nIl a des propriétés antioxydantes qui protègent nos cellules du vieillissement et qui stimulent notre système immunitaire. Idéal pour l’automne-hiver ☔️ 🥶 \n\nL’EPP permet de lutter contre les troubles digestifs, les infections respiratoires, urinaires, génitales, la fatigue chronique, les infections buccales et les problèmes de peau 💪. Pas mal non ? \n\nIl faut le choisir bio de préférence et bien vérifier qu’il s’agisse du pamplemousse « citrus paradisii ». \n\nSi tu as un rhume ou une grippe : la posologie est de 15 gouttes 3x/jour à diluer dans un verre d’eau ou de jus de fruits. \n\n Pour une angine : fais un gargarisme avec 10 gouttes dans un verre d'eau tiède, à renouveler 3x/jour. \n\nCerise sur le gâteau 🍒 : il est adapté aux bébés et aux enfants 👶 (il faudra juste adapter la posologie). \n\nPersonnellement, c’est mon remède chouchou de la saison !",
        "shortcode": "CVfPgneoavm",
        "children": {
          "data": [
            {
              "media_url": "https://scontent-cdg4-1.cdninstagram.com/v/t51.29350-15/248434230_860567057988466_7556787167852064516_n.jpg?stp=dst-jpg_e35_tt6&_nc_cat=105&ccb=1-7&_nc_sid=18de74&_nc_ohc=iaBpJTx-tpMQ7kNvwENnTB9&_nc_oc=AdmjYo7ABCWKWacwQbLNW2aGeXlJKy1zk9Vfh-Fa9191YH76ntDXOMC9trfHz1Gmnx731hc8GzcmwfCJKSMgjOtI&_nc_zt=23&_nc_ht=scontent-cdg4-1.cdninstagram.com&edm=AM6HXa8EAAAA&_nc_gid=uKSsQs8gxM_wFWSAh6MQ1Q&oh=00_AfNheCe5_IP1oWX-Qpe7J7ZIb7Qnx2309u05vy1rD_wIAw&oe=684A0D22",
              "id": "18129154192246061"
            },
            {
              "media_url": "https://scontent-cdg4-2.cdninstagram.com/v/t51.29350-15/248381171_4368043383310044_1010493024914312708_n.jpg?stp=dst-jpg_e35_tt6&_nc_cat=100&ccb=1-7&_nc_sid=18de74&_nc_ohc=NrJjxqdxIPAQ7kNvwHPzq6Y&_nc_oc=AdkuQD89asouo-4BdudIHo_vaHa3XnvmBgpna-IuE1ovB3pvDGe9dBBCUkngAPoejOCvLS0xyVrRX9O25M2FinlZ&_nc_zt=23&_nc_ht=scontent-cdg4-2.cdninstagram.com&edm=AM6HXa8EAAAA&_nc_gid=uKSsQs8gxM_wFWSAh6MQ1Q&oh=00_AfMCJbrBGtTtowWHCsaDAUwp5HWKYRvTy9LjtjVMyhleeA&oe=684A0CD1",
              "id": "17942117248623951"
            }
          ]
        },
        "timestamp": "2021-10-26T10:16:44+0000",
        "id": "17979988771394516"
      }
    }
  ],
  "pageInfo": {
    "pageCount": 20,
    "page": 18,
    "total": 99,
    "pageSize": 5
  }
}