{
  "nodes": [
    {
      "feedJSON": {
        "media_url": "https://scontent-cdg4-2.cdninstagram.com/o1/v/t16/f2/m82/AQMoOm-l5lYPCMkVobn76xGQTwgMLK1y5N6jSKFHCACRjk4F3a6-dYO_SVFD4M_ueEXCd2cheoZ37NUT7XR1AODg86v-EqHqrApoz48.mp4?efg=eyJ2ZW5jb2RlX3RhZyI6InZ0c192b2RfdXJsZ2VuLmNsaXBzLnVua25vd24tQzMuNzIwLmRhc2hfYmFzZWxpbmVfMV92MSJ9&_nc_ht=scontent-cdg4-2.cdninstagram.com&edm=AM6HXa8EAAAA&_nc_gid=Jxyk8iLhjOsd921zom1IKA&_nc_cat=100&_nc_oc=AdkjqmlReK6R58C_qU2VkHtECfyM2MMBzk-5T7HeS4YCHVzzl4DiN7kOFAskrqao90kIEPN1Pj9jP3UAi4wuU4kS&vs=1215875478991632_3403766472&_nc_vs=HBksFQIYT2lnX3hwdl9yZWVsc19wZXJtYW5lbnRfcHJvZC9CRTQwMzQ4QTE0NjMwMTNDNEIwNTc4OTcyMzAxREE5OF92aWRlb19kYXNoaW5pdC5tcDQVAALIARIAFQIYOnBhc3N0aHJvdWdoX2V2ZXJzdG9yZS9HTkdZb3hKSFR2Zi1RT2NCQUxoYUtpbXJRZ29mYnFfRUFBQUYVAgLIARIAKAAYABsBiAd1c2Vfb2lsATEVAAAm0PS0jJaE5j8VAigCQzMsF0BPVYEGJN0vGBJkYXNoX2Jhc2VsaW5lXzFfdjERAHUAZeadAQA%3D&ccb=9-4&oh=00_AfNQP9eXlP9FDlJry2bCcH2OCb7J3CnuUDPdtswY2fNl5A&oe=68461D08&_nc_sid=1d576d",
        "media_type": "VIDEO",
        "thumbnail_url": "https://scontent-cdg4-1.cdninstagram.com/v/t51.36329-15/312738907_914718049495746_6622975033900999073_n.jpg?stp=dst-jpg_e35_tt6&_nc_cat=105&ccb=1-7&_nc_sid=18de74&_nc_ohc=mDafqvMWDYMQ7kNvwGfdPZz&_nc_oc=Adn_s2ECFG5uAIyeZMB59lIGSoeC0CTw6scCKBkXCnDVD_uZQiCI1dtQap9F__xmmvz2gNsaOSmF89LdZiXmOo-j&_nc_zt=23&_nc_ht=scontent-cdg4-1.cdninstagram.com&edm=AM6HXa8EAAAA&_nc_gid=Jxyk8iLhjOsd921zom1IKA&oh=00_AfNkXaXwsRr0vb6um_nKhwtyCL9V_eMGNTj-HixZY-CGXg&oe=684A1A50",
        "like_count": 11,
        "comments_count": 1,
        "caption": "Quelles sont les techniques utilisées en Naturopathie ? \nEst-ce pour moi ? \n\nJe te laisse visionner la vidéo pour en savoir davantage 😉\n\n—————————————————\n\nJe m’appelle Laure et je suis Naturopathe Iridologue. \nJe vous accompagne et vous donne les clés pour retrouver votre santé et votre bien-être au naturel 🌱.\n\nSi vous souhaitez retrouver votre vitalité, n’hésitez pas à réserver une consultation. C’est avec plaisir et bienveillance que je vous accompagnerai ! \n\nRDV et appel découverte gratuit ici : https://laurenaturo.fr",
        "shortcode": "CkGkJeSIsg9",
        "timestamp": "2022-10-24T16:25:15+0000",
        "id": "17976896812770243"
      }
    },
    {
      "feedJSON": {
        "media_url": "https://scontent-cdg4-2.cdninstagram.com/o1/v/t16/f2/m86/AQPx0uTdyb0NHe6fZUmnIWP6irAYu69W1D6OZAck2ZQeq_1cSX4qPfQrZ6myOFiQOUxo31Admx6Yj6husE7b70V0IVpsTxDXI4HHSZc.mp4?efg=eyJ2ZW5jb2RlX3RhZyI6InZ0c192b2RfdXJsZ2VuLmNsaXBzLnVua25vd24tQzMuNzIwLmRhc2hfYmFzZWxpbmVfMV92MSJ9&_nc_ht=scontent-cdg4-2.cdninstagram.com&edm=AM6HXa8EAAAA&_nc_gid=Jxyk8iLhjOsd921zom1IKA&_nc_cat=100&_nc_oc=AdnObmoo_EoKxSMy1nSwHb6Wg2679x_ivTc45ENGUqTz0-3QPpRkzar1pHROe6c9dL3lUR6XH1CdjMHbmEDUVyQt&vs=1771248303624128_1047933405&_nc_vs=HBksFQIYUmlnX3hwdl9yZWVsc19wZXJtYW5lbnRfc3JfcHJvZC8yNzQ1NDc1RjFDRDY2QUY2NTVFMDU2MUVFN0IyQzdBRV92aWRlb19kYXNoaW5pdC5tcDQVAALIARIAFQIYOnBhc3N0aHJvdWdoX2V2ZXJzdG9yZS9HSlczbEJJejhUZWpTbzRBQUJBbTJNdHIzVHB0YnFfRUFBQUYVAgLIARIAKAAYABsBiAd1c2Vfb2lsATEVAAAmjv7Kopyl%2Bj8VAigCQzMsF0BOKwIMSbpeGBJkYXNoX2Jhc2VsaW5lXzFfdjERAHUAZeadAQA%3D&ccb=9-4&oh=00_AfMXqcChyCx1-kfeB5a8rXgqTSksVXkiFubPr1_Sr07gUg&oe=68460D40&_nc_sid=1d576d",
        "media_type": "VIDEO",
        "thumbnail_url": "https://scontent-cdg4-2.cdninstagram.com/v/t51.36329-15/312335947_1053534395325099_475406668650101514_n.jpg?stp=dst-jpg_e35_tt6&_nc_cat=103&ccb=1-7&_nc_sid=18de74&_nc_ohc=Az7cqpnY34wQ7kNvwGYK6ph&_nc_oc=AdmjSEZmiRUXrgpR7GGvMJHUMrAkfevvKJokPvzHtstdSHrLzVwy9O_sT5Ji4MRm-2PyvTKqqeYKWfyjzkjTrNgv&_nc_zt=23&_nc_ht=scontent-cdg4-2.cdninstagram.com&edm=AM6HXa8EAAAA&_nc_gid=Jxyk8iLhjOsd921zom1IKA&oh=00_AfNI0Do2ojFtPc-6nk1wJBfIggZl1qL6WmlTQO3k7fe9oQ&oe=684A270F",
        "like_count": 13,
        "comments_count": 3,
        "caption": "C’est quoi la Naturopathie ? Comment cela fonctionne ?\nJe te laisse visionner la vidéo pour en savoir davantage 😉\n\n—————————————————\n\nJe m’appelle Laure et je suis Naturopathe Iridologue. \nJe vous accompagne et vous donne les clés pour retrouver votre santé et votre bien-être au naturel 🌱.\n\nSi vous souhaitez retrouver votre vitalité, n’hésitez pas à réserver une consultation. C’est avec plaisir et bienveillance que je vous accompagnerai ! \n\nRDV et appel découverte gratuit ici : https://laurenaturo.fr/\n\nDans cette vidéo, je t’explique ce qu’est la Naturopathie et comment elle agit 🌱 ! \n\nDemain je t’expliquerai à qui elle s’adresse et si tu es un bon candidat pour la Naturopathie 😉\n\nEt toi ? Connaissais-tu la Naturopathie ? \nSavais-tu que l’objectif principal est d’agir sur la CAUSE et non sur le SYMPTÔME ? \n\n———————————————————————\n\nJe m’appelle Laure et je suis Naturopathe Iridologue. Je vous accompagne et vous donne les clés pour retrouver votre santé et votre bien-être au naturel 🌱.\n\nSi vous souhaitez retrouver votre vitalité, n’hésitez pas à réserver une consultation. C’est avec plaisir et bienveillance que je vous accompagnerai !",
        "shortcode": "Cj-4UiHIzpb",
        "timestamp": "2022-10-21T16:46:33+0000",
        "id": "17919402200620875"
      }
    },
    {
      "feedJSON": {
        "media_url": "https://scontent-cdg4-2.cdninstagram.com/o1/v/t16/f2/m86/AQPCzGMl6p0AWP5xT7eszlnutW7naPCp5edfS28vXxot59kPKWX9dwRYrsqR-kKEVy6rsw5JhRGi_2yPP3EtPEZWqsrotnCcZ1SxQZQ.mp4?efg=eyJ2ZW5jb2RlX3RhZyI6InZ0c192b2RfdXJsZ2VuLmNsaXBzLnVua25vd24tQzMuNzIwLmRhc2hfYmFzZWxpbmVfMV92MSJ9&_nc_ht=scontent-cdg4-2.cdninstagram.com&edm=AM6HXa8EAAAA&_nc_gid=Jxyk8iLhjOsd921zom1IKA&_nc_cat=101&_nc_oc=Adn9s26mx4b0uQs21jOwZG-II9QlDwyzbFXE2iGyzntT-1SJY0cE1TF_UZgVB4yAh8ff8n4GUZyZphQUSxILDeGK&vs=886539800251589_2871752426&_nc_vs=HBksFQIYUmlnX3hwdl9yZWVsc19wZXJtYW5lbnRfc3JfcHJvZC9GQzQ5ODY5NjEzRURDMjQxMDIwMzNCRDlGNzgyMTI4Ql92aWRlb19kYXNoaW5pdC5tcDQVAALIARIAFQIYOnBhc3N0aHJvdWdoX2V2ZXJzdG9yZS9HTDRTaFJKM2xhd2dfWDRCQUdWRjhXSGZXcEJ2YnFfRUFBQUYVAgLIARIAKAAYABsBiAd1c2Vfb2lsATEVAAAmysbhuMf4xT8VAigCQzMsF0BTG%2Bdsi0OWGBJkYXNoX2Jhc2VsaW5lXzFfdjERAHUAZeadAQA%3D&ccb=9-4&oh=00_AfN49decedJryFvAHY-rocAWAwTr_he3BihGCHjxiD2vcw&oe=68462787&_nc_sid=1d576d",
        "media_type": "VIDEO",
        "thumbnail_url": "https://scontent-cdg4-2.cdninstagram.com/v/t51.36329-15/309115691_823148955550319_2049948364642075357_n.jpg?stp=dst-jpg_e35_tt6&_nc_cat=100&ccb=1-7&_nc_sid=18de74&_nc_ohc=3s-p4n8BMigQ7kNvwHGicL9&_nc_oc=AdmjqHJ1HIJdHhoGJhhDdw5zmSfxSzD19jCVjOEW5j25QYmCPbyGRAUMPXouDwBQC42EnbTpvYsMS4hQyuKFjny5&_nc_zt=23&_nc_ht=scontent-cdg4-2.cdninstagram.com&edm=AM6HXa8EAAAA&_nc_gid=Jxyk8iLhjOsd921zom1IKA&oh=00_AfNgP9ZuRt5eIbAj1M7uSaaMONFTeLpQNUopfMwqY_PSWw&oe=684A1CB7",
        "like_count": 17,
        "comments_count": 2,
        "caption": "ÇA Y EST !\n\nAprès 2 ans et demi de reconversion professionnelle, me voilà certifiée en tant que Naturopathe Iridologue.\n\nJ’ai hâte de vous rencontrer et de vous accompagner vers le chemin du bien être et de la santé 🌱 !\n\nN’hésitez pas à profiter de mon offre de lancement de -25% sur tous mes accompagnements que ce soit au cabinet ou en téléconsultation. \n\nVous hésitez ? Je propose des appels téléphoniques GRATUITS pour que l’on puisse échanger ensemble, que je puisse répondre à vos questions et déterminer comment je peux vous accompagner au mieux !\n\nPour prendre RDV et en savoir + sur moi : c’est ici que ça se passe : https://laurenaturo.fr \n\n—————————————————-\n\nJe m’appelle Laure et je suis Naturopathe Iridologue.\nJe vous accompagne et vous donne les clés pour retrouver votre santé et votre bien-être au naturel 🌱.\n\nSi vous souhaitez retrouver votre vitalité, n’hésitez pas à réserver une consultation. C’est avec plaisir et bienveillance que je vous accompagnerai !",
        "shortcode": "Cj0jVZ_IqIq",
        "timestamp": "2022-10-17T16:47:47+0000",
        "id": "17981614393715217"
      }
    },
    {
      "feedJSON": {
        "media_url": "https://scontent-cdg4-2.cdninstagram.com/o1/v/t16/f2/m86/AQPsSzkqll09QjNnWeCl99nu9Cp1J2yI0U_c-7jEUprhcMhyIaSQaj67Bc8UKLpkAibhggSE_3vOnTomrDuLB3pEN7QYjvQdlO3lasY.mp4?efg=eyJ2ZW5jb2RlX3RhZyI6InZ0c192b2RfdXJsZ2VuLmNsaXBzLnVua25vd24tQzMuNzIwLmRhc2hfYmFzZWxpbmVfMV92MSJ9&_nc_ht=scontent-cdg4-2.cdninstagram.com&edm=AM6HXa8EAAAA&_nc_gid=Jxyk8iLhjOsd921zom1IKA&_nc_cat=101&_nc_oc=AdlUo-F5snQDvM9tkH85YzQZ0aIJH5INe4E-zJwoQw2_4kdigBAxL4J46KmdcCTrSMr6yi-qDqnLJJIA9xi---OQ&vs=1310736890375040_1967987736&_nc_vs=HBksFQIYUmlnX3hwdl9yZWVsc19wZXJtYW5lbnRfc3JfcHJvZC80MDQ0MkUzMzUwNjhFOTE4RkQwRkFEOEVEQUNFODg5N192aWRlb19kYXNoaW5pdC5tcDQVAALIARIAFQIYOnBhc3N0aHJvdWdoX2V2ZXJzdG9yZS9HUFI0ZnhJcjVCTmtlWTRMQUp6NFI0cUxBbHdtYnFfRUFBQUYVAgLIARIAKAAYABsBiAd1c2Vfb2lsATEVAAAmuK33kZ6rmEAVAigCQzMsF0A2kWhysCDFGBJkYXNoX2Jhc2VsaW5lXzFfdjERAHUAZeadAQA%3D&ccb=9-4&oh=00_AfMOIYV7ueEnbow1DoTcmNuG09kCEaQ9iJcap2aprYnXyw&oe=6846208B&_nc_sid=1d576d",
        "media_type": "VIDEO",
        "thumbnail_url": "https://scontent-cdg4-2.cdninstagram.com/v/t51.36329-15/311761814_654187189386170_5304805922779833987_n.jpg?stp=dst-jpg_e35_tt6&_nc_cat=101&ccb=1-7&_nc_sid=18de74&_nc_ohc=BSvaaxL9YJYQ7kNvwGEaowK&_nc_oc=Admk7LLClHW2g6FeRcmvDNZIev96qyZJzcQgHUhkUoYtsDMmLMlZQLtRwFN9hSwHUPAFqfFTTc-lIuwP3TfuQ7mM&_nc_zt=23&_nc_ht=scontent-cdg4-2.cdninstagram.com&edm=AM6HXa8EAAAA&_nc_gid=Jxyk8iLhjOsd921zom1IKA&oh=00_AfOjaaR4EkakrSDbXVkVF-hDcFNfocxbAp1S2l8HoYHhiA&oe=684A17D2",
        "like_count": 14,
        "comments_count": 1,
        "caption": "Le stress vous guette….\n\nJe vous donne 6 conseils (non exhaustifs biensur!) pour vous aider à y faire face !\nEt toi ? Que fais-tu pour lutter contre le stress ?\n\nLaure, Naturopathe je vous accompagne et vous donne les clés pour retrouver votre santé et votre bien-être au naturel 🌱.\n\nSi vous souhaitez retrouver votre vitalité, n’hésitez pas à réserver une consultation. C’est avec plaisir que je vous accompagnerai.\nhttps://laurenaturo.fr/consultations/",
        "shortcode": "CjsL5hIozJV",
        "timestamp": "2022-10-14T10:24:53+0000",
        "id": "18328081402017267"
      }
    },
    {
      "feedJSON": {
        "media_url": "https://scontent-cdg4-2.cdninstagram.com/v/t51.29350-15/308652654_621137786278448_8039028666982794516_n.jpg?stp=dst-jpg_e35_tt6&_nc_cat=101&ccb=1-7&_nc_sid=18de74&_nc_ohc=xw6_EnbJNigQ7kNvwG3jPpx&_nc_oc=AdkB_aNbNyVzHHDEhR2ce0S42cQovBL45RpKLtzuIr-5zTiLetrpU0CdYRtyFwOBLH7FOSM58QY75bg2zSZzDbG5&_nc_zt=23&_nc_ht=scontent-cdg4-2.cdninstagram.com&edm=AM6HXa8EAAAA&_nc_gid=Jxyk8iLhjOsd921zom1IKA&oh=00_AfPd1MrFEF6MgGd42_kOBW1f29K6QW7TJxL7KIbPQVJEmg&oe=684A34F2",
        "media_type": "CAROUSEL_ALBUM",
        "like_count": 38,
        "comments_count": 1,
        "caption": "Ce que nous consommons a un impact direct sur notre santé physique et mentale 🧠.\n\nEt cela va bien au-delà de notre alimentation 🍎 !\n\nQue ce soient nos relations sociales, les médias, la musique 🎧 que l’on écoutent, ou même le shampoing 🧴 que l’on utilise, TOUS ont un impact sur notre santé !\n\nJe t’en dis plus dans ce post 😉\n\nBonne lecture 📖 , \n\nLaure",
        "shortcode": "Ci-dO4coFvt",
        "children": {
          "data": [
            {
              "media_url": "https://scontent-cdg4-2.cdninstagram.com/v/t51.29350-15/308652654_621137786278448_8039028666982794516_n.jpg?stp=dst-jpg_e35_tt6&_nc_cat=101&ccb=1-7&_nc_sid=18de74&_nc_ohc=xw6_EnbJNigQ7kNvwG3jPpx&_nc_oc=AdkB_aNbNyVzHHDEhR2ce0S42cQovBL45RpKLtzuIr-5zTiLetrpU0CdYRtyFwOBLH7FOSM58QY75bg2zSZzDbG5&_nc_zt=23&_nc_ht=scontent-cdg4-2.cdninstagram.com&edm=AM6HXa8EAAAA&_nc_gid=Jxyk8iLhjOsd921zom1IKA&oh=00_AfPd1MrFEF6MgGd42_kOBW1f29K6QW7TJxL7KIbPQVJEmg&oe=684A34F2",
              "id": "17979754033638470"
            },
            {
              "media_url": "https://scontent-cdg4-2.cdninstagram.com/v/t51.29350-15/308634100_1060840404608063_8537578208671461366_n.jpg?stp=dst-jpg_e35_tt6&_nc_cat=103&ccb=1-7&_nc_sid=18de74&_nc_ohc=6Xe6XKCGVnQQ7kNvwEmhHa8&_nc_oc=AdnPgqHIX9Vu5ybv8Z60X0p-dCs0CZMr2_KorOueuDgKM7EPZdLd4zPpvyhMxbCZNrFcM35dnpo8yBf5EClPe7Si&_nc_zt=23&_nc_ht=scontent-cdg4-2.cdninstagram.com&edm=AM6HXa8EAAAA&_nc_gid=Jxyk8iLhjOsd921zom1IKA&oh=00_AfPcMY5XsnmLjwr_biUXpdw6e6zVxvGTT0eCcRDcfFs-iQ&oe=684A20C6",
              "id": "17960615731985017"
            },
            {
              "media_url": "https://scontent-cdg4-1.cdninstagram.com/v/t51.29350-15/309036723_812635370162251_1677458653434113702_n.jpg?stp=dst-jpg_e35_tt6&_nc_cat=108&ccb=1-7&_nc_sid=18de74&_nc_ohc=o47aoYrvSrgQ7kNvwHxsODi&_nc_oc=AdkmLWEM1jiYGnIa8PBLsD9j6Lg8Ww16keoo2mgdPw8WS82onquZ_TpKmJXgIaVDfB010q_tagCB9nbpy4YgeYfB&_nc_zt=23&_nc_ht=scontent-cdg4-1.cdninstagram.com&edm=AM6HXa8EAAAA&_nc_gid=Jxyk8iLhjOsd921zom1IKA&oh=00_AfPHTh99Co0BtZS3dvVznTKUIB5-ocQdxu7F_GirRPWs8w&oe=684A09A8",
              "id": "17870203892774329"
            },
            {
              "media_url": "https://scontent-cdg4-2.cdninstagram.com/v/t51.29350-15/308872852_486325750048194_1487454097256150682_n.jpg?stp=dst-jpg_e35_tt6&_nc_cat=101&ccb=1-7&_nc_sid=18de74&_nc_ohc=kQDDssmVf0cQ7kNvwGH3hqt&_nc_oc=Adn648VWkNYMVUOxyhHzGJaqHEVDffAK30ozZRTCVT9IZOW7oPvNGYzXLB6ilCyl49_NFbdq7b5V0ygI4q2ISfhY&_nc_zt=23&_nc_ht=scontent-cdg4-2.cdninstagram.com&edm=AM6HXa8EAAAA&_nc_gid=Jxyk8iLhjOsd921zom1IKA&oh=00_AfNS3q1qO08hZGUZz0QzHKDZr_eoEA1WaBpP3pnFQkQ_ew&oe=6849FE51",
              "id": "17966170204782215"
            },
            {
              "media_url": "https://scontent-cdg4-1.cdninstagram.com/v/t51.29350-15/308830672_124477613709933_6016617275635755757_n.jpg?stp=dst-jpg_e35_tt6&_nc_cat=105&ccb=1-7&_nc_sid=18de74&_nc_ohc=AWPWXWILVXgQ7kNvwHgX182&_nc_oc=Adm3DUyX_8KZ9Ay7BiH489hV-kYWvXUxg2DX-9JdNGHFcmK6aKpE7axWIjbZnVtURNuZum7d8EaP9zyoNCebsnzd&_nc_zt=23&_nc_ht=scontent-cdg4-1.cdninstagram.com&edm=AM6HXa8EAAAA&_nc_gid=Jxyk8iLhjOsd921zom1IKA&oh=00_AfNWfq0Xy5QxMnvCw7Zm9Z5GTPpFOfcdzAL5sb5UuIfzGg&oe=6849FD57",
              "id": "17998075480515779"
            },
            {
              "media_url": "https://scontent-cdg4-1.cdninstagram.com/v/t51.29350-15/308708234_127168106580212_5695238109918119856_n.jpg?stp=dst-jpg_e35_tt6&_nc_cat=108&ccb=1-7&_nc_sid=18de74&_nc_ohc=bSareUD1FYUQ7kNvwEuqHrg&_nc_oc=AdnNevc8EjeiedFpPw0hYSvREmxL_LtABwz99_YJeL1AV4D6jYm1vMjG70M-sGJcmB_U0634NxsunXS3zbE7Menk&_nc_zt=23&_nc_ht=scontent-cdg4-1.cdninstagram.com&edm=AM6HXa8EAAAA&_nc_gid=Jxyk8iLhjOsd921zom1IKA&oh=00_AfMZTpVwsOSBysBevvcNsfUTUDKy_68SkvVagGrOppNgFw&oe=684A22D6",
              "id": "18041162353374508"
            },
            {
              "media_url": "https://scontent-cdg4-3.cdninstagram.com/v/t51.29350-15/309023320_801853924567574_5255172014834950533_n.jpg?stp=dst-jpg_e35_tt6&_nc_cat=110&ccb=1-7&_nc_sid=18de74&_nc_ohc=yDNa4P3OooMQ7kNvwGFtTad&_nc_oc=Admw69OMK-ABw1zc5laYrsXg3yu9L4XZ-IKb4HNzO0xnjkDHjVDGeFLeEMpTAPciyrCFYnrYZ59iGvhNrtbw18uY&_nc_zt=23&_nc_ht=scontent-cdg4-3.cdninstagram.com&edm=AM6HXa8EAAAA&_nc_gid=Jxyk8iLhjOsd921zom1IKA&oh=00_AfOeJjCfClH5Kd_VAkmlrrQ8do6BHzIGQThoNA18AUKKdQ&oe=684A2769",
              "id": "17945688260120244"
            },
            {
              "media_url": "https://scontent-cdg4-2.cdninstagram.com/v/t51.29350-15/309161100_603944568059761_2059667817033678739_n.jpg?stp=dst-jpg_e35_tt6&_nc_cat=100&ccb=1-7&_nc_sid=18de74&_nc_ohc=Ij8x_JyuCYcQ7kNvwGyG5b_&_nc_oc=AdlDq-IMivV_OR6BEkJsm4svPYfMCr3CuI-q_E7C0M56r3IdctmhYp3Mz2xOcDgE17pL6pu6B7SIK994WYRA466D&_nc_zt=23&_nc_ht=scontent-cdg4-2.cdninstagram.com&edm=AM6HXa8EAAAA&_nc_gid=Jxyk8iLhjOsd921zom1IKA&oh=00_AfPfwwkY68oUTiuULI_BgQD0NqK3YsmmfpPM9lpGuF58Iw&oe=684A1103",
              "id": "17870350841732023"
            }
          ]
        },
        "timestamp": "2022-09-26T16:01:13+0000",
        "id": "17937112799385369"
      }
    }
  ],
  "pageInfo": {
    "pageCount": 20,
    "page": 13,
    "total": 99,
    "pageSize": 5
  }
}