{
  "nodes": [
    {
      "feedJSON": {
        "media_url": "https://scontent-cdg4-1.cdninstagram.com/v/t51.29350-15/320374246_136640512533809_583750894976463106_n.jpg?stp=dst-jpg_e35_tt6&_nc_cat=104&ccb=1-7&_nc_sid=18de74&_nc_ohc=HWZvfNUkNeUQ7kNvwFjqpRN&_nc_oc=AdmClOTZ_cVxd-X7p5kG3g7KucAo6oXNt9pjiwH05niZytdh3G315xnC92ZCmpl9084gskxpThVCJ75AppWl9Vvr&_nc_zt=23&_nc_ht=scontent-cdg4-1.cdninstagram.com&edm=AM6HXa8EAAAA&_nc_gid=8kgyB1Pk2a030Lir7Nuc9Q&oh=00_AfNDA4y15ZXF0eiMY0lb3kmaKezIq-ZBTM6XsIzjDcvZGQ&oe=684A33EB",
        "media_type": "IMAGE",
        "like_count": 30,
        "comments_count": 1,
        "caption": "Aujourd’hui je te donne 6 conseils naturo pour être de bonne humeur 😁 \n\nEt toi quelle est ton astuce bonne humeur ?",
        "shortcode": "CmW3Ul8KU7_",
        "timestamp": "2022-12-19T17:05:09+0000",
        "id": "17951700371187932"
      }
    },
    {
      "feedJSON": {
        "media_url": "https://scontent-cdg4-2.cdninstagram.com/v/t51.29350-15/320507515_556771292572371_2124921069769701800_n.jpg?stp=dst-jpg_e35_tt6&_nc_cat=103&ccb=1-7&_nc_sid=18de74&_nc_ohc=mRGFdERSBUQQ7kNvwERKfsX&_nc_oc=Adkn6UGA-EofwC1AUcWNJX-xcZ7al7jXqgDa4JgAi8Idi5lTdqJFNfwZkqVuOjiETeyhEcvJw3bV_ESMpOcVrzH2&_nc_zt=23&_nc_ht=scontent-cdg4-2.cdninstagram.com&edm=AM6HXa8EAAAA&_nc_gid=8kgyB1Pk2a030Lir7Nuc9Q&oh=00_AfNtDvkZ92GZ2jNVNQ0H63HW5NaTRNDn9D-LeDhk-TpI6A&oe=684A2C35",
        "media_type": "IMAGE",
        "like_count": 9,
        "comments_count": 3,
        "caption": "🎁 JEU CONCOURS 🎁 \n\nA l’occasion des fêtes de fin d’année, je vous offre la possibilité de gagner 1 séance de rééquilibrage alimentaire en visio ou au cabinet (Baron).\n\nIdéal pour prendre ou reprendre des bonnes habitudes pour cette nouvelle année! \n\nQue vous ayez envie de perdre du poids, prendre du poids, manger plus équilibré... cette séance est faites pour vous ! \n\nPour participer :\n✅ Abonne-toi à mon compte laure_naturo (si ce n’est pas déjà fait 😉)\n✅ Like ce post\n✅ Mentionne en commentaire 2 ami(e)s ou plus \n✅ Partage ce post en story en me taggant pour augmenter tes chances 🤞! \n\n🍀 Tirage au sort mercredi 21 décembre🍀 \n\nLe ou la gagnante sera prévenu en message privé 🤩\n\nBonne chance à toutes et à tous ! À vous de jouer et de partager 🙂",
        "shortcode": "CmT-oFDKjpT",
        "timestamp": "2022-12-18T14:11:15+0000",
        "id": "17978081086853513"
      }
    },
    {
      "feedJSON": {
        "media_url": "https://scontent-cdg4-2.cdninstagram.com/v/t51.29350-15/320413039_1207260553508406_8092917835284655574_n.jpg?stp=dst-jpg_e35_tt6&_nc_cat=107&ccb=1-7&_nc_sid=18de74&_nc_ohc=AHOujB8KJc4Q7kNvwFJH4Q7&_nc_oc=AdnMS_l3tbul5vuOM5mNVsHik3uLvaoY81Rgpqhmo2IKjMTwZKIx6-xaNnijfM1J4iTtNeQtKQmjkvnSwku9We8d&_nc_zt=23&_nc_ht=scontent-cdg4-2.cdninstagram.com&edm=AM6HXa8EAAAA&_nc_gid=8kgyB1Pk2a030Lir7Nuc9Q&oh=00_AfN0zYnbbw3EYN3lkPvwqoIymKf_MKUX4hR-l52B6qa6Qg&oe=684A30AB",
        "media_type": "IMAGE",
        "like_count": 63,
        "comments_count": 6,
        "shortcode": "CmRehh4KZzQ",
        "timestamp": "2022-12-17T14:52:15+0000",
        "id": "17959876160183651"
      }
    },
    {
      "feedJSON": {
        "media_url": "https://scontent-cdg4-1.cdninstagram.com/v/t51.29350-15/320554055_544196594280328_6449561408691409308_n.jpg?stp=dst-jpg_e35_tt6&_nc_cat=104&ccb=1-7&_nc_sid=18de74&_nc_ohc=P0JFq_PplowQ7kNvwE3033O&_nc_oc=AdlGoKjeUCfi2-HCvh3lQ4iq0M0NgCM3_TKVxksvIlT7kdLTwjAxB71KCX0aVCKeAWNGB8abm3hOXjq69q9lh7ka&_nc_zt=23&_nc_ht=scontent-cdg4-1.cdninstagram.com&edm=AM6HXa8EAAAA&_nc_gid=8kgyB1Pk2a030Lir7Nuc9Q&oh=00_AfMSpTk--wVeKyWLK7M-TQ1BMNu5HStfIOlU2CGBbmG27w&oe=684A04BD",
        "media_type": "IMAGE",
        "like_count": 19,
        "comments_count": 2,
        "caption": "Savais-tu que 3 français sur 4 sont carencés en magnésium?\n\nNos modes de vie stressants utilisent beaucoup de magnésium.. \n- l’adrénaline générée par le stress capte le magnésium dans le plasma et empêche son absorption par les cellules\n-le cortisol (autre hormone du stress) augmente son excrétion urinaire ce qui entraîne une diminution du magnésium disponible pour les cellules. \n\nAlors commençons par faire attention à nos assiettes pour éviter les carences !",
        "shortcode": "CmPEPrpKPuX",
        "timestamp": "2022-12-16T16:24:09+0000",
        "id": "17948030921248980"
      }
    },
    {
      "feedJSON": {
        "media_url": "https://scontent-cdg4-3.cdninstagram.com/v/t51.29350-15/320174792_890811408601755_7056047674552750129_n.jpg?stp=dst-jpg_e35_tt6&_nc_cat=106&ccb=1-7&_nc_sid=18de74&_nc_ohc=_MfJi0ABmokQ7kNvwE2YOm6&_nc_oc=AdmUNia-MBbVy-iWkuI943UUlXHRh_El6NfipTAT_cfYAb6_qV0en1q_8TchoAGsuM7lx4HQzqxyKVvevXcBCpZ7&_nc_zt=23&_nc_ht=scontent-cdg4-3.cdninstagram.com&edm=AM6HXa8EAAAA&_nc_gid=8kgyB1Pk2a030Lir7Nuc9Q&oh=00_AfPtC7xBbs08Dc0arzKc3Dsw18fwHXhGisnL5zY4jBrz-g&oe=684A11BE",
        "media_type": "CAROUSEL_ALBUM",
        "like_count": 15,
        "comments_count": 1,
        "caption": "Et voilà la suite!\nA vos placards 😉 \nEt vous, quelle est votre habitude naturo ?",
        "shortcode": "CmMbE3mK_nH",
        "children": {
          "data": [
            {
              "media_url": "https://scontent-cdg4-3.cdninstagram.com/v/t51.29350-15/320174792_890811408601755_7056047674552750129_n.jpg?stp=dst-jpg_e35_tt6&_nc_cat=106&ccb=1-7&_nc_sid=18de74&_nc_ohc=_MfJi0ABmokQ7kNvwE2YOm6&_nc_oc=AdmUNia-MBbVy-iWkuI943UUlXHRh_El6NfipTAT_cfYAb6_qV0en1q_8TchoAGsuM7lx4HQzqxyKVvevXcBCpZ7&_nc_zt=23&_nc_ht=scontent-cdg4-3.cdninstagram.com&edm=AM6HXa8EAAAA&_nc_gid=8kgyB1Pk2a030Lir7Nuc9Q&oh=00_AfPtC7xBbs08Dc0arzKc3Dsw18fwHXhGisnL5zY4jBrz-g&oe=684A11BE",
              "id": "17949903584205953"
            },
            {
              "media_url": "https://scontent-cdg4-2.cdninstagram.com/v/t51.29350-15/319878293_2101547040037706_7787393534331532608_n.jpg?stp=dst-jpg_e35_tt6&_nc_cat=101&ccb=1-7&_nc_sid=18de74&_nc_ohc=rS73TSGX86MQ7kNvwEzxeEq&_nc_oc=AdnrdLYPXh0FYQ4ppMVkrNEz5krqLpXscOVce9W3qulDYxehtPclQhlf5g4Cihr4gQUHB2fFVywaNcSWnxtT9jhW&_nc_zt=23&_nc_ht=scontent-cdg4-2.cdninstagram.com&edm=AM6HXa8EAAAA&_nc_gid=8kgyB1Pk2a030Lir7Nuc9Q&oh=00_AfPhCg-4Y1IJSmGgMrVYbjB_XcnCXiSxROz-4Wsza9A8tg&oe=684A18EB",
              "id": "17975853208769541"
            },
            {
              "media_url": "https://scontent-cdg4-2.cdninstagram.com/v/t51.29350-15/320024508_856207355627822_8236457809582635026_n.jpg?stp=dst-jpg_e35_tt6&_nc_cat=109&ccb=1-7&_nc_sid=18de74&_nc_ohc=xq3qoTL7zTsQ7kNvwEtFDwE&_nc_oc=Adk8ZduoyWrXAYH5adw8TJrfuIvmZHDu8zTeIHaxkYBPDo3UpJszSnljVys4PoW_kdkHZzGaHmY7JzTZtK2zaLp_&_nc_zt=23&_nc_ht=scontent-cdg4-2.cdninstagram.com&edm=AM6HXa8EAAAA&_nc_gid=8kgyB1Pk2a030Lir7Nuc9Q&oh=00_AfPJL940AzQab7_b2IKRxcxywk1eVFb2B8Fl99YqIJyG-g&oe=6849FE10",
              "id": "18333592954044386"
            },
            {
              "media_url": "https://scontent-cdg4-3.cdninstagram.com/v/t51.29350-15/320215947_1692300277838038_2485130298819885895_n.jpg?stp=dst-jpg_e35_tt6&_nc_cat=110&ccb=1-7&_nc_sid=18de74&_nc_ohc=TE13BmM4hL0Q7kNvwEN2j5l&_nc_oc=AdmTIDDRubmVrDo6m0hKAaV9WKEVR-90o9Zr1EQK8btby1DeVF15VKtEASl4ubIVlpIDCMPTA_wiLqj7PIkCeIbn&_nc_zt=23&_nc_ht=scontent-cdg4-3.cdninstagram.com&edm=AM6HXa8EAAAA&_nc_gid=8kgyB1Pk2a030Lir7Nuc9Q&oh=00_AfO5LSaaDjkbXJe8PXU1nusOwCbPc3MjDUZh8HCZ_r6eAQ&oe=684A0C88",
              "id": "17950039166465629"
            },
            {
              "media_url": "https://scontent-cdg4-3.cdninstagram.com/v/t51.29350-15/320219061_1802459933465703_1853033602625742994_n.jpg?stp=dst-jpg_e35_tt6&_nc_cat=111&ccb=1-7&_nc_sid=18de74&_nc_ohc=LqeZhNzvvTkQ7kNvwHxo5DN&_nc_oc=AdmKNZahSIYIkBBiBPxTrQPjQrVp1YVkOqNs3HGv6SzieZIxxCAcToh62gO5auJFqnPyum3qgkXzZAgmgnub40y-&_nc_zt=23&_nc_ht=scontent-cdg4-3.cdninstagram.com&edm=AM6HXa8EAAAA&_nc_gid=8kgyB1Pk2a030Lir7Nuc9Q&oh=00_AfMoOOgvNzb8sndHUmVUoadEfiYhreLhcDUpyQH4cKbjtw&oe=684A1446",
              "id": "17967792623073158"
            }
          ]
        },
        "timestamp": "2022-12-15T15:45:56+0000",
        "id": "17959786952186481"
      }
    }
  ],
  "pageInfo": {
    "pageCount": 20,
    "page": 9,
    "total": 99,
    "pageSize": 5
  }
}