{"nodes":[{"feedJSON":{"media_type":"IMAGE","like_count":19,"comments_count":2,"caption":"Savais-tu que 3 français sur 4 sont carencés en magnésium?\n\nNos modes de vie stressants utilisent beaucoup de magnésium.. \n- l’adrénaline générée par le stress capte le magnésium dans le plasma et empêche son absorption par les cellules\n-le cortisol (autre hormone du stress) augmente son excrétion urinaire ce qui entraîne une diminution du magnésium disponible pour les cellules. \n\nAlors commençons par faire attention à nos assiettes pour éviter les carences !","shortcode":"CmPEPrpKPuX","timestamp":"2022-12-16T16:24:09+0000","id":"17948030921248980","media":[{"rawOptions":{"src":"https://ln-admin.laurenaturo.fr/uploads/17948030921248980_media_url_78146cf94a.jpeg","width":1080,"height":1080,"format":"webp"},"options":{"src":"https://ln-admin.laurenaturo.fr/uploads/17948030921248980_media_url_78146cf94a.jpeg","width":1080,"height":1080,"format":"webp"},"src":"https://ln-admin.laurenaturo.fr/uploads/17948030921248980_media_url_78146cf94a.jpeg","srcSet":{"values":[],"attribute":""},"attributes":{"width":1080,"height":1080,"loading":"lazy","decoding":"async"}}]}},{"feedJSON":{"media_type":"CAROUSEL_ALBUM","like_count":15,"comments_count":1,"caption":"Et voilà la suite!\nA vos placards 😉 \nEt vous, quelle est votre habitude naturo ?","shortcode":"CmMbE3mK_nH","children":{"data":[{"id":"17949903584205953","media":[{"rawOptions":{"src":"https://ln-admin.laurenaturo.fr/uploads/17959786952186481_media_url_43ac407aa5.jpeg","width":1080,"height":1080,"format":"webp"},"options":{"src":"https://ln-admin.laurenaturo.fr/uploads/17959786952186481_media_url_43ac407aa5.jpeg","width":1080,"height":1080,"format":"webp"},"src":"https://ln-admin.laurenaturo.fr/uploads/17959786952186481_media_url_43ac407aa5.jpeg","srcSet":{"values":[],"attribute":""},"attributes":{"width":1080,"height":1080,"loading":"lazy","decoding":"async"}}]},{"id":"17975853208769541","media":[{"rawOptions":{"src":"https://ln-admin.laurenaturo.fr/uploads/17959786952186481_media_url_a458e76ced.jpeg","width":1080,"height":1080,"format":"webp"},"options":{"src":"https://ln-admin.laurenaturo.fr/uploads/17959786952186481_media_url_a458e76ced.jpeg","width":1080,"height":1080,"format":"webp"},"src":"https://ln-admin.laurenaturo.fr/uploads/17959786952186481_media_url_a458e76ced.jpeg","srcSet":{"values":[],"attribute":""},"attributes":{"width":1080,"height":1080,"loading":"lazy","decoding":"async"}}]},{"id":"18333592954044386","media":[{"rawOptions":{"src":"https://ln-admin.laurenaturo.fr/uploads/17959786952186481_media_url_fb11902f5e.jpeg","width":1080,"height":1080,"format":"webp"},"options":{"src":"https://ln-admin.laurenaturo.fr/uploads/17959786952186481_media_url_fb11902f5e.jpeg","width":1080,"height":1080,"format":"webp"},"src":"https://ln-admin.laurenaturo.fr/uploads/17959786952186481_media_url_fb11902f5e.jpeg","srcSet":{"values":[],"attribute":""},"attributes":{"width":1080,"height":1080,"loading":"lazy","decoding":"async"}}]},{"id":"17950039166465629","media":[{"rawOptions":{"src":"https://ln-admin.laurenaturo.fr/uploads/17959786952186481_media_url_f390d44aac.jpeg","width":1080,"height":1080,"format":"webp"},"options":{"src":"https://ln-admin.laurenaturo.fr/uploads/17959786952186481_media_url_f390d44aac.jpeg","width":1080,"height":1080,"format":"webp"},"src":"https://ln-admin.laurenaturo.fr/uploads/17959786952186481_media_url_f390d44aac.jpeg","srcSet":{"values":[],"attribute":""},"attributes":{"width":1080,"height":1080,"loading":"lazy","decoding":"async"}}]},{"id":"17967792623073158","media":[{"rawOptions":{"src":"https://ln-admin.laurenaturo.fr/uploads/17959786952186481_media_url_056c008aa2.jpeg","width":1080,"height":1080,"format":"webp"},"options":{"src":"https://ln-admin.laurenaturo.fr/uploads/17959786952186481_media_url_056c008aa2.jpeg","width":1080,"height":1080,"format":"webp"},"src":"https://ln-admin.laurenaturo.fr/uploads/17959786952186481_media_url_056c008aa2.jpeg","srcSet":{"values":[],"attribute":""},"attributes":{"width":1080,"height":1080,"loading":"lazy","decoding":"async"}}]}]},"timestamp":"2022-12-15T15:45:56+0000","id":"17959786952186481","media":[{"rawOptions":{"src":"https://ln-admin.laurenaturo.fr/uploads/17959786952186481_media_url_3aac81de76.jpeg","width":1080,"height":1080,"format":"webp"},"options":{"src":"https://ln-admin.laurenaturo.fr/uploads/17959786952186481_media_url_3aac81de76.jpeg","width":1080,"height":1080,"format":"webp"},"src":"https://ln-admin.laurenaturo.fr/uploads/17959786952186481_media_url_3aac81de76.jpeg","srcSet":{"values":[],"attribute":""},"attributes":{"width":1080,"height":1080,"loading":"lazy","decoding":"async"}}]}},{"feedJSON":{"media_type":"CAROUSEL_ALBUM","like_count":13,"comments_count":1,"caption":"Aujourd’hui je te donne des conseils pour te constituer un placard Naturo !\n\nOn y va tout doux, pas besoin de tout acheter d’un coup ☺️\n\nMais si tu comptes prendre soin de ton alimentation, ces conseils te seront très utiles !\n\nBonne lecture 📖 !\n.\n.\n.\nJe m’appelle Laure et je suis Naturopathe Iridologue.\nJe vous accompagne et vous donne les clés pour retrouver votre santé et votre bien-être au naturel 🌱.\n\nN’hésitez pas à réserver une consultation ou un appel découverte offert ici : https://laurenaturo.fr\n\n C’est avec plaisir et bienveillance que je vous accompagnerai !\n\nA bientôt, \n\nLaure","shortcode":"CmJ-TYXqfXP","children":{"data":[{"id":"18044271829391650","media":[{"rawOptions":{"src":"https://ln-admin.laurenaturo.fr/uploads/17967023102039624_media_url_9f69f3c72e.jpeg","width":1080,"height":1080,"format":"webp"},"options":{"src":"https://ln-admin.laurenaturo.fr/uploads/17967023102039624_media_url_9f69f3c72e.jpeg","width":1080,"height":1080,"format":"webp"},"src":"https://ln-admin.laurenaturo.fr/uploads/17967023102039624_media_url_9f69f3c72e.jpeg","srcSet":{"values":[],"attribute":""},"attributes":{"width":1080,"height":1080,"loading":"lazy","decoding":"async"}}]},{"id":"17963233919120088","media":[{"rawOptions":{"src":"https://ln-admin.laurenaturo.fr/uploads/17967023102039624_media_url_e5d690a2eb.jpeg","width":1080,"height":1080,"format":"webp"},"options":{"src":"https://ln-admin.laurenaturo.fr/uploads/17967023102039624_media_url_e5d690a2eb.jpeg","width":1080,"height":1080,"format":"webp"},"src":"https://ln-admin.laurenaturo.fr/uploads/17967023102039624_media_url_e5d690a2eb.jpeg","srcSet":{"values":[],"attribute":""},"attributes":{"width":1080,"height":1080,"loading":"lazy","decoding":"async"}}]},{"id":"17931432407556808","media":[{"rawOptions":{"src":"https://ln-admin.laurenaturo.fr/uploads/17967023102039624_media_url_1690d39476.jpeg","width":1080,"height":1080,"format":"webp"},"options":{"src":"https://ln-admin.laurenaturo.fr/uploads/17967023102039624_media_url_1690d39476.jpeg","width":1080,"height":1080,"format":"webp"},"src":"https://ln-admin.laurenaturo.fr/uploads/17967023102039624_media_url_1690d39476.jpeg","srcSet":{"values":[],"attribute":""},"attributes":{"width":1080,"height":1080,"loading":"lazy","decoding":"async"}}]},{"id":"17902564865695470","media":[{"rawOptions":{"src":"https://ln-admin.laurenaturo.fr/uploads/17967023102039624_media_url_4f1112cba8.jpeg","width":1080,"height":1080,"format":"webp"},"options":{"src":"https://ln-admin.laurenaturo.fr/uploads/17967023102039624_media_url_4f1112cba8.jpeg","width":1080,"height":1080,"format":"webp"},"src":"https://ln-admin.laurenaturo.fr/uploads/17967023102039624_media_url_4f1112cba8.jpeg","srcSet":{"values":[],"attribute":""},"attributes":{"width":1080,"height":1080,"loading":"lazy","decoding":"async"}}]},{"id":"17890609913683234","media":[{"rawOptions":{"src":"https://ln-admin.laurenaturo.fr/uploads/17967023102039624_media_url_ee18f68944.jpeg","width":1080,"height":1080,"format":"webp"},"options":{"src":"https://ln-admin.laurenaturo.fr/uploads/17967023102039624_media_url_ee18f68944.jpeg","width":1080,"height":1080,"format":"webp"},"src":"https://ln-admin.laurenaturo.fr/uploads/17967023102039624_media_url_ee18f68944.jpeg","srcSet":{"values":[],"attribute":""},"attributes":{"width":1080,"height":1080,"loading":"lazy","decoding":"async"}}]},{"id":"18328297006065228","media":[{"rawOptions":{"src":"https://ln-admin.laurenaturo.fr/uploads/17967023102039624_media_url_9dfd79dd41.jpeg","width":1080,"height":1080,"format":"webp"},"options":{"src":"https://ln-admin.laurenaturo.fr/uploads/17967023102039624_media_url_9dfd79dd41.jpeg","width":1080,"height":1080,"format":"webp"},"src":"https://ln-admin.laurenaturo.fr/uploads/17967023102039624_media_url_9dfd79dd41.jpeg","srcSet":{"values":[],"attribute":""},"attributes":{"width":1080,"height":1080,"loading":"lazy","decoding":"async"}}]}]},"timestamp":"2022-12-14T16:56:01+0000","id":"17967023102039624","media":[{"rawOptions":{"src":"https://ln-admin.laurenaturo.fr/uploads/17967023102039624_media_url_118eb92cfb.jpeg","width":1080,"height":1080,"format":"webp"},"options":{"src":"https://ln-admin.laurenaturo.fr/uploads/17967023102039624_media_url_118eb92cfb.jpeg","width":1080,"height":1080,"format":"webp"},"src":"https://ln-admin.laurenaturo.fr/uploads/17967023102039624_media_url_118eb92cfb.jpeg","srcSet":{"values":[],"attribute":""},"attributes":{"width":1080,"height":1080,"loading":"lazy","decoding":"async"}}]}},{"feedJSON":{"media_type":"IMAGE","like_count":8,"comments_count":1,"caption":"Petite citation qu’il est important d’assimiler ☺️\n\nLorsque vous êtes malade, ce n’est pas pour rien.. \nCela est souvent la conséquence de votre mode de vie, de vos carences ou surcharges alimentaires, de votre état de fatigue, de votre manque de sommeil, de votre état de stress…etc… \n\nMais ce qu’il faut bien comprendre, c’est qu’il ne faut pas mal « accueillir » la maladie. Elle est là pour que votre corps retrouve son équilibre. \nAlors accompagnez-là du mieux que vous le pouvez en aidant votre corps à lutter au mieux et à retrouver une santé de fer ☺️\n\nLa naturopathie a surtout pour but de prévenir la maladie mais elle sait aussi très bien vous accompagner dans cet état de maladie pour que votre corps retrouve son équilibre et sa vitalité ☀️","shortcode":"CmJl_5rqYeW","timestamp":"2022-12-14T13:23:39+0000","id":"17954384591127676","media":[{"rawOptions":{"src":"https://ln-admin.laurenaturo.fr/uploads/17954384591127676_media_url_fc7fc34f2a.jpeg","width":1080,"height":1080,"format":"webp"},"options":{"src":"https://ln-admin.laurenaturo.fr/uploads/17954384591127676_media_url_fc7fc34f2a.jpeg","width":1080,"height":1080,"format":"webp"},"src":"https://ln-admin.laurenaturo.fr/uploads/17954384591127676_media_url_fc7fc34f2a.jpeg","srcSet":{"values":[],"attribute":""},"attributes":{"width":1080,"height":1080,"loading":"lazy","decoding":"async"}}]}},{"feedJSON":{"media_type":"CAROUSEL_ALBUM","like_count":19,"comments_count":1,"caption":"Aujourd’hui je te parle d’un célèbre édulcorant : l’aspartame. A première vue, on le pense inoffensif et intéressant car dépourvu de calories mais… je te laisse découvrir la suite !\nEt toi ? Consommes-tu des édulcorants ? \n.\n.\n.\nJe m’appelle Laure et je suis Naturopathe Iridologue.\nJe vous accompagne et vous donne les clés pour retrouver votre santé et votre bien-être au naturel 🌱.\n\nN’hésitez pas à réserver une consultation ou un appel découverte offert ici : https://laurenaturo.fr\n\n C’est avec plaisir et bienveillance que je vous accompagnerai !\n\nA bientôt, \n\nLaure","shortcode":"CmEzqgtK6Oy","children":{"data":[{"id":"18326281843044628","media":[{"rawOptions":{"src":"https://ln-admin.laurenaturo.fr/uploads/17955981662251440_media_url_be2d029b9f.jpeg","width":1080,"height":1080,"format":"webp"},"options":{"src":"https://ln-admin.laurenaturo.fr/uploads/17955981662251440_media_url_be2d029b9f.jpeg","width":1080,"height":1080,"format":"webp"},"src":"https://ln-admin.laurenaturo.fr/uploads/17955981662251440_media_url_be2d029b9f.jpeg","srcSet":{"values":[],"attribute":""},"attributes":{"width":1080,"height":1080,"loading":"lazy","decoding":"async"}}]},{"id":"17968913359996495","media":[{"rawOptions":{"src":"https://ln-admin.laurenaturo.fr/uploads/17955981662251440_media_url_602637cfcf.jpeg","width":1080,"height":1080,"format":"webp"},"options":{"src":"https://ln-admin.laurenaturo.fr/uploads/17955981662251440_media_url_602637cfcf.jpeg","width":1080,"height":1080,"format":"webp"},"src":"https://ln-admin.laurenaturo.fr/uploads/17955981662251440_media_url_602637cfcf.jpeg","srcSet":{"values":[],"attribute":""},"attributes":{"width":1080,"height":1080,"loading":"lazy","decoding":"async"}}]},{"id":"17871465983799237","media":[{"rawOptions":{"src":"https://ln-admin.laurenaturo.fr/uploads/17955981662251440_media_url_ac5ae9834f.jpeg","width":1080,"height":1080,"format":"webp"},"options":{"src":"https://ln-admin.laurenaturo.fr/uploads/17955981662251440_media_url_ac5ae9834f.jpeg","width":1080,"height":1080,"format":"webp"},"src":"https://ln-admin.laurenaturo.fr/uploads/17955981662251440_media_url_ac5ae9834f.jpeg","srcSet":{"values":[],"attribute":""},"attributes":{"width":1080,"height":1080,"loading":"lazy","decoding":"async"}}]},{"id":"17989519723712607","media":[{"rawOptions":{"src":"https://ln-admin.laurenaturo.fr/uploads/17955981662251440_media_url_66a206c6e0.jpeg","width":1080,"height":1080,"format":"webp"},"options":{"src":"https://ln-admin.laurenaturo.fr/uploads/17955981662251440_media_url_66a206c6e0.jpeg","width":1080,"height":1080,"format":"webp"},"src":"https://ln-admin.laurenaturo.fr/uploads/17955981662251440_media_url_66a206c6e0.jpeg","srcSet":{"values":[],"attribute":""},"attributes":{"width":1080,"height":1080,"loading":"lazy","decoding":"async"}}]},{"id":"17977824517877735","media":[{"rawOptions":{"src":"https://ln-admin.laurenaturo.fr/uploads/17955981662251440_media_url_d569dabd68.jpeg","width":1080,"height":1080,"format":"webp"},"options":{"src":"https://ln-admin.laurenaturo.fr/uploads/17955981662251440_media_url_d569dabd68.jpeg","width":1080,"height":1080,"format":"webp"},"src":"https://ln-admin.laurenaturo.fr/uploads/17955981662251440_media_url_d569dabd68.jpeg","srcSet":{"values":[],"attribute":""},"attributes":{"width":1080,"height":1080,"loading":"lazy","decoding":"async"}}]}]},"timestamp":"2022-12-12T16:46:51+0000","id":"17955981662251440","media":[{"rawOptions":{"src":"https://ln-admin.laurenaturo.fr/uploads/17955981662251440_media_url_17aecb4458.jpeg","width":1080,"height":1080,"format":"webp"},"options":{"src":"https://ln-admin.laurenaturo.fr/uploads/17955981662251440_media_url_17aecb4458.jpeg","width":1080,"height":1080,"format":"webp"},"src":"https://ln-admin.laurenaturo.fr/uploads/17955981662251440_media_url_17aecb4458.jpeg","srcSet":{"values":[],"attribute":""},"attributes":{"width":1080,"height":1080,"loading":"lazy","decoding":"async"}}]}}],"pageInfo":{"pageCount":21,"page":10,"total":101,"pageSize":5}}