{
  "nodes": [
    {
      "feedJSON": {
        "media_url": "https://scontent-cdg4-2.cdninstagram.com/o1/v/t16/f2/m86/AQN5kW9hLqCGGnwJnv-39Kp2lrU2d0VsTmlY584J-CpNTs8IgVdw62t6STC3k6mBl1iuaLmPIbKghp-qT_9N8FCxSEM0COHck-L8eIA.mp4?efg=eyJ2ZW5jb2RlX3RhZyI6InZ0c192b2RfdXJsZ2VuLmNsaXBzLnVua25vd24tQzMuNzIwLmRhc2hfYmFzZWxpbmVfMV92MSJ9&_nc_ht=scontent-cdg4-2.cdninstagram.com&edm=AM6HXa8EAAAA&_nc_gid=LjiY-W0TOtCnefgHl_MvlA&_nc_cat=111&_nc_oc=Adl9bFk3S-br1qxa4SyKmoyB3ZeZcdoRWeaILMMLU9I9YLlAbvHm_Lvital9IqKQmNGYvaV5cgMPb01JJb8aqk6x&vs=1340174430363189_1073917587&_nc_vs=HBksFQIYUmlnX3hwdl9yZWVsc19wZXJtYW5lbnRfc3JfcHJvZC8zQjRDNEMxQTEyQjNERTNFRTdFREVGMzk2N0JGQUQ5MF92aWRlb19kYXNoaW5pdC5tcDQVAALIARIAFQIYOnBhc3N0aHJvdWdoX2V2ZXJzdG9yZS9HT0otSHgxaWFpSzZfRG9PQUdCc0o1dGo5UWNMYnFfRUFBQUYVAgLIARIAKAAYABsBiAd1c2Vfb2lsATEVAAAmtJHOtqPB%2Bz8VAigCQzMsF0ApMzMzMzMzGBJkYXNoX2Jhc2VsaW5lXzFfdjERAHUAZeadAQA%3D&ccb=9-4&oh=00_AfMYT1IFdwyD2KDRYxIxhD5Zuhba4-2maCadEmCme-D_-w&oe=68462495&_nc_sid=1d576d",
        "media_type": "VIDEO",
        "thumbnail_url": "https://scontent-cdg4-1.cdninstagram.com/v/t51.75761-15/487456609_18499669636059471_2437933541642744319_n.jpg?stp=dst-jpg_e35_tt6&_nc_cat=108&ccb=1-7&_nc_sid=18de74&_nc_ohc=-VAenslLf7sQ7kNvwGIkOUU&_nc_oc=Adk-xLJc0ft6mUfScN9GkBJ53BhIH2sYahVvU9WkgM4mPiubf-x2jSVgtqbxp2SrrQ12fT6s7AP3BQLAJF0V6Wxz&_nc_zt=23&_nc_ht=scontent-cdg4-1.cdninstagram.com&edm=AM6HXa8EAAAA&_nc_gid=LjiY-W0TOtCnefgHl_MvlA&oh=00_AfOg2cebUUOqvod-ajGs5MfXNHeeqisAEv-BpNbhU0zCKQ&oe=684A0AB8",
        "like_count": 18,
        "comments_count": 1,
        "caption": "🌿 Ferme les yeux… Respire profondément… 🌿\n\nImagine une vague de légèreté parcourir ton corps.\nTes jambes s’allègent, ton ventre se dégonfle, ton esprit s’apaise.\n\n💦 Le drainage lymphatique, c’est bien plus qu’un soin… C’est une véritable libération pour ton corps.\nIl élimine les toxines, réduit la rétention d’eau et réactive ta circulation pour te faire sentir plus légère, plus sereine, plus alignée.\n\n✨ Résultats visibles dès les premières séances :\n✅ Sensation de légèreté immédiate\n✅ Réduction des gonflements et de la cellulite\n✅ Peau plus ferme et éclatante\n✅ Bien-être et relaxation profonde \n\nOffre-toi ce moment rien que pour toi.\nPrends soin de ton corps, il te le rendra 💖",
        "shortcode": "DH8yOHNNw6L",
        "timestamp": "2025-04-02T15:54:53+0000",
        "id": "18139113019376081"
      }
    },
    {
      "feedJSON": {
        "media_url": "https://scontent-cdg4-3.cdninstagram.com/v/t51.75761-15/486964359_18499015486059471_696003355636369137_n.jpg?stp=dst-jpg_e35_tt6&_nc_cat=110&ccb=1-7&_nc_sid=18de74&_nc_ohc=qSiaZkbqSZcQ7kNvwF9PnlM&_nc_oc=Adl8lwZhF8cj5-Xzu9aT7QQP6FWyF38blgcqLSGn9j5TOKGfuUri6nBhZt-jYvc_u45v2umpex5PVHGZa9HD9qFB&_nc_zt=23&_nc_ht=scontent-cdg4-3.cdninstagram.com&edm=AM6HXa8EAAAA&_nc_gid=LjiY-W0TOtCnefgHl_MvlA&oh=00_AfMXo7bSFbxc4OCsTpEvBjoDIhQ-iv4NYslo8HmzWMOIcA&oe=684A1870",
        "media_type": "CAROUSEL_ALBUM",
        "like_count": 18,
        "comments_count": 1,
        "caption": "Je ne dépense pas, j’investis… dans mon bien-être. ✨ \n\nParce que se sentir bien dans son corps et dans sa tête, cela n’a pas de prix ! \n\nLe stress, la fatigue, les ballonnements, la rétention d’eau… Ton corps t’envoie des signaux. Et si, au lieu de les ignorer, tu choisissais d’y répondre avec bienveillance ? \n\nGrâce à la naturopathie et au drainage lymphatique, je t’accompagne afin de retrouver légèreté, énergie et équilibre afin que tu te sentes mieux dans ton corps et dans ta tête. \n\nAccorde toi un moment rien que pour toi, pour prendre soin de toi, ton corps te le rendra ! \n\nPrêt(e) à faire de ton bien-être une priorité ?\nDis moi en commentaire la dernière chose que tu as fais pour prendre soin de toi ? 😉",
        "shortcode": "DH1DRyJCTbf",
        "children": {
          "data": [
            {
              "media_url": "https://scontent-cdg4-3.cdninstagram.com/v/t51.75761-15/486964359_18499015486059471_696003355636369137_n.jpg?stp=dst-jpg_e35_tt6&_nc_cat=110&ccb=1-7&_nc_sid=18de74&_nc_ohc=qSiaZkbqSZcQ7kNvwF9PnlM&_nc_oc=Adl8lwZhF8cj5-Xzu9aT7QQP6FWyF38blgcqLSGn9j5TOKGfuUri6nBhZt-jYvc_u45v2umpex5PVHGZa9HD9qFB&_nc_zt=23&_nc_ht=scontent-cdg4-3.cdninstagram.com&edm=AM6HXa8EAAAA&_nc_gid=LjiY-W0TOtCnefgHl_MvlA&oh=00_AfMXo7bSFbxc4OCsTpEvBjoDIhQ-iv4NYslo8HmzWMOIcA&oe=684A1870",
              "id": "17919178493965737"
            },
            {
              "media_url": "https://scontent-cdg4-1.cdninstagram.com/v/t51.75761-15/488194478_18499015501059471_3176062723454460359_n.jpg?stp=dst-jpg_e35_tt6&_nc_cat=104&ccb=1-7&_nc_sid=18de74&_nc_ohc=4ULZ9nIS0ZgQ7kNvwE83ugT&_nc_oc=AdmXa2NazRQ9jjs2-GZ53eLLfv97FrcLdVeo0YaM95aBU8k48uHNsOoQhohZ8B-CN82o5_dNciFSpu1-TgMobkdv&_nc_zt=23&_nc_ht=scontent-cdg4-1.cdninstagram.com&edm=AM6HXa8EAAAA&_nc_gid=LjiY-W0TOtCnefgHl_MvlA&oh=00_AfOoLCOoHlNlUkOMaDkStwgU9KO-7rMJLOsAMRuub5kX9g&oe=684A0B6B",
              "id": "18040068299440304"
            },
            {
              "media_url": "https://scontent-cdg4-2.cdninstagram.com/v/t51.75761-15/487799874_18499015504059471_9128852187786240427_n.jpg?stp=dst-jpg_e35_tt6&_nc_cat=100&ccb=1-7&_nc_sid=18de74&_nc_ohc=5NMxK3VQaj0Q7kNvwEYSaMZ&_nc_oc=AdmTDcNPqLELKe5sBFPPfnlK25eBdtff77gwiYyedb3cq0nX4kSPTOyfGtXY9gy_SaTaS2Ae9EJ5729sOAyNj-95&_nc_zt=23&_nc_ht=scontent-cdg4-2.cdninstagram.com&edm=AM6HXa8EAAAA&_nc_gid=LjiY-W0TOtCnefgHl_MvlA&oh=00_AfO7GIqmRkq6AJcHNWZvSlHYyiUXqaMuHAFD6ZQbrEYhpw&oe=684A0B80",
              "id": "18060839906085673"
            },
            {
              "media_url": "https://scontent-cdg4-1.cdninstagram.com/v/t51.75761-15/486729277_18499015522059471_1713517287699894954_n.jpg?stp=dst-jpg_e35_tt6&_nc_cat=105&ccb=1-7&_nc_sid=18de74&_nc_ohc=xDbI_e0bi9oQ7kNvwGRF-4s&_nc_oc=AdkmuyV8_dxwljMQdzMjT0if-kYjQEyTCq6HFjcJst78JAlp4BVGOaA7itTN36AxFvdk8jnaI4EZJPx60clMrIpd&_nc_zt=23&_nc_ht=scontent-cdg4-1.cdninstagram.com&edm=AM6HXa8EAAAA&_nc_gid=LjiY-W0TOtCnefgHl_MvlA&oh=00_AfPwLnR-s0tIzwTepb8z5t7NjSE3KCyF6J950UMrlhYWxg&oe=684A279A",
              "id": "18495201934004020"
            },
            {
              "media_url": "https://scontent-cdg4-1.cdninstagram.com/v/t51.75761-15/487884064_18499015519059471_7400973096093058866_n.jpg?stp=dst-jpg_e35_tt6&_nc_cat=105&ccb=1-7&_nc_sid=18de74&_nc_ohc=MxAYWZ3pCfsQ7kNvwEngy2A&_nc_oc=AdnIpMZUyuJRzIiMN5HVRqhBSuzjgo2Sn_g0i-42URz8V1dhaWVYKA0sNUZBhNPP3tVe43v7tOjT8wBm9qIl5WHi&_nc_zt=23&_nc_ht=scontent-cdg4-1.cdninstagram.com&edm=AM6HXa8EAAAA&_nc_gid=LjiY-W0TOtCnefgHl_MvlA&oh=00_AfOcbrZucffU3QE8oWuWVC0ahcuy5DNvZXRNfh6w1XKrbA&oe=684A1125",
              "id": "18049947662350859"
            }
          ]
        },
        "timestamp": "2025-03-30T15:42:51+0000",
        "id": "18077276872689151"
      }
    },
    {
      "feedJSON": {
        "media_url": "https://scontent-cdg4-2.cdninstagram.com/o1/v/t16/f2/m86/AQPgGQ4i1JlJFZE5t-VzP2iBUVi139EaW4yZyF85Jn39V16CNBzXNcOx5-1-ltdQDEtKCcgMBlHUpgBSQq3DWpN5loPsKhAn7Z0pQmk.mp4?efg=eyJ2ZW5jb2RlX3RhZyI6InZ0c192b2RfdXJsZ2VuLmNsaXBzLnVua25vd24tQzMuNzIwLmRhc2hfYmFzZWxpbmVfMV92MSJ9&_nc_ht=scontent-cdg4-2.cdninstagram.com&edm=AM6HXa8EAAAA&_nc_gid=LjiY-W0TOtCnefgHl_MvlA&_nc_cat=111&_nc_oc=Adm2QqsFdygCKoHr873Hy0d0vSCj5Z0ZlqKBcXTwRY4bnwXHQeNZxd3dbpLxhX5v34FfEPr96PCfbhQm_ZwVNtNz&vs=650300957635505_46546344&_nc_vs=HBksFQIYUmlnX3hwdl9yZWVsc19wZXJtYW5lbnRfc3JfcHJvZC82ODQxRTAwNDBERUE4Qjc3MUJBNDcxMjI4OEEzMzZCM192aWRlb19kYXNoaW5pdC5tcDQVAALIARIAFQIYOnBhc3N0aHJvdWdoX2V2ZXJzdG9yZS9HTmVOLUJ6MWpaR0JwbE1DQU1YWnZIV1dZdHRHYnFfRUFBQUYVAgLIARIAKAAYABsBiAd1c2Vfb2lsATEVAAAmlpucx8m%2Bxj8VAigCQzMsF0AoD1wo9cKPGBJkYXNoX2Jhc2VsaW5lXzFfdjERAHUAZeadAQA%3D&ccb=9-4&oh=00_AfMH0adTlaxJYdekv7PB2nNvboxmAnKwx1sNEX7XuDM_kA&oe=68462EA9&_nc_sid=1d576d",
        "media_type": "VIDEO",
        "thumbnail_url": "https://scontent-cdg4-1.cdninstagram.com/v/t51.75761-15/485352894_18497341588059471_4077628413492754944_n.jpg?stp=dst-jpg_e35_tt6&_nc_cat=102&ccb=1-7&_nc_sid=18de74&_nc_ohc=UIqHWUqnHgQQ7kNvwGcD7xO&_nc_oc=AdmTfIlIujDcJzY3FOA0PgAtr8a45Vp_Gra_pOUAwQdiPY_u27kkzuhuGP26tcCeI7CoWuMQevIc3MNJW-FaIiK5&_nc_zt=23&_nc_ht=scontent-cdg4-1.cdninstagram.com&edm=AM6HXa8EAAAA&_nc_gid=LjiY-W0TOtCnefgHl_MvlA&oh=00_AfPXXrGZBqeE7QDACUHFS8JowX8QdmTCR3ZSGOQh3CTE1g&oe=684A0CC5",
        "like_count": 17,
        "comments_count": 1,
        "caption": "🌿 « Le plus beau cadeau que vous puissiez offrir à votre corps, c’est du temps pour l’écouter. » 🌿\n\nVotre corps est une incroyable machine de régénération et d’équilibre. Mais pour qu’il fonctionne à son plein potentiel, il a besoin que vous lui prêtiez attention. ✨\n\n💧 Hydratez-vous suffisamment. \n🌬️ Respirez profondément pour apaiser votre esprit.\n🤲 Offrez-lui des soins doux comme le drainage lymphatique pour libérer les tensions et activer votre circulation.\n\nPrenez le temps aujourd’hui de ralentir et de vous reconnecter à vos sensations. Votre bien-être commence ici et maintenant. 🌸",
        "shortcode": "DHjPF7_iFTu",
        "timestamp": "2025-03-23T17:43:21+0000",
        "id": "18104967895497075"
      }
    },
    {
      "feedJSON": {
        "media_url": "https://scontent-cdg4-2.cdninstagram.com/v/t51.75761-15/484099399_18494827150059471_3876929573239680135_n.jpg?stp=dst-jpg_e35_tt6&_nc_cat=107&ccb=1-7&_nc_sid=18de74&_nc_ohc=tVIHPLWc-sYQ7kNvwHUbZA4&_nc_oc=Admy71u-7z9QeRKOhDlDD1GCV4gJ3dRKsmnjHCyMrQ8NoHZCrVjXu7SGw8lyt4eOUThI3L-zvJWQm7Eqs2u7Y9jI&_nc_zt=23&_nc_ht=scontent-cdg4-2.cdninstagram.com&edm=AM6HXa8EAAAA&_nc_gid=LjiY-W0TOtCnefgHl_MvlA&oh=00_AfN7WYGgpuicbdOSUvUzxki6p43j-bnBIRvlD2_S87eHcg&oe=684A21FB",
        "media_type": "IMAGE",
        "like_count": 13,
        "comments_count": 2,
        "caption": "Je m’appelle Laure, et je suis aujourd’hui naturopathe, praticienne en drainage lymphatique. \n\nSi un jour on m’avait dit que ce métier allait devenir le mien, je n’y aurais jamais cru. \n\nParce que ce n’était pas du tout mon plan !\nParce que j’avais coché toutes les cases de ce que l’on pouvait me souhaiter. Des études scientifiques, 10 années dans le webmarketing... Un domaine stimulant, dynamique, où tout allait vite. Peut-être même trop vite. Trop vite pour moi. \n\nÀ force de courir après des objectifs et des résultats, je me suis éloignée de ce qui comptait vraiment pour moi, de ce pour quoi j’étais vraiment faite. \n\nJe sentais au fond de moi une petite voix, très lointaine, que je faisais sûrement taire et qui me disait : est-ce que c’est vraiment ça, ma place ?\n\nEt puis, la vie s’est chargée de me répondre. \nUn licenciement économique, une rencontre inattendue avec une naturopathe et tout a basculé.  La révélation totale… : « C’est ça que je veux faire ! C’est ce métier là ! ». Et c’est alors que je repars pour presque 3 ans d’études afin de décrocher mon diplôme de naturopathe. \n\nCe que j’ai toujours aimé, au fond, ce qui me fait vibrer, c’est le lien humain, l’échange, la sensation d’être utile. C’est voir quelqu’un arriver fatigué, stressé, épuisé… et repartir ou revenir plus léger, soulagé, avec un sourire qui en dit long.\n\nAlors le jour où j’ai osé, oui j’ai pris ce virage à 180 degrés. J’ai tout remis en question pour revenir à l’essentiel : le bien-être, la santé, l’accompagnement.\n\nAujourd’hui, je suis naturopathe et praticienne en drainage lymphatique. Et jamais je n’ai été aussi alignée avec qui je suis ☺️\n\nSi on m’avait dit un jour que je changerais de vie pour exercer un métier qui me passionne autant, je n’y aurais jamais cru. Aujourd’hui, je ne peux plus imaginer ma vie autrement…!\n\n Alors merci à toutes les personnes qui font en sorte que je puisse vivre de ma passion et qui m’ont encouragée vers ce chemin, je vous suis infiniment reconnaissante 🙏 \n\nLaure",
        "shortcode": "DHG_ycfChcP",
        "timestamp": "2025-03-12T18:27:17+0000",
        "id": "18170428300323146"
      }
    },
    {
      "feedJSON": {
        "media_url": "https://scontent-cdg4-1.cdninstagram.com/v/t51.75761-15/472644980_18494206618059471_6784321210213813772_n.jpg?stp=dst-jpg_e35_tt6&_nc_cat=102&ccb=1-7&_nc_sid=18de74&_nc_ohc=TruOZ6T25z0Q7kNvwHn78rH&_nc_oc=Admi9t1VgD2PQuBkVaj7RsIXKwljJwTDUEWhGwqPcH0EK_pF_fTrgvXgO8SOT0tHX8rLKA2uAndZaZbDOwmrqSDl&_nc_zt=23&_nc_ht=scontent-cdg4-1.cdninstagram.com&edm=AM6HXa8EAAAA&_nc_gid=LjiY-W0TOtCnefgHl_MvlA&oh=00_AfOtOyPTMwLjtEsUVtxkOKwwmu0fU9QDUdtpa30aDs0l7A&oe=684A1563",
        "media_type": "CAROUSEL_ALBUM",
        "like_count": 14,
        "comments_count": 1,
        "caption": "🌿 Ton corps te parle… L’écoutes-tu vraiment ? 🌿\n\nFatigue inexpliquée, rétention d’eau, digestion compliquée, peau terne… Et si c’était le signe que ton organisme était surchargé ? 🤯\n\n✨ Fais le test dans le carrousel 👉 et découvre où tu en es !\n\n💡 Pourquoi c’est important ?\nChaque jour, ton corps est exposé à des toxines : alimentation, stress, pollution… Si ton système lymphatique et tes organes d’élimination (foie, reins, intestins) sont saturés, les déchets s’accumulent et ralentissent ton bien-être !\n\n👉 Bonne nouvelle : il existe des solutions naturelles !\n✅ Le drainage lymphatique, pour relancer ton système d’élimination et alléger ton corps.\n✅ La naturopathie, pour t’aider à adopter les bons réflexes et rééquilibrer ton organisme durablement.\n\n🔥 Tu veux retrouver de l’énergie et te sentir plus légère ? Prends soin de ton corps dès aujourd’hui !\n\n💬 Alors, dis-moi en commentaire : quels résultats as-tu eu au test ? ⬇️\n\n📩 Besoin d’un accompagnement personnalisé ? Réserve ta séance en DM ou via le lien en bio !",
        "shortcode": "DG_pzaKCNOC",
        "children": {
          "data": [
            {
              "media_url": "https://scontent-cdg4-1.cdninstagram.com/v/t51.75761-15/472644980_18494206618059471_6784321210213813772_n.jpg?stp=dst-jpg_e35_tt6&_nc_cat=102&ccb=1-7&_nc_sid=18de74&_nc_ohc=TruOZ6T25z0Q7kNvwHn78rH&_nc_oc=Admi9t1VgD2PQuBkVaj7RsIXKwljJwTDUEWhGwqPcH0EK_pF_fTrgvXgO8SOT0tHX8rLKA2uAndZaZbDOwmrqSDl&_nc_zt=23&_nc_ht=scontent-cdg4-1.cdninstagram.com&edm=AM6HXa8EAAAA&_nc_gid=LjiY-W0TOtCnefgHl_MvlA&oh=00_AfOtOyPTMwLjtEsUVtxkOKwwmu0fU9QDUdtpa30aDs0l7A&oe=684A1563",
              "id": "18263845894282126"
            },
            {
              "media_url": "https://scontent-cdg4-3.cdninstagram.com/v/t51.75761-15/472600081_18494206621059471_1807186535045297760_n.jpg?stp=dst-jpg_e35_tt6&_nc_cat=110&ccb=1-7&_nc_sid=18de74&_nc_ohc=aUY2Bc8FoYoQ7kNvwEtfBe-&_nc_oc=AdkvnKRqv1UOLortRGmr4Dizdo-2s8jOlYpw1JGbNM6qNZssPtoBRmo3dMdUESljeNV-syAmty-8yaCkcqyCE8W2&_nc_zt=23&_nc_ht=scontent-cdg4-3.cdninstagram.com&edm=AM6HXa8EAAAA&_nc_gid=LjiY-W0TOtCnefgHl_MvlA&oh=00_AfOox1tYqDJjau7S7lSAjBY9rSg9fDNRMK93oxiOJ8aibA&oe=684A08DD",
              "id": "17930965010901210"
            },
            {
              "media_url": "https://scontent-cdg4-2.cdninstagram.com/v/t51.75761-15/482849352_18494206663059471_2206458985778920891_n.jpg?stp=dst-jpg_e35_tt6&_nc_cat=107&ccb=1-7&_nc_sid=18de74&_nc_ohc=NjHm7zRQZ8wQ7kNvwHlbA9O&_nc_oc=AdniIy9qeaAcmcYxZrxx968ejpmgBE-PwEifzcGB9KgqdFQOoMWUtDNDHdxmyiJplHdgOW7YffupH7QGolJRyIZc&_nc_zt=23&_nc_ht=scontent-cdg4-2.cdninstagram.com&edm=AM6HXa8EAAAA&_nc_gid=LjiY-W0TOtCnefgHl_MvlA&oh=00_AfOAEz64MymJhRGch-i_zf5Jtew5IdsSjarzQ8fYDuYpJA&oe=6849FE26",
              "id": "18050349983244173"
            },
            {
              "media_url": "https://scontent-cdg4-3.cdninstagram.com/v/t51.75761-15/483079272_18494206636059471_1983352174133282540_n.jpg?stp=dst-jpg_e35_tt6&_nc_cat=111&ccb=1-7&_nc_sid=18de74&_nc_ohc=lmu5L94NZN4Q7kNvwFqTYi2&_nc_oc=Adl9iGmrduuGL3NEiScX09mO2eYt4oNfkQboV53RHoIUz0_0W_UXO7HGS88vVpg6aVKTa5F-KBMMw9oWhyJvwSuF&_nc_zt=23&_nc_ht=scontent-cdg4-3.cdninstagram.com&edm=AM6HXa8EAAAA&_nc_gid=LjiY-W0TOtCnefgHl_MvlA&oh=00_AfMQjxNJ0f0gupAcdovXHwilNoZwh7be5syVu95XvgnWNg&oe=684A1F97",
              "id": "18028078835640371"
            },
            {
              "media_url": "https://scontent-cdg4-2.cdninstagram.com/v/t51.75761-15/482863505_18494206645059471_3390598904163737796_n.jpg?stp=dst-jpg_e35_tt6&_nc_cat=107&ccb=1-7&_nc_sid=18de74&_nc_ohc=040gRhcHAXAQ7kNvwGk_oik&_nc_oc=AdmKOSVOKavsk7R_su-Yf86z9jy5WrbWtYz6TLy22BsCYbWMsX6_SyJyOTGM07odq4WR4YTbUrruPOrvVp2IAcVB&_nc_zt=23&_nc_ht=scontent-cdg4-2.cdninstagram.com&edm=AM6HXa8EAAAA&_nc_gid=LjiY-W0TOtCnefgHl_MvlA&oh=00_AfMIs_t_q0ulPzqUwpksHQRiYJSSFCLlRAq86rCpVcMRyg&oe=684A1A45",
              "id": "17958799475906186"
            },
            {
              "media_url": "https://scontent-cdg4-2.cdninstagram.com/v/t51.75761-15/483389718_18494206654059471_7364856739429808395_n.jpg?stp=dst-jpg_e35_tt6&_nc_cat=100&ccb=1-7&_nc_sid=18de74&_nc_ohc=e_yQx2w6Y0MQ7kNvwE1Arjl&_nc_oc=AdnSO46La7E-uTJose22OCHvtY97k2ieq_LW_cDFF92mKjAwbHnVjbyj2SvLtI0oOldcUwyMtRu-hEjQptgRchxH&_nc_zt=23&_nc_ht=scontent-cdg4-2.cdninstagram.com&edm=AM6HXa8EAAAA&_nc_gid=LjiY-W0TOtCnefgHl_MvlA&oh=00_AfMIOIcttQfXKPHY8nBLjDioQuZHCQ_LbG3FcEeS-5wg3A&oe=684A22F4",
              "id": "17870397663320625"
            },
            {
              "media_url": "https://scontent-cdg4-1.cdninstagram.com/v/t51.75761-15/482946539_18494206672059471_596483928259687439_n.jpg?stp=dst-jpg_e35_tt6&_nc_cat=104&ccb=1-7&_nc_sid=18de74&_nc_ohc=YAy25QXSjMwQ7kNvwEZDQey&_nc_oc=AdnoFlX7bgH5WADYtSyEIJG9Vv4EHw04_pYK3Z5LT5XfG47QQEW4iHe1g4v8OM_1podnMQ7MPYVculMZzTSI2_Ob&_nc_zt=23&_nc_ht=scontent-cdg4-1.cdninstagram.com&edm=AM6HXa8EAAAA&_nc_gid=LjiY-W0TOtCnefgHl_MvlA&oh=00_AfPie0X1cUGFlcw80dVp94epyfcBR1sCpRWUNTjH7Vff1Q&oe=684A2AFB",
              "id": "18100493473503065"
            },
            {
              "media_url": "https://scontent-cdg4-2.cdninstagram.com/v/t51.75761-15/472631740_18494206681059471_1496899846431738923_n.jpg?stp=dst-jpg_e35_tt6&_nc_cat=107&ccb=1-7&_nc_sid=18de74&_nc_ohc=hIVEg_INbhQQ7kNvwHG4tCK&_nc_oc=AdlMDgeXXPCQ0O_zn3qQJAF4LLtks_Cduxw5wDJ_OswKann-7403IQ4I43pZkziSeFtfQJNPKEjzyKQcfrdhqQ9h&_nc_zt=23&_nc_ht=scontent-cdg4-2.cdninstagram.com&edm=AM6HXa8EAAAA&_nc_gid=LjiY-W0TOtCnefgHl_MvlA&oh=00_AfMFzONR39o-DE1syhnroMUM337VqKvEdxkD4PprNkFksw&oe=684A1331",
              "id": "17903044179136405"
            },
            {
              "media_url": "https://scontent-cdg4-2.cdninstagram.com/v/t51.75761-15/472697021_18494206690059471_713158605084833318_n.jpg?stp=dst-jpg_e35_tt6&_nc_cat=100&ccb=1-7&_nc_sid=18de74&_nc_ohc=NEDI_kHqCNsQ7kNvwEMtlE5&_nc_oc=AdneTC5xjX7FyJWzTxbhd540F2bjGmWkpDn-wHHAcX7LPoc1RjC9-euAY7gMp7-VROHVJjFIl_X2unuVeSNMJxOp&_nc_zt=23&_nc_ht=scontent-cdg4-2.cdninstagram.com&edm=AM6HXa8EAAAA&_nc_gid=LjiY-W0TOtCnefgHl_MvlA&oh=00_AfNKHcjPE-T_qLxEtDa5iYQRs5e9pMO0PhDd5xpUSk74DA&oe=684A289B",
              "id": "17851072521411136"
            },
            {
              "media_url": "https://scontent-cdg4-2.cdninstagram.com/v/t51.75761-15/472620135_18494206693059471_6184459859780775051_n.jpg?stp=dst-jpg_e35_tt6&_nc_cat=100&ccb=1-7&_nc_sid=18de74&_nc_ohc=QuE1lXeJfYMQ7kNvwGYrDmb&_nc_oc=AdnmRF_fMVZ4C5xm6pZfXn_5zrwOS_AfM5LzE9SvQiBMs6deD0vvyDc-dxQTLGawIJg8CztbZlzSGs56ZeQeLNgg&_nc_zt=23&_nc_ht=scontent-cdg4-2.cdninstagram.com&edm=AM6HXa8EAAAA&_nc_gid=LjiY-W0TOtCnefgHl_MvlA&oh=00_AfPxosxoOC3QtIixTUZ46WcCNBZAxTDU6kmBRrwtRon7pA&oe=684A14A5",
              "id": "18084539047610168"
            }
          ]
        },
        "timestamp": "2025-03-09T22:00:30+0000",
        "id": "17916007686073620"
      }
    }
  ],
  "pageInfo": {
    "pageCount": 20,
    "page": 2,
    "total": 99,
    "pageSize": 5
  }
}