{
  "nodes": [
    {
      "feedJSON": {
        "media_url": "https://scontent-cdg4-3.cdninstagram.com/v/t51.29350-15/323153997_2462351880582509_1067934058389278165_n.jpg?stp=dst-jpg_e35_tt6&_nc_cat=111&ccb=1-7&_nc_sid=18de74&_nc_ohc=erklz04c8CcQ7kNvwG9PT5k&_nc_oc=AdmNT2Bi-zKahkSMkA_TVwqboHMbecBjIrqsf0h_mVKHSPr3cA4tEZ_L0kLQd5QpABmw_kzM-EknEqkM3QO4b3wR&_nc_zt=23&_nc_ht=scontent-cdg4-3.cdninstagram.com&edm=AM6HXa8EAAAA&_nc_gid=8kgyB1Pk2a030Lir7Nuc9Q&oh=00_AfMcDjhMj_WWvv09yGbXA214VyyiWSPvuE_y1k9F8tkeRg&oe=684A0561",
        "media_type": "IMAGE",
        "like_count": 10,
        "comments_count": 2,
        "caption": "Je vous souhaite une très belle année, remplie de bonheur, de jolies surprises et de santé bien sûr ! \n\n🎉🍀🍀🎉",
        "shortcode": "Cm4pzMCqaWj",
        "timestamp": "2023-01-01T20:01:10+0000",
        "id": "17972413063960581"
      }
    },
    {
      "feedJSON": {
        "media_url": "https://scontent-cdg4-3.cdninstagram.com/v/t51.29350-15/321421663_455008650174980_7036122249689997062_n.jpg?stp=dst-jpg_e35_tt6&_nc_cat=111&ccb=1-7&_nc_sid=18de74&_nc_ohc=jU2mCbRCmtUQ7kNvwGH6-lr&_nc_oc=AdmRnRMY6ETuDGiefbsNZNPLwj0Jjxta3lxzd1YZC_z0wU_VFQcFDwQchX-yqs4uz_6eGOEuEo0rWU8cuuHj6i-T&_nc_zt=23&_nc_ht=scontent-cdg4-3.cdninstagram.com&edm=AM6HXa8EAAAA&_nc_gid=8kgyB1Pk2a030Lir7Nuc9Q&oh=00_AfNukZcEaDf66G8J_47OCRy9BE0mHkAc_Kn2F-MJmGqnDA&oe=684A1E91",
        "media_type": "IMAGE",
        "like_count": 18,
        "comments_count": 1,
        "caption": "Petite citation du jour! \n\nCe n’est pas toujours facile de changer ses habitudes mais c’est parfois nécessaire pour une vie meilleure!\n\nCela est vrai dans tout plein de domaines et bien sûr concernant votre santé ! \n\nLa Naturopathie peut vous aider à apporter des changements progressifs dans votre vie pour une vie meilleure et vous en ressentirez les nombreux bienfaits !\n\nEs-tu plutôt du style à rester accroché à tes habitudes ou à te motiver pour les bousculer ? 😉\n.\n.\n.\nJe m’appelle Laure et je suis Naturopathe Iridologue.\nJe vous accompagne et vous donne les clés pour retrouver votre santé et votre bien-être au naturel 🌱.\n\nN’hésitez pas à réserver une consultation ou un appel découverte offert ici : https://laurenaturo.fr\n\n C’est avec plaisir et bienveillance que je vous accompagnerai !\n\nA bientôt, \n\nLaure",
        "shortcode": "CmhIBkKq2QG",
        "timestamp": "2022-12-23T16:43:30+0000",
        "id": "18033829126421014"
      }
    },
    {
      "feedJSON": {
        "media_url": "https://scontent-cdg4-1.cdninstagram.com/v/t51.29350-15/321076330_538733781502949_3224525312439404854_n.jpg?stp=dst-jpg_e35_tt6&_nc_cat=102&ccb=1-7&_nc_sid=18de74&_nc_ohc=aoytbx9LdS0Q7kNvwFTn5mv&_nc_oc=AdnuZz1isYscZd9JWSOk1o2rO8kSBMHR01I3wR1I0fyXSkrfZgY0rhTyy2mKU8cr15kpH-e0SQZJqCNAEvIY-Hnj&_nc_zt=23&_nc_ht=scontent-cdg4-1.cdninstagram.com&edm=AM6HXa8EAAAA&_nc_gid=8kgyB1Pk2a030Lir7Nuc9Q&oh=00_AfOnW0yFB_J7K9HG0_UooSTBw2npfUZkMxKYau2G-AyQUQ&oe=684A02D2",
        "media_type": "IMAGE",
        "like_count": 35,
        "comments_count": 1,
        "caption": "Bonsoir tout le monde ! \nLes jours commencent à rallonger mais je sais que vous êtes nombreux(ses) par ici à souffrir de dépression saisonnière ou même juste un petit coup de mou.. \n\nLe temps maussade et le manque de luminosité joue grandement sur notre moral et donc notre santé !\n\nJe vous donne quelques pistes ici mais n’hésitez pas à vous faire accompagner pour aller plus loin ☺️\n.\n.\n.\nJe m’appelle Laure et je suis Naturopathe Iridologue.\nJe vous accompagne et vous donne les clés pour retrouver votre santé et votre bien-être au naturel 🌱.\n\nN’hésitez pas à réserver une consultation ou un appel découverte offert ici : https://laurenaturo.fr\n\n C’est avec plaisir et bienveillance que je vous accompagnerai !\n\nA bientôt, \n\nLaure",
        "shortcode": "CmekpyTK6SP",
        "timestamp": "2022-12-22T16:55:56+0000",
        "id": "18196220029224397"
      }
    },
    {
      "feedJSON": {
        "media_url": "https://scontent-cdg4-2.cdninstagram.com/v/t51.29350-15/321105583_1166720100643051_5553317340776931265_n.jpg?stp=dst-jpg_e35_tt6&_nc_cat=109&ccb=1-7&_nc_sid=18de74&_nc_ohc=HSXN9_5RhUYQ7kNvwGBS66M&_nc_oc=Adk8A4Y81masYNLmesR_fbyjD9HqxqEirqSNQ0RbsbEEvBudHH9OzB_CbcV_sLsV8tLQ3E8UttjD3DYtsBEaxw20&_nc_zt=23&_nc_ht=scontent-cdg4-2.cdninstagram.com&edm=AM6HXa8EAAAA&_nc_gid=8kgyB1Pk2a030Lir7Nuc9Q&oh=00_AfNMjvJV0yv4H3sNPKKhPcHFnB0XYVUpMIqMK8DM3vmyfg&oe=684A07E0",
        "media_type": "IMAGE",
        "like_count": 28,
        "comments_count": 1,
        "caption": "Aujourd’hui je te donne 6 conseils pour bien attaquer ta journée ! 😊 \n\nEt toi? Quel est ton astuce pour bien commencer ta journée ? \n.\n.\n.\nJe m’appelle Laure et je suis Naturopathe Iridologue.\nJe vous accompagne et vous donne les clés pour retrouver votre santé et votre bien-être au naturel 🌱.\n\nN’hésitez pas à réserver une consultation ou un appel découverte offert ici : https://laurenaturo.fr\n\n C’est avec plaisir et bienveillance que je vous accompagnerai !\n\nA bientôt, \n\nLaure",
        "shortcode": "CmcASiIKtf-",
        "timestamp": "2022-12-21T16:59:43+0000",
        "id": "17994869287619369"
      }
    },
    {
      "feedJSON": {
        "media_url": "https://scontent-cdg4-1.cdninstagram.com/v/t51.29350-15/320717477_1314204506043998_7429182434173238358_n.jpg?stp=dst-jpg_e35_tt6&_nc_cat=102&ccb=1-7&_nc_sid=18de74&_nc_ohc=N4WPjA2r0WYQ7kNvwGcvGJp&_nc_oc=Adk6N5n81qBzz-QFAy8RnVSRVHda4jZXcIs1W9sIjazptQlmFrz6xYmnhlPpGkorbzsqsEaSXLDT9ogUR4MYreA4&_nc_zt=23&_nc_ht=scontent-cdg4-1.cdninstagram.com&edm=AM6HXa8EAAAA&_nc_gid=8kgyB1Pk2a030Lir7Nuc9Q&oh=00_AfMTWBJqdWBGPljkCR-t7EJtuLPRYu-Z2yC-BAEdxbEyJA&oe=684A01E2",
        "media_type": "IMAGE",
        "like_count": 14,
        "comments_count": 2,
        "caption": "Petite citation du jour ! À méditer ☺️",
        "shortcode": "CmZYtyiqkOO",
        "timestamp": "2022-12-20T16:35:26+0000",
        "id": "17912494559597614"
      }
    }
  ],
  "pageInfo": {
    "pageCount": 20,
    "page": 8,
    "total": 99,
    "pageSize": 5
  }
}