{
  "nodes": [
    {
      "feedJSON": {
        "media_url": "https://scontent-cdg4-2.cdninstagram.com/v/t51.29350-15/318593443_485185706938876_4162519749970658396_n.jpg?stp=dst-jpg_e35_tt6&_nc_cat=107&ccb=1-7&_nc_sid=18de74&_nc_ohc=B3RSbrTxN0UQ7kNvwFE3e_X&_nc_oc=Adl-nMnV5YzeAS5obR8EB61NqHtYX70Cbp3o82UdR4rVLZw4tcwx31kXAZPX3h_2nF28yMcZ99KidpFcihE0HAVj&_nc_zt=23&_nc_ht=scontent-cdg4-2.cdninstagram.com&edm=AM6HXa8EAAAA&_nc_gid=Jxyk8iLhjOsd921zom1IKA&oh=00_AfN3MYEDNG8R76rjxruV07-inpbF_kI-iBI_LHoWk742yw&oe=684A0A15",
        "media_type": "CAROUSEL_ALBUM",
        "like_count": 16,
        "comments_count": 1,
        "caption": "Aujourd’hui je te présente l’iceberg en Naturopathie 🌱 \n\nCet iceberg sert à illustrer beaucoup de choses, mais il est toujours constitué d’une face visible et d’une face cachée !\n\nJe te laisse regarder tout ça et me dire ce que tu en penses 😉\nAvais-tu conscience de tout ça..?\n\nBonne lecture 📖 \n.\n.\n.\nJe m’appelle Laure et je suis Naturopathe Iridologue.\nJe vous accompagne et vous donne les clés pour retrouver votre santé et votre bien-être au naturel 🌱.\n\nN’hésitez pas à réserver une consultation ou un appel découverte offert ici : https://laurenaturo.fr\n\n C’est avec plaisir et bienveillance que je vous accompagnerai !\n\nA bientôt, \n\nLaure",
        "shortcode": "Cl8yInyK4S9",
        "children": {
          "data": [
            {
              "media_url": "https://scontent-cdg4-2.cdninstagram.com/v/t51.29350-15/318593443_485185706938876_4162519749970658396_n.jpg?stp=dst-jpg_e35_tt6&_nc_cat=107&ccb=1-7&_nc_sid=18de74&_nc_ohc=B3RSbrTxN0UQ7kNvwFE3e_X&_nc_oc=Adl-nMnV5YzeAS5obR8EB61NqHtYX70Cbp3o82UdR4rVLZw4tcwx31kXAZPX3h_2nF28yMcZ99KidpFcihE0HAVj&_nc_zt=23&_nc_ht=scontent-cdg4-2.cdninstagram.com&edm=AM6HXa8EAAAA&_nc_gid=Jxyk8iLhjOsd921zom1IKA&oh=00_AfN3MYEDNG8R76rjxruV07-inpbF_kI-iBI_LHoWk742yw&oe=684A0A15",
              "id": "17996148616597511"
            },
            {
              "media_url": "https://scontent-cdg4-1.cdninstagram.com/v/t51.29350-15/318540671_1446947969165863_1485980204109568613_n.jpg?stp=dst-jpg_e35_tt6&_nc_cat=104&ccb=1-7&_nc_sid=18de74&_nc_ohc=SANS-ANqwcYQ7kNvwEPkO7n&_nc_oc=AdkTwJaB5izygCCj_7NcCti8dIWx2rTCcjIz-mdkQVzv9AWueMM-BHlMiewVh2GTbZJyETR2r9GpFeXfksjwnMm6&_nc_zt=23&_nc_ht=scontent-cdg4-1.cdninstagram.com&edm=AM6HXa8EAAAA&_nc_gid=Jxyk8iLhjOsd921zom1IKA&oh=00_AfP5U43yzop0tzpZJHVyLoHj3d0inadk3dd6m1GEeivkpg&oe=684A15A9",
              "id": "17956265288245238"
            },
            {
              "media_url": "https://scontent-cdg4-1.cdninstagram.com/v/t51.29350-15/318581849_484764723523610_1025499587002174514_n.jpg?stp=dst-jpg_e35_tt6&_nc_cat=104&ccb=1-7&_nc_sid=18de74&_nc_ohc=vF2ZxbKHeAIQ7kNvwEDkKQQ&_nc_oc=AdnAMt5RfX4dKBFXhNnS6q4r3WPbsIlruJwPOrG_-TS0rDQIww5P13QqCMK3S9nFVYbDkn5pKefNuSmkCxNzeUT8&_nc_zt=23&_nc_ht=scontent-cdg4-1.cdninstagram.com&edm=AM6HXa8EAAAA&_nc_gid=Jxyk8iLhjOsd921zom1IKA&oh=00_AfMt544QyYxTIaG4m302gaTKlVjLU2t9gENE7BbFENQrYQ&oe=684A0A14",
              "id": "17895802790654465"
            },
            {
              "media_url": "https://scontent-cdg4-2.cdninstagram.com/v/t51.29350-15/318592779_168472509206933_5570585020618388733_n.jpg?stp=dst-jpg_e35_tt6&_nc_cat=109&ccb=1-7&_nc_sid=18de74&_nc_ohc=gOKOVwX1ARAQ7kNvwEVmPGz&_nc_oc=AdmAfWIDgdWwQg7boJMSLiPKPRaV-FP3JeLcqf9lUz8RhTawM3AMqam7OujfTJTIMWoRixHdWhqCSSrCyUA-Ywzx&_nc_zt=23&_nc_ht=scontent-cdg4-2.cdninstagram.com&edm=AM6HXa8EAAAA&_nc_gid=Jxyk8iLhjOsd921zom1IKA&oh=00_AfNjclP9i4PZJTe6W-5kJajAFzOAuFh6D2cM7JIlCsF2IQ&oe=684A040E",
              "id": "17961993061998029"
            }
          ]
        },
        "timestamp": "2022-12-09T13:59:34+0000",
        "id": "17977800739856681"
      }
    },
    {
      "feedJSON": {
        "media_url": "https://scontent-cdg4-2.cdninstagram.com/v/t51.29350-15/318433205_826889571702223_7554179012422135632_n.jpg?stp=dst-jpg_e35_tt6&_nc_cat=109&ccb=1-7&_nc_sid=18de74&_nc_ohc=GPDnLh_wazQQ7kNvwG7PpyU&_nc_oc=Adla3Mq0uJsr4eA56B-8yr4fh0-l0nxAzWoC5sYL_AeSxEoQLL07SUaWMK1hmr9ZnMp2qVoSwB5ajeW89FCjHgs7&_nc_zt=23&_nc_ht=scontent-cdg4-2.cdninstagram.com&edm=AM6HXa8EAAAA&_nc_gid=Jxyk8iLhjOsd921zom1IKA&oh=00_AfOYtFqV-QoOVJ6HNRu9CdrGa0VRb3NYTaebbPxCSzdsYA&oe=684A1FD2",
        "media_type": "CAROUSEL_ALBUM",
        "like_count": 18,
        "comments_count": 1,
        "caption": "Hello tout le monde! Aujourd’hui ça caille, alors j’ai eu envie de vous parler de bouillotte ! 🥶 \n\nOui, certaines personnes n’y voient qu’un truc de « mamie » mais ne vous arrêtez pas aux préjugés ! 😅\n\nJe te laisse découvrir 3 des supers pouvoirs de la bouillotte (il y en a d’autres bien entendu ☺️).\n\nBonne lecture 📖 !\n.\n.\n.\nJe m’appelle Laure et je suis Naturopathe Iridologue.\nJe vous accompagne et vous donne les clés pour retrouver votre santé et votre bien-être au naturel 🌱.\n\nN’hésitez pas à réserver une consultation ou un appel découverte offert ici : https://laurenaturo.fr\n\n C’est avec plaisir et bienveillance que je vous accompagnerai !\n\nA bientôt, \n\nLaure",
        "shortcode": "Cl6kNL0q8kT",
        "children": {
          "data": [
            {
              "media_url": "https://scontent-cdg4-2.cdninstagram.com/v/t51.29350-15/318433205_826889571702223_7554179012422135632_n.jpg?stp=dst-jpg_e35_tt6&_nc_cat=109&ccb=1-7&_nc_sid=18de74&_nc_ohc=GPDnLh_wazQQ7kNvwG7PpyU&_nc_oc=Adla3Mq0uJsr4eA56B-8yr4fh0-l0nxAzWoC5sYL_AeSxEoQLL07SUaWMK1hmr9ZnMp2qVoSwB5ajeW89FCjHgs7&_nc_zt=23&_nc_ht=scontent-cdg4-2.cdninstagram.com&edm=AM6HXa8EAAAA&_nc_gid=Jxyk8iLhjOsd921zom1IKA&oh=00_AfOYtFqV-QoOVJ6HNRu9CdrGa0VRb3NYTaebbPxCSzdsYA&oe=684A1FD2",
              "id": "17969437870966582"
            },
            {
              "media_url": "https://scontent-cdg4-1.cdninstagram.com/v/t51.29350-15/318760183_1142362686469603_1967018234076999228_n.jpg?stp=dst-jpg_e35_tt6&_nc_cat=108&ccb=1-7&_nc_sid=18de74&_nc_ohc=nBqYZWaBKToQ7kNvwEsxO2J&_nc_oc=AdmMpwfFukwBxcq9y-0G80p6IR6XK_THqAM6oVVGDNf8EsmoSj8-LO8eBm7rNCzKPkmDeAhU-zwrkMbBlBqN_u9c&_nc_zt=23&_nc_ht=scontent-cdg4-1.cdninstagram.com&edm=AM6HXa8EAAAA&_nc_gid=Jxyk8iLhjOsd921zom1IKA&oh=00_AfPLg_mYnW9BuJSNGazJ4WwAE4yXsNy9cn6wJAY9n_s-lg&oe=684A1980",
              "id": "18261007825116046"
            },
            {
              "media_url": "https://scontent-cdg4-1.cdninstagram.com/v/t51.29350-15/318881633_484522303664284_5498649182027991261_n.jpg?stp=dst-jpg_e35_tt6&_nc_cat=108&ccb=1-7&_nc_sid=18de74&_nc_ohc=4QeTtt-EZKAQ7kNvwHTDifj&_nc_oc=AdmaExQcmrXoB8yIJQWxw6MyNYKlUPuZznEI1J1ws1SR0IIQYLQNwpcrb4QCqc3Slmhk8_aMoWLPwarE8q9oOKF3&_nc_zt=23&_nc_ht=scontent-cdg4-1.cdninstagram.com&edm=AM6HXa8EAAAA&_nc_gid=Jxyk8iLhjOsd921zom1IKA&oh=00_AfPfiIEVSgpWsuHoytcW6IiGmN6ltz_xyELTahEmnZfBRg&oe=684A2BF1",
              "id": "17988769909644247"
            },
            {
              "media_url": "https://scontent-cdg4-2.cdninstagram.com/v/t51.29350-15/318951128_886810745656952_6051942168431818408_n.jpg?stp=dst-jpg_e35_tt6&_nc_cat=100&ccb=1-7&_nc_sid=18de74&_nc_ohc=hnLSVZZ6fE4Q7kNvwFNTIow&_nc_oc=Adm0CjP1QC0ftoCDN99QTuf_xvHCry3j4Xupr_tf5k1Zw5LUt4rW0NTukpEpf3dGh5zlJohQZXrPCpBzVkwXhRog&_nc_zt=23&_nc_ht=scontent-cdg4-2.cdninstagram.com&edm=AM6HXa8EAAAA&_nc_gid=Jxyk8iLhjOsd921zom1IKA&oh=00_AfPLQuENdauf9bGq-FeO1UM3g8VfhsDuInctolFoW_p_zQ&oe=684A14C5",
              "id": "18329896309050865"
            },
            {
              "media_url": "https://scontent-cdg4-1.cdninstagram.com/v/t51.29350-15/318767461_1148617149353415_998312450688375965_n.jpg?stp=dst-jpg_e35_tt6&_nc_cat=105&ccb=1-7&_nc_sid=18de74&_nc_ohc=kQmmfPCrVYAQ7kNvwECPJgY&_nc_oc=Adkb-Iut48XytQmL56Mo3qB2vkplWmKlhIcbVC_yDSwW8KK0p685iBTLv4Bm-gt7cPXqb1keKjAwR2DYAXOyubFG&_nc_zt=23&_nc_ht=scontent-cdg4-1.cdninstagram.com&edm=AM6HXa8EAAAA&_nc_gid=Jxyk8iLhjOsd921zom1IKA&oh=00_AfNNqGj2vRh557MAkqbNrNLoTh8N8RkLAKwsJPCfKgQRsw&oe=684A2196",
              "id": "17922305057522014"
            }
          ]
        },
        "timestamp": "2022-12-08T17:19:23+0000",
        "id": "17991804493617701"
      }
    },
    {
      "feedJSON": {
        "media_url": "https://scontent-cdg4-1.cdninstagram.com/v/t51.29350-15/318620409_477423897856999_2320607390853590731_n.jpg?stp=dst-jpg_e35_tt6&_nc_cat=108&ccb=1-7&_nc_sid=18de74&_nc_ohc=npFKpR6Z7kwQ7kNvwFykqWk&_nc_oc=AdlzoQEJDqzAJFRaFlRyXMa225Db0Z3Nnd8-20cBcuzgNhWzet6Kc-ot82YK2A56vftG5j10Sb_ShrKD9utpazLh&_nc_zt=23&_nc_ht=scontent-cdg4-1.cdninstagram.com&edm=AM6HXa8EAAAA&_nc_gid=Jxyk8iLhjOsd921zom1IKA&oh=00_AfM4pmNA89wmJgnTSIPs35TRu-L8mZV59yQXOXA-XOGXIw&oe=684A27F4",
        "media_type": "CAROUSEL_ALBUM",
        "like_count": 16,
        "comments_count": 5,
        "caption": "Aujourd’hui je vous parle d’huile essentielle. Et pas n’importe laquelle : l’huile essentielle de Ravintsara 🍃. \n\nElle est originaire de Madagascar et son nom signifie : « feuille bonne à tout » en malgache.\n\nC’est une huile essentielle aux nombreuses vertus que l’on devrait tous avoir dans sa pharmacie!\nJe te laisse découvrir ses nombreuses propriétés dans ce post 😉\n.\n.\n.\nJe m’appelle Laure et je suis Naturopathe Iridologue.\nJe vous accompagne et vous donne les clés pour retrouver votre santé et votre bien-être au naturel 🌱.\n\nN’hésitez pas à réserver une consultation ou un appel découverte offert ici : https://laurenaturo.fr\n\n C’est avec plaisir et bienveillance que je vous accompagnerai !\n\nA bientôt, \n\nLaure",
        "shortcode": "Cl3q-SXKa5G",
        "children": {
          "data": [
            {
              "media_url": "https://scontent-cdg4-1.cdninstagram.com/v/t51.29350-15/318620409_477423897856999_2320607390853590731_n.jpg?stp=dst-jpg_e35_tt6&_nc_cat=108&ccb=1-7&_nc_sid=18de74&_nc_ohc=npFKpR6Z7kwQ7kNvwFykqWk&_nc_oc=AdlzoQEJDqzAJFRaFlRyXMa225Db0Z3Nnd8-20cBcuzgNhWzet6Kc-ot82YK2A56vftG5j10Sb_ShrKD9utpazLh&_nc_zt=23&_nc_ht=scontent-cdg4-1.cdninstagram.com&edm=AM6HXa8EAAAA&_nc_gid=Jxyk8iLhjOsd921zom1IKA&oh=00_AfM4pmNA89wmJgnTSIPs35TRu-L8mZV59yQXOXA-XOGXIw&oe=684A27F4",
              "id": "17851599467877325"
            },
            {
              "media_url": "https://scontent-cdg4-1.cdninstagram.com/v/t51.29350-15/318484134_851354156318773_8048699105774771552_n.jpg?stp=dst-jpg_e35_tt6&_nc_cat=108&ccb=1-7&_nc_sid=18de74&_nc_ohc=yHC8v54G_LkQ7kNvwEBzP8k&_nc_oc=AdlkAGOlDfJad9uOwOR5ngQykeSEt8NUgPyYxv0MeQcCqAvyuRJWtN5Nlt7SWqrupvF_8onRDN70Q9ycQHKlSPbG&_nc_zt=23&_nc_ht=scontent-cdg4-1.cdninstagram.com&edm=AM6HXa8EAAAA&_nc_gid=Jxyk8iLhjOsd921zom1IKA&oh=00_AfPTozKdz3fdtizzWFgKgWqCM1SMqk6Lbu3B_OuhhNmk6g&oe=684A2648",
              "id": "17979580849838264"
            },
            {
              "media_url": "https://scontent-cdg4-1.cdninstagram.com/v/t51.29350-15/318321713_664018521845995_2056735679342740956_n.jpg?stp=dst-jpg_e35_tt6&_nc_cat=105&ccb=1-7&_nc_sid=18de74&_nc_ohc=gLzAD6q-JyEQ7kNvwE31IPW&_nc_oc=AdlzwhsvOw2KqqtrJrWj_g_gykPCAuc4Q6GzKYtCPGQUya06Rt8ZgstEnBT37nXZ8MiVlfpnZrH_RJYW3qX04CsQ&_nc_zt=23&_nc_ht=scontent-cdg4-1.cdninstagram.com&edm=AM6HXa8EAAAA&_nc_gid=Jxyk8iLhjOsd921zom1IKA&oh=00_AfMu44PAEEyocPutUSfa5JnV9356bouN4UXNgoXPY8Fwug&oe=684A2FF9",
              "id": "17956800812272201"
            },
            {
              "media_url": "https://scontent-cdg4-3.cdninstagram.com/v/t51.29350-15/318441648_177259088275441_3826411584726346943_n.jpg?stp=dst-jpg_e35_tt6&_nc_cat=111&ccb=1-7&_nc_sid=18de74&_nc_ohc=cHvuWYCouukQ7kNvwH8VuWx&_nc_oc=AdmabYjQkwKy0uEjYAtQdr1Ivd8SdzZSRjDdvXTKkP5csE1gMWxziMkxB8U5Z3GFHznLj5yI5TaQSuk8vTmHmXvZ&_nc_zt=23&_nc_ht=scontent-cdg4-3.cdninstagram.com&edm=AM6HXa8EAAAA&_nc_gid=Jxyk8iLhjOsd921zom1IKA&oh=00_AfMLYFaVQ2tnGgUIVdXfCemCt8sZccDuhhahsXd8Vp3zqg&oe=684A2DB8",
              "id": "18002189311550806"
            }
          ]
        },
        "timestamp": "2022-12-07T14:20:47+0000",
        "id": "18265822999128437"
      }
    },
    {
      "feedJSON": {
        "media_url": "https://scontent-cdg4-3.cdninstagram.com/v/t51.29350-15/317938941_1510734179431624_3302230229732614608_n.jpg?stp=dst-jpg_e35_tt6&_nc_cat=106&ccb=1-7&_nc_sid=18de74&_nc_ohc=EaaxOOiR2UIQ7kNvwG3WRxd&_nc_oc=AdkRIQm54fp3f37hi2QwqQwNhb2kOU0Jg-aKXEWSYvHwfddNkQ2yDDcQogN5l0fnBpVCfgtdnSQ3gWeHo3ZVgV3G&_nc_zt=23&_nc_ht=scontent-cdg4-3.cdninstagram.com&edm=AM6HXa8EAAAA&_nc_gid=Jxyk8iLhjOsd921zom1IKA&oh=00_AfPSWCGwY0AOV9bRaBH_vc8I1UvrT9CbImgbY8OVh6Zrbw&oe=684A1940",
        "media_type": "CAROUSEL_ALBUM",
        "like_count": 21,
        "comments_count": 1,
        "caption": "Aujourd’hui je te parle de stress 😫\nOui le stress est un peu le fléau du siècle.. Nous sommes tous plus ou moins stressés en fonction de notre tempérament, de notre vitalité, de nos moments de vie..\nMais sais-tu te situer face au stress? Ou en-es tu? \nJe te laisse découvrir les 3 étapes du stress et me dire en commentaire où tu te situes ! 😉\n.\n.\n.\nJe m’appelle Laure et je suis Naturopathe Iridologue.\nJe vous accompagne et vous donne les clés pour retrouver votre santé et votre bien-être au naturel 🌱.\n\nN’hésitez pas à réserver une consultation ou un appel découverte offert ici : https://laurenaturo.fr\n\n C’est avec plaisir et bienveillance que je vous accompagnerai !\n\nA bientôt, \n\nLaure",
        "shortcode": "Cl1F96-q94G",
        "children": {
          "data": [
            {
              "media_url": "https://scontent-cdg4-3.cdninstagram.com/v/t51.29350-15/317938941_1510734179431624_3302230229732614608_n.jpg?stp=dst-jpg_e35_tt6&_nc_cat=106&ccb=1-7&_nc_sid=18de74&_nc_ohc=EaaxOOiR2UIQ7kNvwG3WRxd&_nc_oc=AdkRIQm54fp3f37hi2QwqQwNhb2kOU0Jg-aKXEWSYvHwfddNkQ2yDDcQogN5l0fnBpVCfgtdnSQ3gWeHo3ZVgV3G&_nc_zt=23&_nc_ht=scontent-cdg4-3.cdninstagram.com&edm=AM6HXa8EAAAA&_nc_gid=Jxyk8iLhjOsd921zom1IKA&oh=00_AfPSWCGwY0AOV9bRaBH_vc8I1UvrT9CbImgbY8OVh6Zrbw&oe=684A1940",
              "id": "17951322011172359"
            },
            {
              "media_url": "https://scontent-cdg4-1.cdninstagram.com/v/t51.29350-15/318012001_100701422876279_8931025442081501179_n.jpg?stp=dst-jpg_e35_tt6&_nc_cat=104&ccb=1-7&_nc_sid=18de74&_nc_ohc=YGwhDJkuakgQ7kNvwE7JJoU&_nc_oc=AdkmURGLbSFrHwQBhACIhSx4CUlYPiMWfpG1Z4DDo3Hm_KUU0axiP2oUeZnMkwESAOo74JL83muhGGzXTH4gyxPj&_nc_zt=23&_nc_ht=scontent-cdg4-1.cdninstagram.com&edm=AM6HXa8EAAAA&_nc_gid=Jxyk8iLhjOsd921zom1IKA&oh=00_AfMAuEACYF2iIqkeqOOmBasduaEjTfjfJApf4vi1wYGRJw&oe=684A3065",
              "id": "18019721821427900"
            },
            {
              "media_url": "https://scontent-cdg4-2.cdninstagram.com/v/t51.29350-15/318205643_674689054036894_3311694730470809395_n.jpg?stp=dst-jpg_e35_tt6&_nc_cat=107&ccb=1-7&_nc_sid=18de74&_nc_ohc=JouK6a6tWNwQ7kNvwFllcYm&_nc_oc=Adm1i2uIG8xqfc0nqqP9rzdvXvAHqWrG9-evRH01z8NE3AyVRs8c33Ciy2yObQwCBYddelOIJs031_xdKSFTZrf_&_nc_zt=23&_nc_ht=scontent-cdg4-2.cdninstagram.com&edm=AM6HXa8EAAAA&_nc_gid=Jxyk8iLhjOsd921zom1IKA&oh=00_AfN49-gKXbjL9D1B2kVsuUrc8phFe7fgbKHHQVzhXv4KvQ&oe=684A3134",
              "id": "17939292242526262"
            },
            {
              "media_url": "https://scontent-cdg4-3.cdninstagram.com/v/t51.29350-15/318168533_558267392802550_4240796377188586392_n.jpg?stp=dst-jpg_e35_tt6&_nc_cat=110&ccb=1-7&_nc_sid=18de74&_nc_ohc=-CTqzzlOX64Q7kNvwHf_vjW&_nc_oc=AdnhXetS-PDvckPxQwuK0hWkZQACeiySwqmmgmNK1hF7U_OuTljFrZbjIYmdfRf-q0_rUzkpEtMbpOBGkPnEnUKP&_nc_zt=23&_nc_ht=scontent-cdg4-3.cdninstagram.com&edm=AM6HXa8EAAAA&_nc_gid=Jxyk8iLhjOsd921zom1IKA&oh=00_AfNs5TBlCIoaEjtAEYa0eyN9CHWuQq1suQzYcYC21crskg&oe=684A0CE4",
              "id": "17975498839896644"
            }
          ]
        },
        "timestamp": "2022-12-06T14:18:57+0000",
        "id": "17957649767230962"
      }
    },
    {
      "feedJSON": {
        "media_url": "https://scontent-cdg4-3.cdninstagram.com/v/t51.29350-15/318021015_610062327543411_7042077882530906044_n.jpg?stp=dst-jpg_e35_tt6&_nc_cat=110&ccb=1-7&_nc_sid=18de74&_nc_ohc=Esk1H74jZ3AQ7kNvwF1SNvF&_nc_oc=AdkwZ6H3KC--gdT_OXuhmBTM6H-xTGxcUxVRvULNjFdazoVD7ZizuktXdzHS2WwPZsmcetemQSzvBbybNk1L2kON&_nc_zt=23&_nc_ht=scontent-cdg4-3.cdninstagram.com&edm=AM6HXa8EAAAA&_nc_gid=Jxyk8iLhjOsd921zom1IKA&oh=00_AfNj9MUGYktR9dEglxTQlYbsxIZuUVozgUjFzHCT3I8Wgw&oe=684A3031",
        "media_type": "CAROUSEL_ALBUM",
        "like_count": 18,
        "comments_count": 3,
        "caption": "Aujourd’hui j’ai choisi de te partager un post sur l’intérêt de prendre soin de soi… On se délaisse souvent, et même parfois sans s’en rendre compte! Alors que nous sommes la personne la + importante. \nSi vous n’allez pas bien, vous ne pourrez pas être bien avec votre famille, avec vos proches, dans votre travail, dans votre sport…etc….\nBref pensez à vous 😉!! \n\n.\n.\n.\nJe m’appelle Laure et je suis Naturopathe Iridologue.\nJe vous accompagne et vous donne les clés pour retrouver votre santé et votre bien-être au naturel 🌱.\n\nN’hésitez pas à réserver une consultation ou un appel découverte offert ici : https://laurenaturo.fr\n\n C’est avec plaisir et bienveillance que je vous accompagnerai !\n\nA bientôt, \n\nLaure",
        "shortcode": "Cly4-I7KiyJ",
        "children": {
          "data": [
            {
              "media_url": "https://scontent-cdg4-3.cdninstagram.com/v/t51.29350-15/318021015_610062327543411_7042077882530906044_n.jpg?stp=dst-jpg_e35_tt6&_nc_cat=110&ccb=1-7&_nc_sid=18de74&_nc_ohc=Esk1H74jZ3AQ7kNvwF1SNvF&_nc_oc=AdkwZ6H3KC--gdT_OXuhmBTM6H-xTGxcUxVRvULNjFdazoVD7ZizuktXdzHS2WwPZsmcetemQSzvBbybNk1L2kON&_nc_zt=23&_nc_ht=scontent-cdg4-3.cdninstagram.com&edm=AM6HXa8EAAAA&_nc_gid=Jxyk8iLhjOsd921zom1IKA&oh=00_AfNj9MUGYktR9dEglxTQlYbsxIZuUVozgUjFzHCT3I8Wgw&oe=684A3031",
              "id": "17956464020225297"
            },
            {
              "media_url": "https://scontent-cdg4-1.cdninstagram.com/v/t51.29350-15/318168533_5676305512459829_3718947453851626946_n.jpg?stp=dst-jpg_e35_tt6&_nc_cat=108&ccb=1-7&_nc_sid=18de74&_nc_ohc=J0INkbS5X8IQ7kNvwEBkP_f&_nc_oc=AdkEG91eaJa4-M7kEAZKLt73PI_LNSWtuTq_GnoLalON-vRs_UG0fwTr8moi4uUA2fHfKcvw6qgJ4M2xLfjfY6yy&_nc_zt=23&_nc_ht=scontent-cdg4-1.cdninstagram.com&edm=AM6HXa8EAAAA&_nc_gid=Jxyk8iLhjOsd921zom1IKA&oh=00_AfPidt7gAixPt-cPGSsUm4Pzgf3HzFQYfQhGufI_QQQHXw&oe=684A1061",
              "id": "17991965476570013"
            }
          ]
        },
        "timestamp": "2022-12-05T17:46:54+0000",
        "id": "18015951613482259"
      }
    }
  ],
  "pageInfo": {
    "pageCount": 20,
    "page": 11,
    "total": 99,
    "pageSize": 5
  }
}