{"nodes":[{"feedJSON":{"media_type":"CAROUSEL_ALBUM","like_count":21,"comments_count":1,"caption":"Aujourd’hui je te parle de stress 😫\nOui le stress est un peu le fléau du siècle.. Nous sommes tous plus ou moins stressés en fonction de notre tempérament, de notre vitalité, de nos moments de vie..\nMais sais-tu te situer face au stress? Ou en-es tu? \nJe te laisse découvrir les 3 étapes du stress et me dire en commentaire où tu te situes ! 😉\n.\n.\n.\nJe m’appelle Laure et je suis Naturopathe Iridologue.\nJe vous accompagne et vous donne les clés pour retrouver votre santé et votre bien-être au naturel 🌱.\n\nN’hésitez pas à réserver une consultation ou un appel découverte offert ici : https://laurenaturo.fr\n\n C’est avec plaisir et bienveillance que je vous accompagnerai !\n\nA bientôt, \n\nLaure","shortcode":"Cl1F96-q94G","children":{"data":[{"id":"17951322011172359","media":[{"rawOptions":{"src":"https://ln-admin.laurenaturo.fr/uploads/17957649767230962_media_url_12ce9910a8.jpeg","width":1080,"height":1080,"format":"webp"},"options":{"src":"https://ln-admin.laurenaturo.fr/uploads/17957649767230962_media_url_12ce9910a8.jpeg","width":1080,"height":1080,"format":"webp"},"src":"https://ln-admin.laurenaturo.fr/uploads/17957649767230962_media_url_12ce9910a8.jpeg","srcSet":{"values":[],"attribute":""},"attributes":{"width":1080,"height":1080,"loading":"lazy","decoding":"async"}}]},{"id":"18019721821427900","media":[{"rawOptions":{"src":"https://ln-admin.laurenaturo.fr/uploads/17957649767230962_media_url_cb8a9222d3.jpeg","width":1080,"height":1080,"format":"webp"},"options":{"src":"https://ln-admin.laurenaturo.fr/uploads/17957649767230962_media_url_cb8a9222d3.jpeg","width":1080,"height":1080,"format":"webp"},"src":"https://ln-admin.laurenaturo.fr/uploads/17957649767230962_media_url_cb8a9222d3.jpeg","srcSet":{"values":[],"attribute":""},"attributes":{"width":1080,"height":1080,"loading":"lazy","decoding":"async"}}]},{"id":"17939292242526262","media":[{"rawOptions":{"src":"https://ln-admin.laurenaturo.fr/uploads/17957649767230962_media_url_5ac8761b34.jpeg","width":1080,"height":1080,"format":"webp"},"options":{"src":"https://ln-admin.laurenaturo.fr/uploads/17957649767230962_media_url_5ac8761b34.jpeg","width":1080,"height":1080,"format":"webp"},"src":"https://ln-admin.laurenaturo.fr/uploads/17957649767230962_media_url_5ac8761b34.jpeg","srcSet":{"values":[],"attribute":""},"attributes":{"width":1080,"height":1080,"loading":"lazy","decoding":"async"}}]},{"id":"17975498839896644","media":[{"rawOptions":{"src":"https://ln-admin.laurenaturo.fr/uploads/17957649767230962_media_url_1a16093b8c.jpeg","width":1080,"height":1080,"format":"webp"},"options":{"src":"https://ln-admin.laurenaturo.fr/uploads/17957649767230962_media_url_1a16093b8c.jpeg","width":1080,"height":1080,"format":"webp"},"src":"https://ln-admin.laurenaturo.fr/uploads/17957649767230962_media_url_1a16093b8c.jpeg","srcSet":{"values":[],"attribute":""},"attributes":{"width":1080,"height":1080,"loading":"lazy","decoding":"async"}}]}]},"timestamp":"2022-12-06T14:18:57+0000","id":"17957649767230962","media":[{"rawOptions":{"src":"https://ln-admin.laurenaturo.fr/uploads/17957649767230962_media_url_31b8681720.jpeg","width":1080,"height":1080,"format":"webp"},"options":{"src":"https://ln-admin.laurenaturo.fr/uploads/17957649767230962_media_url_31b8681720.jpeg","width":1080,"height":1080,"format":"webp"},"src":"https://ln-admin.laurenaturo.fr/uploads/17957649767230962_media_url_31b8681720.jpeg","srcSet":{"values":[],"attribute":""},"attributes":{"width":1080,"height":1080,"loading":"lazy","decoding":"async"}}]}},{"feedJSON":{"media_type":"CAROUSEL_ALBUM","like_count":18,"comments_count":3,"caption":"Aujourd’hui j’ai choisi de te partager un post sur l’intérêt de prendre soin de soi… On se délaisse souvent, et même parfois sans s’en rendre compte! Alors que nous sommes la personne la + importante. \nSi vous n’allez pas bien, vous ne pourrez pas être bien avec votre famille, avec vos proches, dans votre travail, dans votre sport…etc….\nBref pensez à vous 😉!! \n\n.\n.\n.\nJe m’appelle Laure et je suis Naturopathe Iridologue.\nJe vous accompagne et vous donne les clés pour retrouver votre santé et votre bien-être au naturel 🌱.\n\nN’hésitez pas à réserver une consultation ou un appel découverte offert ici : https://laurenaturo.fr\n\n C’est avec plaisir et bienveillance que je vous accompagnerai !\n\nA bientôt, \n\nLaure","shortcode":"Cly4-I7KiyJ","children":{"data":[{"id":"17956464020225297","media":[{"rawOptions":{"src":"https://ln-admin.laurenaturo.fr/uploads/18015951613482259_media_url_48c3325634.jpeg","width":1080,"height":1080,"format":"webp"},"options":{"src":"https://ln-admin.laurenaturo.fr/uploads/18015951613482259_media_url_48c3325634.jpeg","width":1080,"height":1080,"format":"webp"},"src":"https://ln-admin.laurenaturo.fr/uploads/18015951613482259_media_url_48c3325634.jpeg","srcSet":{"values":[],"attribute":""},"attributes":{"width":1080,"height":1080,"loading":"lazy","decoding":"async"}}]},{"id":"17991965476570013","media":[{"rawOptions":{"src":"https://ln-admin.laurenaturo.fr/uploads/18015951613482259_media_url_078a90d1c3.jpeg","width":1080,"height":1080,"format":"webp"},"options":{"src":"https://ln-admin.laurenaturo.fr/uploads/18015951613482259_media_url_078a90d1c3.jpeg","width":1080,"height":1080,"format":"webp"},"src":"https://ln-admin.laurenaturo.fr/uploads/18015951613482259_media_url_078a90d1c3.jpeg","srcSet":{"values":[],"attribute":""},"attributes":{"width":1080,"height":1080,"loading":"lazy","decoding":"async"}}]}]},"timestamp":"2022-12-05T17:46:54+0000","id":"18015951613482259","media":[{"rawOptions":{"src":"https://ln-admin.laurenaturo.fr/uploads/18015951613482259_media_url_860aa7b767.jpeg","width":1080,"height":1080,"format":"webp"},"options":{"src":"https://ln-admin.laurenaturo.fr/uploads/18015951613482259_media_url_860aa7b767.jpeg","width":1080,"height":1080,"format":"webp"},"src":"https://ln-admin.laurenaturo.fr/uploads/18015951613482259_media_url_860aa7b767.jpeg","srcSet":{"values":[],"attribute":""},"attributes":{"width":1080,"height":1080,"loading":"lazy","decoding":"async"}}]}},{"feedJSON":{"media_type":"CAROUSEL_ALBUM","like_count":23,"comments_count":1,"caption":"Aujourd’hui je te parle de cohérence cardiaque !\nC’est une méthode de respiration particulière qui permet de t’apaiser pendant 4h! Je te laisse découvrir tout ça dans ce post 😉\n\n.\n.\n.\nJe m’appelle Laure et je suis Naturopathe Iridologue.\nJe vous accompagne et vous donne les clés pour retrouver votre santé et votre bien-être au naturel 🌱.\n\nN’hésitez pas à réserver une consultation ou un appel découverte offert ici : https://laurenaturo.fr\n\n C’est avec plaisir et bienveillance que je vous accompagnerai !\n\nA bientôt, \n\nLaure","shortcode":"ClvyXu_oOkT","children":{"data":[{"id":"18043466374381274","media":[{"rawOptions":{"src":"https://ln-admin.laurenaturo.fr/uploads/17960947232127416_media_url_75b420ace2.jpeg","width":1440,"height":1796,"format":"webp"},"options":{"src":"https://ln-admin.laurenaturo.fr/uploads/17960947232127416_media_url_75b420ace2.jpeg","width":1440,"height":1796,"format":"webp"},"src":"https://ln-admin.laurenaturo.fr/uploads/17960947232127416_media_url_75b420ace2.jpeg","srcSet":{"values":[],"attribute":""},"attributes":{"width":1440,"height":1796,"loading":"lazy","decoding":"async"}}]},{"id":"18170231371248198","media":[{"rawOptions":{"src":"https://ln-admin.laurenaturo.fr/uploads/17960947232127416_media_url_7b1bdb6a11.jpeg","width":1440,"height":1796,"format":"webp"},"options":{"src":"https://ln-admin.laurenaturo.fr/uploads/17960947232127416_media_url_7b1bdb6a11.jpeg","width":1440,"height":1796,"format":"webp"},"src":"https://ln-admin.laurenaturo.fr/uploads/17960947232127416_media_url_7b1bdb6a11.jpeg","srcSet":{"values":[],"attribute":""},"attributes":{"width":1440,"height":1796,"loading":"lazy","decoding":"async"}}]},{"id":"18084811300310652","media":[{"rawOptions":{"src":"https://ln-admin.laurenaturo.fr/uploads/17960947232127416_media_url_9a46382f87.jpeg","width":1440,"height":1796,"format":"webp"},"options":{"src":"https://ln-admin.laurenaturo.fr/uploads/17960947232127416_media_url_9a46382f87.jpeg","width":1440,"height":1796,"format":"webp"},"src":"https://ln-admin.laurenaturo.fr/uploads/17960947232127416_media_url_9a46382f87.jpeg","srcSet":{"values":[],"attribute":""},"attributes":{"width":1440,"height":1796,"loading":"lazy","decoding":"async"}}]}]},"timestamp":"2022-12-04T12:51:30+0000","id":"17960947232127416","media":[{"rawOptions":{"src":"https://ln-admin.laurenaturo.fr/uploads/17960947232127416_media_url_ab4ce640a0.jpeg","width":1440,"height":1796,"format":"webp"},"options":{"src":"https://ln-admin.laurenaturo.fr/uploads/17960947232127416_media_url_ab4ce640a0.jpeg","width":1440,"height":1796,"format":"webp"},"src":"https://ln-admin.laurenaturo.fr/uploads/17960947232127416_media_url_ab4ce640a0.jpeg","srcSet":{"values":[],"attribute":""},"attributes":{"width":1440,"height":1796,"loading":"lazy","decoding":"async"}}]}},{"feedJSON":{"media_type":"CAROUSEL_ALBUM","like_count":14,"comments_count":1,"caption":"En plein mal de gorge ici, alors je me suis dit que j’allais te partager mon astuce super efficace et super bonne !\nJe te laisse aller la découvrir 😉 !\n\n.\n.\n.\nJe m’appelle Laure et je suis Naturopathe Iridologue.\nJe vous accompagne et vous donne les clés pour retrouver votre santé et votre bien-être au naturel 🌱.\n\nN’hésitez pas à réserver une consultation ou un appel découverte offert ici : https://laurenaturo.fr\n\n C’est avec plaisir et bienveillance que je vous accompagnerai !\n\nA bientôt, \n\nLaure","shortcode":"Clts4lLIxy5","children":{"data":[{"id":"17957724986277624","media":[{"rawOptions":{"src":"https://ln-admin.laurenaturo.fr/uploads/17993174215610571_media_url_6d192c5b14.jpeg","width":1080,"height":1080,"format":"webp"},"options":{"src":"https://ln-admin.laurenaturo.fr/uploads/17993174215610571_media_url_6d192c5b14.jpeg","width":1080,"height":1080,"format":"webp"},"src":"https://ln-admin.laurenaturo.fr/uploads/17993174215610571_media_url_6d192c5b14.jpeg","srcSet":{"values":[],"attribute":""},"attributes":{"width":1080,"height":1080,"loading":"lazy","decoding":"async"}}]},{"id":"18018337693434260","media":[{"rawOptions":{"src":"https://ln-admin.laurenaturo.fr/uploads/17993174215610571_media_url_0f50db405d.jpeg","width":1080,"height":1080,"format":"webp"},"options":{"src":"https://ln-admin.laurenaturo.fr/uploads/17993174215610571_media_url_0f50db405d.jpeg","width":1080,"height":1080,"format":"webp"},"src":"https://ln-admin.laurenaturo.fr/uploads/17993174215610571_media_url_0f50db405d.jpeg","srcSet":{"values":[],"attribute":""},"attributes":{"width":1080,"height":1080,"loading":"lazy","decoding":"async"}}]},{"id":"17993269456611389","media":[{"rawOptions":{"src":"https://ln-admin.laurenaturo.fr/uploads/17993174215610571_media_url_8d4f6356bb.jpeg","width":1080,"height":1080,"format":"webp"},"options":{"src":"https://ln-admin.laurenaturo.fr/uploads/17993174215610571_media_url_8d4f6356bb.jpeg","width":1080,"height":1080,"format":"webp"},"src":"https://ln-admin.laurenaturo.fr/uploads/17993174215610571_media_url_8d4f6356bb.jpeg","srcSet":{"values":[],"attribute":""},"attributes":{"width":1080,"height":1080,"loading":"lazy","decoding":"async"}}]}]},"timestamp":"2022-12-03T17:25:05+0000","id":"17993174215610571","media":[{"rawOptions":{"src":"https://ln-admin.laurenaturo.fr/uploads/17993174215610571_media_url_c9a8e9abc9.jpeg","width":1080,"height":1080,"format":"webp"},"options":{"src":"https://ln-admin.laurenaturo.fr/uploads/17993174215610571_media_url_c9a8e9abc9.jpeg","width":1080,"height":1080,"format":"webp"},"src":"https://ln-admin.laurenaturo.fr/uploads/17993174215610571_media_url_c9a8e9abc9.jpeg","srcSet":{"values":[],"attribute":""},"attributes":{"width":1080,"height":1080,"loading":"lazy","decoding":"async"}}]}},{"feedJSON":{"media_type":"CAROUSEL_ALBUM","like_count":14,"comments_count":4,"caption":"Je t’ai concocté un petit calendrier de l’avent pour le mois de Décembre ❄️🌟 \nTu y trouveras tous les jours des nouveaux conseils, astuces, jeux concours, challenges…! \n\nAujourd’hui je te livre mes 8 conseils pour bien dormir (si tu n’as pas d’enfants 😅). Trêve de plaisanteries, ces astuces t’aideront à t’apaiser et à être disposé(e) à bien dormir!\n\nEt toi ? Quelles sont tes astuces ? Je t’écoute en commentaire 😉\n\n.\n.\n.\n\n.\nJe m’appelle Laure et je suis Naturopathe Iridologue.\nJe vous accompagne et vous donne les clés pour retrouver votre santé et votre bien-être au naturel 🌱.\n\nN’hésitez pas à réserver une consultation ou un appel découverte offert ici : https://laurenaturo.fr\n\n C’est avec plaisir et bienveillance que je vous accompagnerai !\n\nA bientôt, \n\nLaure","shortcode":"Clq-nXyIJct","children":{"data":[{"id":"17969728936858049","media":[{"rawOptions":{"src":"https://ln-admin.laurenaturo.fr/uploads/17959527860317418_media_url_b6c7d6ae99.jpeg","width":1080,"height":1080,"format":"webp"},"options":{"src":"https://ln-admin.laurenaturo.fr/uploads/17959527860317418_media_url_b6c7d6ae99.jpeg","width":1080,"height":1080,"format":"webp"},"src":"https://ln-admin.laurenaturo.fr/uploads/17959527860317418_media_url_b6c7d6ae99.jpeg","srcSet":{"values":[],"attribute":""},"attributes":{"width":1080,"height":1080,"loading":"lazy","decoding":"async"}}]},{"id":"17973010291913218","media":[{"rawOptions":{"src":"https://ln-admin.laurenaturo.fr/uploads/17959527860317418_media_url_d4cfc4636b.jpeg","width":1080,"height":1080,"format":"webp"},"options":{"src":"https://ln-admin.laurenaturo.fr/uploads/17959527860317418_media_url_d4cfc4636b.jpeg","width":1080,"height":1080,"format":"webp"},"src":"https://ln-admin.laurenaturo.fr/uploads/17959527860317418_media_url_d4cfc4636b.jpeg","srcSet":{"values":[],"attribute":""},"attributes":{"width":1080,"height":1080,"loading":"lazy","decoding":"async"}}]},{"id":"18008597377502801","media":[{"rawOptions":{"src":"https://ln-admin.laurenaturo.fr/uploads/17959527860317418_media_url_fcf3b8e7f6.jpeg","width":1080,"height":1080,"format":"webp"},"options":{"src":"https://ln-admin.laurenaturo.fr/uploads/17959527860317418_media_url_fcf3b8e7f6.jpeg","width":1080,"height":1080,"format":"webp"},"src":"https://ln-admin.laurenaturo.fr/uploads/17959527860317418_media_url_fcf3b8e7f6.jpeg","srcSet":{"values":[],"attribute":""},"attributes":{"width":1080,"height":1080,"loading":"lazy","decoding":"async"}}]}]},"timestamp":"2022-12-02T16:02:18+0000","id":"17959527860317418","media":[{"rawOptions":{"src":"https://ln-admin.laurenaturo.fr/uploads/17959527860317418_media_url_69d1cf89a4.jpeg","width":1080,"height":1080,"format":"webp"},"options":{"src":"https://ln-admin.laurenaturo.fr/uploads/17959527860317418_media_url_69d1cf89a4.jpeg","width":1080,"height":1080,"format":"webp"},"src":"https://ln-admin.laurenaturo.fr/uploads/17959527860317418_media_url_69d1cf89a4.jpeg","srcSet":{"values":[],"attribute":""},"attributes":{"width":1080,"height":1080,"loading":"lazy","decoding":"async"}}]}}],"pageInfo":{"pageCount":21,"page":12,"total":101,"pageSize":5}}