{
  "nodes": [
    {
      "feedJSON": {
        "media_url": "https://scontent-cdg4-3.cdninstagram.com/v/t51.29350-15/248440378_362210062260803_4564439037608106767_n.jpg?stp=dst-jpg_e35_tt6&_nc_cat=106&ccb=1-7&_nc_sid=18de74&_nc_ohc=VYHWIbPb0eQQ7kNvwFjEe5K&_nc_oc=Adm1VkkPdm6pmDe72zmdaX6-5G-x-ZAQamlb1io2C3Cs9lbVXZWqpq5LoAbBBiLmXdhz5TlUAOZEj9MlAPxSEwvF&_nc_zt=23&_nc_ht=scontent-cdg4-3.cdninstagram.com&edm=AM6HXa8EAAAA&_nc_gid=uKSsQs8gxM_wFWSAh6MQ1Q&oh=00_AfOwVDquiI9CIsOXIVqeN7freNO3Ktuie6iqjCEQO11gXA&oe=684A1DBE",
        "media_type": "IMAGE",
        "like_count": 27,
        "comments_count": 2,
        "caption": "Bonjour à tous, \n\nJe profite de cette publication pour me présenter un peu. \n\nJe m’appelle Laure et je suis maman de 2 petits garçons.\nJe suis une passionnée de santé et d’alimentation depuis toujours. Les pouvoirs de l’alimentation sur notre corps et notre esprit m’ont toujours fascinée. \nC’est d’ailleurs pour cela que j’ai commencé mes études par une licence en agroalimentaire 🍎. \nJ’ai poursuivi avec des études de marketing puis la vie m’a rappelée à ce qui me passionnait : la santé mais aussi l’humain. \nC’est une visite chez une naturopathe qui a généré un véritable déclic chez moi. Découvrir que ce métier considérait l’humain dans sa globalité m’a de suite convaincu. \nPuis, j’ai rapidement appliqué et mis en place les conseils prodigués par la naturopathe qui ont complètement changé ma vie ☀️.\n\nJ’ai alors entamé un tournant à 360 car je décidais d’entamer une reconversion professionnelle pour devenir naturopathe. \nJe suis aujourd’hui en formation pour être certifié l’année prochaine, j’ai tellement hâte ! Hâte de pouvoir être à vos côtés et vous donner toutes les clés 🔑 ! \n\nJe suis fière d’avoir osé suivre cette voie, fière d’avoir suivi ma voix intérieure.\n \nJe m’épanouis au quotidien et me nourris de nouvelles connaissances tous les jours. Ces connaissances qui changent mes habitudes, me permettent de mieux me comprendre et me connaître, d’atteindre le bien-être et une meilleure santé. \n\nCes connaissances que j’applique aussi pour ma famille et mes proches, je les appliquerai pour vous tous afin que vous vous sentiez le mieux possible ! \n\nC’est ça, mon rôle de naturopathe ! 🌱",
        "shortcode": "CVcbEjxACTe",
        "timestamp": "2021-10-25T08:00:02+0000",
        "id": "17878344143554861"
      }
    },
    {
      "feedJSON": {
        "media_url": "https://scontent-cdg4-3.cdninstagram.com/v/t51.29350-15/247413301_404358481301768_9070368905520611484_n.jpg?stp=dst-jpg_e35_tt6&_nc_cat=106&ccb=1-7&_nc_sid=18de74&_nc_ohc=rBTpocYvJqIQ7kNvwEBWURD&_nc_oc=Adlhln3f8NsHbit-sylidJBbtsDUp39OxD63ZAFd0wT5HhD8NDQs2DBqXotkLS8o66Po42nBnxBUgb175u1XGj5b&_nc_zt=23&_nc_ht=scontent-cdg4-3.cdninstagram.com&edm=AM6HXa8EAAAA&_nc_gid=uKSsQs8gxM_wFWSAh6MQ1Q&oh=00_AfMYEzztb_QeidwWjAs4X0T4AQ14PR3vOll9RQAJCTr8XQ&oe=684A29D4",
        "media_type": "CAROUSEL_ALBUM",
        "like_count": 35,
        "comments_count": 1,
        "caption": "Les graines de chia 🧐\n\nJe profite de mon dessert au chocolat 🍫 fait maison du soir pour te parler des graines de chia :) \n\nC’est un super aliment à avoir dans ta cuisine : elles sont excellentes pour ta santé ! \n\nLes graines de chia sont de toutes petites graines beiges ou noires ressemblant aux graines de sésame. Elles sont originaires du Mexique et sont riches en omégas-3.\n\nVoici les 10 raisons de les consommer : \n✅  Elles sont excellentes pour le coeur\n✅  Elles facilitent le transit intestinal \n✅  Elles renforcent les os et les dents\n✅  Elles aident à perdre du poids\n✅  Elles favorisent le sommeil\n✅  Elles permettent de prévenir certains cancers\n✅  Elles protègent le cerveau\n✅  Elles préviennent le diabète\n✅  Elles apportent une meilleure endurance \n\nElles sont très faciles à intégrer dans ton alimentation quotidienne. \nTu peux les incorporer dans tes salades, laitages, céréales du petit déjeuner, smoothies.. ou pour réaliser des bons desserts comme le pudding au chocolat 🍫 ! \n\nEt toi ? Connais-tu les graines de chia ? Comment aimes-tu les consommer ? 😋",
        "shortcode": "CVV7SiggfmS",
        "children": {
          "data": [
            {
              "media_url": "https://scontent-cdg4-3.cdninstagram.com/v/t51.29350-15/247413301_404358481301768_9070368905520611484_n.jpg?stp=dst-jpg_e35_tt6&_nc_cat=106&ccb=1-7&_nc_sid=18de74&_nc_ohc=rBTpocYvJqIQ7kNvwEBWURD&_nc_oc=Adlhln3f8NsHbit-sylidJBbtsDUp39OxD63ZAFd0wT5HhD8NDQs2DBqXotkLS8o66Po42nBnxBUgb175u1XGj5b&_nc_zt=23&_nc_ht=scontent-cdg4-3.cdninstagram.com&edm=AM6HXa8EAAAA&_nc_gid=uKSsQs8gxM_wFWSAh6MQ1Q&oh=00_AfMYEzztb_QeidwWjAs4X0T4AQ14PR3vOll9RQAJCTr8XQ&oe=684A29D4",
              "id": "17898751682351925"
            },
            {
              "media_url": "https://scontent-cdg4-2.cdninstagram.com/v/t51.29350-15/247280373_124323576644583_241283057763549123_n.jpg?stp=dst-jpg_e35_tt6&_nc_cat=107&ccb=1-7&_nc_sid=18de74&_nc_ohc=6neDvjn4DfAQ7kNvwHINn1x&_nc_oc=AdnNZNVBI1_-J8qj1ahInYtyjjoXV-4Ji5JqGEkxS8Qcndbej2ktMEfWRvKPvkF2igpMGDb8T6LNTcqkAcGsmhmW&_nc_zt=23&_nc_ht=scontent-cdg4-2.cdninstagram.com&edm=AM6HXa8EAAAA&_nc_gid=uKSsQs8gxM_wFWSAh6MQ1Q&oh=00_AfNiQUaYrZmMkAtkHBNtuMB_owyWnOiRk158iOvbBRokYg&oe=684A0C10",
              "id": "17947460128575211"
            }
          ]
        },
        "timestamp": "2021-10-22T19:26:53+0000",
        "id": "17913949100082732"
      }
    },
    {
      "feedJSON": {
        "media_url": "https://scontent-cdg4-1.cdninstagram.com/v/t51.29350-15/247402606_408183320662903_152403997923219451_n.jpg?stp=dst-jpg_e35_tt6&_nc_cat=104&ccb=1-7&_nc_sid=18de74&_nc_ohc=1GHH_Ehd7zUQ7kNvwEmtXlu&_nc_oc=Adlp_xrwMHu3Smlgp9r0PUY6MZP7Sr3hyNCTExfG7jM3OFVmqiaTfYr9fqwOIssaFWkyYkNpaeZ9yWfKvL41P6Gp&_nc_zt=23&_nc_ht=scontent-cdg4-1.cdninstagram.com&edm=AM6HXa8EAAAA&_nc_gid=uKSsQs8gxM_wFWSAh6MQ1Q&oh=00_AfOzDJmuttjqsuoI0dnqOF3bZI4w5EW1FHfId3AuzKZNXA&oe=684A3363",
        "media_type": "IMAGE",
        "like_count": 22,
        "comments_count": 1,
        "caption": "Petite pensée du soir ! Il n’y a pas de hasard 🌱",
        "shortcode": "CVTbfLoIK8T",
        "timestamp": "2021-10-21T20:10:30+0000",
        "id": "17931079321783534"
      }
    },
    {
      "feedJSON": {
        "media_url": "https://scontent-cdg4-1.cdninstagram.com/v/t51.29350-15/246533713_379312827268829_2737383585915756572_n.jpg?stp=dst-jpg_e35_tt6&_nc_cat=104&ccb=1-7&_nc_sid=18de74&_nc_ohc=bdHjR_9rZnQQ7kNvwGu35rx&_nc_oc=AdnZ7Eeri1WK9CPHEDpIRdT0IclTCwgqEn22RbzztVem4BypE0rPxoZCEvio4WWjgoBGsfxWb6Zrkuv0MSDVjiDW&_nc_zt=23&_nc_ht=scontent-cdg4-1.cdninstagram.com&edm=AM6HXa8EAAAA&_nc_gid=uKSsQs8gxM_wFWSAh6MQ1Q&oh=00_AfN69PUo7coChcQI2lv7JlcgTpszv4JOeS_ug6SxG_9vog&oe=684A34B3",
        "media_type": "IMAGE",
        "like_count": 22,
        "comments_count": 2,
        "caption": "C’est quoi la Naturopathie ? \n\nSi tu te demandes ce qui se cache derrière ce terme, je vais t’en dire un peu plus 😉\n\nSelon l’OMS, elle correspond à « un ensemble de méthodes de soins visant à renforcer les défenses de l’organisme par des moyens considérés comme naturels et biologiques ». 🌱 \n\nSelon moi, c’est tout d’abord un art de vivre, une philosophie de vie. ☀️ \n\nBien s’alimenter, pratiquer une activité physique, apprendre à gérer son stress, se reconnecter avec son corps, utiliser les plantes, prendre le temps de s’écouter, s’entourer des bonnes personnes.. \n\nLa Naturopathie s’appuie sur la prévention. Elle permet d’éviter que la maladie ne s’installe. \nElle cherche à te maintenir en bonne santé de façon tout à fait personnalisée. Bien entendu, elle est aussi là pour t’aider lorsque tu es malade. \n\nLa Naturopathie est complémentaire de la médecine moderne. Lorsque la médecine moderne pose un diagnostic et aide à faire disparaître les symptômes, le Naturopathe recherche la raison pour laquelle tu es malade. \nCeci permettra ainsi de mettre en place des actions pour rééquilibrer ta santé et éviter que l’état de maladie ne resurgisse encore et encore ... \n\nLe Naturopathe est là pour t’éclairer et te donner les clés 🔑 en te proposant une hygiène de vie personnalisée car nous sommes tous différents ! \n\nLa Naturopathie prend soin de ton bien-être physique et mental, tout simplement 😉.",
        "shortcode": "CVP56zrobhJ",
        "timestamp": "2021-10-20T11:19:27+0000",
        "id": "17922176095917906"
      }
    },
    {
      "feedJSON": {
        "media_url": "https://scontent-cdg4-2.cdninstagram.com/v/t51.29350-15/245926874_2751063841852831_6888063900884287343_n.jpg?stp=dst-jpg_e35_tt6&_nc_cat=103&ccb=1-7&_nc_sid=18de74&_nc_ohc=1Erew6vQQ7YQ7kNvwFM7mwb&_nc_oc=AdlSUjkYrpR65cIWflEaN4RqcDrsUFj8oC_XaaEPBK6QaxnRAZtgnCmtAG3TWrkAH4hq5PDyus3Xosadg88dS0Es&_nc_zt=23&_nc_ht=scontent-cdg4-2.cdninstagram.com&edm=AM6HXa8EAAAA&_nc_gid=uKSsQs8gxM_wFWSAh6MQ1Q&oh=00_AfMW4aNJ2BvgHEi5_CdGQyDSTNiy_aEARFFQDdZGxRwgTA&oe=684A0265",
        "media_type": "CAROUSEL_ALBUM",
        "like_count": 20,
        "comments_count": 1,
        "caption": "Les produits laitiers..🥛 sont nos amis pour la vie…?\n\nEuh.. pas si sûr! 😆 \nA la naissance nous disposons d’une enzyme spéciale qui digère le lactose : la lactase. Or, avec le temps, cette enzyme diminue dans le corps et à l’âge adulte nous avons parfois du mal à digérer ce lait.. 🤢 \nCeci provoque des troubles digestifs mais aussi l’apparition possible de rhinites, sinusites, eczéma, migraines, troubles de la concentration ou encore douleurs articulaires.\nSans parler des hormones et antibiotiques administrés aux vaches que l’on retrouve dans le lait.. \n\nPersonnellement, le lactose augmente mon rythme cardiaque et me donne mal à la tête. As-tu remarqué certaines effets chez toi ? Peut-être n’as-tu pas encore fait le lien?\nPour s’en assurer, c’est très simple, abstiens-toi de produits laitiers pendant quelques jours et observe si tu ressens une différence ? \n\nJ’imagine ton interrogation maintenant : Ok mais je fais comment pour mon apport en calcium ? 🧐\nEt bien on en trouve dans un grand nombre d’aliments : \n- les fruits (orange, clémentine, kiwi..)\n- les légumes (courgettes, épinards, choux, choux vert frisé, brocolis, cresson, endives, haricots verts, persil)\n- les protéines (sardines en boites à l’huile d’olive avec leurs arêtes, anchois, maquereaux en boite à l’huile d’olive avec leurs arêtes, harengs, thon, cabillaud, saumon, huîtres, œufs, volailles)\n- les légumineuses (lentilles, haricots)\n- le riz, les flocons d’avoine, le sésame..\n- certaines eaux (type Hépar). \n\n Sans oublier les boissons végétales d’avoine, de riz, d’amande, de noisette.. car elles existent enrichies en calcium !\n\nAlors plus d’excuses pour limiter sa consommation de produits laitiers, d’autant plus si tu as remarqué un inconfort 😉\n\n(En photo, une idée de collation équilibrée qui t’apporte du calcium : clémentines, lait végétal d’avoine enrichi en calcium et flocons d’avoine au chocolat noir).",
        "shortcode": "CVK54njoMS5",
        "children": {
          "data": [
            {
              "media_url": "https://scontent-cdg4-2.cdninstagram.com/v/t51.29350-15/245926874_2751063841852831_6888063900884287343_n.jpg?stp=dst-jpg_e35_tt6&_nc_cat=103&ccb=1-7&_nc_sid=18de74&_nc_ohc=1Erew6vQQ7YQ7kNvwFM7mwb&_nc_oc=AdlSUjkYrpR65cIWflEaN4RqcDrsUFj8oC_XaaEPBK6QaxnRAZtgnCmtAG3TWrkAH4hq5PDyus3Xosadg88dS0Es&_nc_zt=23&_nc_ht=scontent-cdg4-2.cdninstagram.com&edm=AM6HXa8EAAAA&_nc_gid=uKSsQs8gxM_wFWSAh6MQ1Q&oh=00_AfMW4aNJ2BvgHEi5_CdGQyDSTNiy_aEARFFQDdZGxRwgTA&oe=684A0265",
              "id": "17913334979103397"
            },
            {
              "media_url": "https://scontent-cdg4-2.cdninstagram.com/v/t51.29350-15/246038313_553478535712483_3334042258048653058_n.jpg?stp=dst-jpg_e35_tt6&_nc_cat=109&ccb=1-7&_nc_sid=18de74&_nc_ohc=Zw6wGqAx2rUQ7kNvwFjWXid&_nc_oc=AdkXaXCQ0MjkO0dGuh-tjfIseDdcPh5Q_4EFi0hScPE8KjO7q72F5iMItGCM24NarRg1sm7lAnzaTWiD64eMnHPN&_nc_zt=23&_nc_ht=scontent-cdg4-2.cdninstagram.com&edm=AM6HXa8EAAAA&_nc_gid=uKSsQs8gxM_wFWSAh6MQ1Q&oh=00_AfPgH7_0O0hT_lMWEhFW217DzLlLnL4WeCaFhJQYYCrK0Q&oe=684A254E",
              "id": "18174032053083340"
            },
            {
              "media_url": "https://scontent-cdg4-1.cdninstagram.com/v/t51.29350-15/246423400_158353489838503_1597809439038490057_n.jpg?stp=dst-jpg_e35_tt6&_nc_cat=108&ccb=1-7&_nc_sid=18de74&_nc_ohc=kOSqBrEUNSsQ7kNvwH1Y4y1&_nc_oc=AdlevlLPPoB5Mm-bT-NvxbJ4FCU_rJHF0r5K7MF4QlYWo13VEAjuFdi3YmlLjozILucn3W-8Vq6dnR4V5UPPmx8w&_nc_zt=23&_nc_ht=scontent-cdg4-1.cdninstagram.com&edm=AM6HXa8EAAAA&_nc_gid=uKSsQs8gxM_wFWSAh6MQ1Q&oh=00_AfMtiVp5oRxinWEthckpJcTH3xiwU4sbVpWSAI3yBGyO6Q&oe=684A09ED",
              "id": "17943101794612365"
            }
          ]
        },
        "timestamp": "2021-10-18T12:42:57+0000",
        "id": "18258240184031778"
      }
    }
  ],
  "pageInfo": {
    "pageCount": 20,
    "page": 19,
    "total": 99,
    "pageSize": 5
  }
}