{
  "nodes": [
    {
      "feedJSON": {
        "media_url": "https://scontent-cdg4-2.cdninstagram.com/o1/v/t16/f2/m82/AQO_HqBSPITgHWJwO_vgsm4K3WbJTmyFBeCgWrdPAcc7r98SSX1r34op54BAJCNCVr1I9yjAk8yxA9znxDb0F6p_86TJT9GY-CLLn_0.mp4?efg=eyJ2ZW5jb2RlX3RhZyI6InZ0c192b2RfdXJsZ2VuLmNsaXBzLnVua25vd24tQzMuNzIwLmRhc2hfYmFzZWxpbmVfMV92MSJ9&_nc_ht=scontent-cdg4-2.cdninstagram.com&edm=AM6HXa8EAAAA&_nc_gid=8kgyB1Pk2a030Lir7Nuc9Q&_nc_cat=102&_nc_oc=Adm2_4CKnf87uMI98BMQs4EYIrdRh2XBbZjaoKaIU1_dZx9UgUKdUZTadOnNxTEX7jodDjwK7u5Oiy3yQ8BegS8X&vs=923855745624741_3516652802&_nc_vs=HBksFQIYT2lnX3hwdl9yZWVsc19wZXJtYW5lbnRfcHJvZC80RDQ2RkMyMUMzRjg3NUY1MDI3MzdBNzdFMjc0Mzc5QV92aWRlb19kYXNoaW5pdC5tcDQVAALIARIAFQIYOnBhc3N0aHJvdWdoX2V2ZXJzdG9yZS9HQjhMN1JPbTNRVThqZjhCQUxCSjJDaUN4MlJnYnFfRUFBQUYVAgLIARIAKAAYABsBiAd1c2Vfb2lsATEVAAAmrriSrMrrikAVAigCQzMsF0BCogxJul41GBJkYXNoX2Jhc2VsaW5lXzFfdjERAHUAZeadAQA%3D&ccb=9-4&oh=00_AfO5j0QUANvGZSZT7YxXADi6AFcIL75FKGFMWGqtFS6Obw&oe=68461AD2&_nc_sid=1d576d",
        "media_type": "VIDEO",
        "thumbnail_url": "https://scontent-cdg4-1.cdninstagram.com/v/t51.36329-15/335543708_3263182560639674_8547758887067088887_n.jpg?stp=dst-jpg_e35_tt6&_nc_cat=104&ccb=1-7&_nc_sid=18de74&_nc_ohc=NzCvHnjGfnsQ7kNvwETr8Mq&_nc_oc=AdkawJWdKEOqPYKZB39ipYFJiCuynX4ST5CAkQBneP5EFkCSIgDk20fKEWIRhNYEwTvEtWm8zj6d8xiqeNYOyWeo&_nc_zt=23&_nc_ht=scontent-cdg4-1.cdninstagram.com&edm=AM6HXa8EAAAA&_nc_gid=8kgyB1Pk2a030Lir7Nuc9Q&oh=00_AfOIi4yS6xr1nxa1vIPQZJSVjQcpt_svxMwGv8gglQ1A9w&oe=6849FE8F",
        "like_count": 16,
        "comments_count": 3,
        "caption": "Ma recette de cookies 🍪 au chocolat et flocons d’avoine 😋 \n\nIngrédients pour 20 biscuits :\n- 120 g de flocons d’avoine \n- 240 g de farine (ici 120g de petit épeautre complet/ 120g de blé T45)\n- 2 oeufs \n- 100 g de chocolat noir concassé (ou en pépites)\n- 150 g de sucre de canne complet\n- 70 g d’huile de coco \n- 1 sachet de levure chimique \n- 1 sachet de sucre vanillé \n\nMélanger tous les ingrédients à la main ou grâce à un robot pétrisseur.\nFaçonner des petites boules à aplatir légèrement sur une plaque recouverte de papier cuisson. \nEnfourner 12 minutes à 180 degrés. \n\nEt enfin régalez-vous 😋 !\n\n.\n.\n.\n\nJe m’appelle Laure et je suis Naturopathe Iridologue.\nJe vous accompagne et vous donne les clés pour retrouver votre santé et votre bien-être au naturel 🌱.\n\nN’hésitez pas à réserver une consultation ou un appel découverte offert ici : https://laurenaturo.fr\n\n C’est avec plaisir et bienveillance que je vous accompagnerai !\n\nA bientôt, \n\nLaure",
        "shortcode": "CpvJIC-DB81",
        "timestamp": "2023-03-13T16:57:58+0000",
        "id": "18133254037290461"
      }
    },
    {
      "feedJSON": {
        "media_url": "https://scontent-cdg4-2.cdninstagram.com/v/t51.29350-15/334287342_1161474961179166_8562476716650320582_n.jpg?stp=dst-jpg_e35_tt6&_nc_cat=103&ccb=1-7&_nc_sid=18de74&_nc_ohc=FvvLH00D9_0Q7kNvwFS8RIZ&_nc_oc=AdnxBai0F3EUxE8eA69kEp9Q823br7WGDAZeLwKzLaTDeahrz0IcqGbXqXLehJQsqXGeP95yzHGoVQMSZpbJHoLK&_nc_zt=23&_nc_ht=scontent-cdg4-2.cdninstagram.com&edm=AM6HXa8EAAAA&_nc_gid=8kgyB1Pk2a030Lir7Nuc9Q&oh=00_AfNYN6BPhbPC1cP5L34FqRrwHbV_BtzxkEbo28uzPjgf-Q&oe=684A2BB1",
        "media_type": "IMAGE",
        "like_count": 21,
        "comments_count": 1,
        "caption": "A méditer 😉\n\n………….\n\nJe m’appelle Laure et je suis Naturopathe Iridologue.\nJe vous accompagne et vous donne les clés pour retrouver votre santé et votre bien-être au naturel 🌱.\n\nN’hésitez pas à réserver une consultation ou un appel découverte offert ici : https://laurenaturo.fr\n\n C’est avec plaisir et bienveillance que je vous accompagnerai !\n\nA bientôt, \n\nLaure",
        "shortcode": "CpdJ0pJIGix",
        "timestamp": "2023-03-06T17:16:26+0000",
        "id": "18257453725120505"
      }
    },
    {
      "feedJSON": {
        "media_url": "https://scontent-cdg4-3.cdninstagram.com/v/t51.29350-15/333875384_618341510305449_4160979164858011090_n.jpg?stp=dst-jpg_e35_tt6&_nc_cat=106&ccb=1-7&_nc_sid=18de74&_nc_ohc=bqB4qpd0rlAQ7kNvwEa90Nc&_nc_oc=Admr_BXBjl0lxs_J-R-yoWprLPOtnAxvPdCriDLQX3rbmIM84b9yaAJgS7osn71r9y0Oldm5qWa10gV9VCDC-Rkt&_nc_zt=23&_nc_ht=scontent-cdg4-3.cdninstagram.com&edm=AM6HXa8EAAAA&_nc_gid=8kgyB1Pk2a030Lir7Nuc9Q&oh=00_AfND_V6u41i2XJ6lEE3O60UmbDsyR5t6PtUjSF5EdRRHzg&oe=684A348D",
        "media_type": "CAROUSEL_ALBUM",
        "like_count": 17,
        "comments_count": 3,
        "caption": "La cohérence cardiaque 😌\n\nLa cohérence cardiaque est accessible à tous et présente des bienfaits incroyables !\n\nJe la recommande souvent en consultation car elle est facile à mettre en place, même pour les personnes dont l’emploi du temps est très chargé.\n\nSimple et rapide, elle permet d’abaisser le niveau de stress en 5 minutes seulement.\nPratiquée régulièrement, vous en tirerez de nombreux bénéfices 💪 \n\nJe vous laisse découvrir ce post ! \n\nBonne lecture 📖\n.\n.\n.\nJe m’appelle Laure et je suis Naturopathe Iridologue.\nJe vous accompagne et vous donne les clés pour retrouver votre santé et votre bien-être au naturel 🌱.\n\nN’hésitez pas à réserver une consultation ou un appel découverte offert ici : https://laurenaturo.fr\n\n C’est avec plaisir et bienveillance que je vous accompagnerai !\n\nA bientôt, \n\nLaure",
        "shortcode": "CpQPPqsIbBy",
        "children": {
          "data": [
            {
              "media_url": "https://scontent-cdg4-3.cdninstagram.com/v/t51.29350-15/333875384_618341510305449_4160979164858011090_n.jpg?stp=dst-jpg_e35_tt6&_nc_cat=106&ccb=1-7&_nc_sid=18de74&_nc_ohc=bqB4qpd0rlAQ7kNvwEa90Nc&_nc_oc=Admr_BXBjl0lxs_J-R-yoWprLPOtnAxvPdCriDLQX3rbmIM84b9yaAJgS7osn71r9y0Oldm5qWa10gV9VCDC-Rkt&_nc_zt=23&_nc_ht=scontent-cdg4-3.cdninstagram.com&edm=AM6HXa8EAAAA&_nc_gid=8kgyB1Pk2a030Lir7Nuc9Q&oh=00_AfND_V6u41i2XJ6lEE3O60UmbDsyR5t6PtUjSF5EdRRHzg&oe=684A348D",
              "id": "18024952243482698"
            },
            {
              "media_url": "https://scontent-cdg4-1.cdninstagram.com/v/t51.29350-15/334109458_3178759439088955_9163231448051058911_n.jpg?stp=dst-jpg_e35_tt6&_nc_cat=102&ccb=1-7&_nc_sid=18de74&_nc_ohc=RVQgMQLe5z8Q7kNvwFEv02F&_nc_oc=Adk0JuLyG81CNx96TZXMBddQbfHIKoVJ3n2PM-zOe0fbIhXdHQ3oEIp85gE37SMX_DKHpRHZcYwN9g77Qz0XGlYb&_nc_zt=23&_nc_ht=scontent-cdg4-1.cdninstagram.com&edm=AM6HXa8EAAAA&_nc_gid=8kgyB1Pk2a030Lir7Nuc9Q&oh=00_AfPuVU2zEwDuh3uLWDApNIEJeGXXGJZCLCo5jFaWiKh92g&oe=684A01AD",
              "id": "18267158551186565"
            },
            {
              "media_url": "https://scontent-cdg4-1.cdninstagram.com/v/t51.29350-15/333925376_598803452262955_2340543428511030209_n.jpg?stp=dst-jpg_e35_tt6&_nc_cat=108&ccb=1-7&_nc_sid=18de74&_nc_ohc=nKi6eAtoWhEQ7kNvwGFA4wG&_nc_oc=AdkAkYvr3rqET9wqwKn9hGuSVhsQvNtPnc5C4CxBrgIEOZjZ7ps5Kw_mnTXjEA62ci3R2I2Zp6pqJElOrlCjQuBk&_nc_zt=23&_nc_ht=scontent-cdg4-1.cdninstagram.com&edm=AM6HXa8EAAAA&_nc_gid=8kgyB1Pk2a030Lir7Nuc9Q&oh=00_AfO2lk9wnbccQ_Ybk9Wf0QhWRKtczQnz-SeijBbnftkzuQ&oe=684A143C",
              "id": "17945199164540485"
            },
            {
              "media_url": "https://scontent-cdg4-3.cdninstagram.com/v/t51.29350-15/334140995_537475205036094_8830411796426692184_n.jpg?stp=dst-jpg_e35_tt6&_nc_cat=110&ccb=1-7&_nc_sid=18de74&_nc_ohc=Wi9fFIB9qI8Q7kNvwFR8ZXX&_nc_oc=Adk4HemPjYDznXG_0-JwDpRMuICJRxrWLIvCjeqLRlnY2Q7oFvR1VqUYFsy9Y5Wm94NSt4QiFRr3k2ioh9Qgc5xu&_nc_zt=23&_nc_ht=scontent-cdg4-3.cdninstagram.com&edm=AM6HXa8EAAAA&_nc_gid=8kgyB1Pk2a030Lir7Nuc9Q&oh=00_AfNGI7vqprlDHiLWv7PrghxK9gbm36ixCMoFoggSyElEUQ&oe=684A179A",
              "id": "17924907956576409"
            }
          ]
        },
        "timestamp": "2023-03-01T16:53:41+0000",
        "id": "17931168917636564"
      }
    },
    {
      "feedJSON": {
        "media_url": "https://scontent-cdg4-1.cdninstagram.com/v/t51.29350-15/324388887_207829331627974_1836664329560857443_n.jpg?stp=dst-jpg_e35_tt6&_nc_cat=104&ccb=1-7&_nc_sid=18de74&_nc_ohc=M84-YU-_mtQQ7kNvwE1dk0s&_nc_oc=Adn2cDltRz6E11xoSEjb4jsNd0xTxOIPol1HyX8GTNeGoEEC_7OOL3IaGhF4AEIYTWeMXEu6DVHyZBXiM-u5dcqj&_nc_zt=23&_nc_ht=scontent-cdg4-1.cdninstagram.com&edm=AM6HXa8EAAAA&_nc_gid=8kgyB1Pk2a030Lir7Nuc9Q&oh=00_AfO9fH6hiUUZowVY8TdrDPJDpqJ3j2S-odkfSVBKMn502g&oe=684A14AC",
        "media_type": "IMAGE",
        "like_count": 24,
        "comments_count": 1,
        "caption": "- Votre cabinet de Naturopathie - \n\nC’est ici que je vous accueille dans l’écoute et la bienveillance du lundi au samedi midi ✨\n\nC’est un lieu qui se veut paisible, doux et accueillant où je suis ravie de vous retrouver pour vous accompagner vers le chemin de la santé 🌱\n\nPrenez-soin de vous 🙏 car la personne la plus importante dans votre vie, c’est tout d’abord vous 🌸 ! \n\nPour prendre RDV et pour réserver ton appel découverte gratuit c’est ici : https://www.crenolib.fr/prendre-rdv/78608_naturopathe-et-iridologue-a-baron\n\nJe vous reçois également en visio du lundi au samedi midi.\n\nÀ bientôt,\n\nLaure",
        "shortcode": "CnPgKiJqn2d",
        "timestamp": "2023-01-10T16:59:30+0000",
        "id": "18309981046076564"
      }
    },
    {
      "feedJSON": {
        "media_url": "https://scontent-cdg4-2.cdninstagram.com/v/t51.29350-15/323798996_152728920872876_4303757137619573524_n.jpg?stp=dst-jpg_e35_tt6&_nc_cat=109&ccb=1-7&_nc_sid=18de74&_nc_ohc=BKfUtsn0_6cQ7kNvwHi6K6o&_nc_oc=AdlYpagGvhwi2ry916PeMyQHExH_PSfshBCv4vEyRr_7ClATCLP0bf14tilj4v-AvrgMsjAhpoAYf8r-REy20FZC&_nc_zt=23&_nc_ht=scontent-cdg4-2.cdninstagram.com&edm=AM6HXa8EAAAA&_nc_gid=8kgyB1Pk2a030Lir7Nuc9Q&oh=00_AfPerts8L5YkeTERaOpUfxe1ANG-OJv1JtBRWWmhUimufQ&oe=684A15AF",
        "media_type": "IMAGE",
        "like_count": 25,
        "comments_count": 2,
        "caption": "En ce début de nouvelle année, je te donne une bonne nouvelle ! \n\n+ de 50 mutuelles participent aujourd’hui au remboursement de ta séance de Naturopathie 🌱\n\nVoici la liste non exhaustive des mutuelles concernées : \nAbela, Adrea mutuelle, AG2R la mondiale, Allianz France, Alptis, Amavie, Amellis, Apivia (groupe macif), Apreva, April, Asetys, Assurances PSI, Assurema, Aviva Assurances, BTP prévoyance, Cap vert, Cardif (BNP Paribas), CCMO mutuelle, Cegema Assurance (Swiss Life), Choralis, CIC, Crédit Agricole Assurance (PACIFICA), Crédit Mutuel, ECA Assurances, EOVI MCD Mutuelle, GAN, Générali, Gras Savoye, Groupama, Groupe Humanis, Harmonie Mutuelles, Ipselia Sud-Ouest Mutualité, La Compagnie des Femmes, Libre Assurance, MAAF, MACIF, Malakoff Mederic, Math, Matmut, MFIF, MGEN, Miltis, MNH, MNT, Mutuelle des Pays de Vilaine, Mutuelle Générale, Mutuelle verte, Novia Santé, Swiss Life Prévoyance et santé, Unéo, Viasanté Mutuelle. \n\nAlors n’hésite plus pour prendre soin de toi 😉\n.\n.\n.\nJe m’appelle Laure et je suis Naturopathe Iridologue.\nJe vous accompagne et vous donne les clés pour retrouver votre santé et votre bien-être au naturel 🌱.\n\nN’hésitez pas à réserver une consultation ou un appel découverte offert ici : https://laurenaturo.fr\n\n C’est avec plaisir et bienveillance que je vous accompagnerai !\n\nA bientôt, \n\nLaure",
        "shortcode": "Cm9fGiAK2_w",
        "timestamp": "2023-01-03T17:03:54+0000",
        "id": "17973128353966284"
      }
    }
  ],
  "pageInfo": {
    "pageCount": 20,
    "page": 7,
    "total": 99,
    "pageSize": 5
  }
}