{
  "nodes": [
    {
      "feedJSON": {
        "media_url": "https://scontent-cdg4-3.cdninstagram.com/v/t51.29350-15/299881139_765683404638336_4308222482077719545_n.jpg?stp=dst-jpg_e35_tt6&_nc_cat=111&ccb=1-7&_nc_sid=18de74&_nc_ohc=7FwN-5293cUQ7kNvwHU9amN&_nc_oc=AdnY-KhgUxTw4VqRpwYynQjs8aPu3k4Awqxr4-YX8kTtwH1N7HZoOWJeq0-EAzXePOT5CpGSELnztAQ0HE4Yg9F4&_nc_zt=23&_nc_ht=scontent-cdg4-3.cdninstagram.com&edm=AM6HXa8EAAAA&_nc_gid=Jxyk8iLhjOsd921zom1IKA&oh=00_AfO4CQk0vGwB9OA_6NcUXcdnxUi5ZbPXa_0lGoRM5ylsnA&oe=684A1AD7",
        "media_type": "CAROUSEL_ALBUM",
        "like_count": 37,
        "comments_count": 2,
        "caption": "Connais-tu l’impact de ton sommeil sur ton poids, tes fringales, tes pulsions alimentaires ? 🍕 \n\nAs-tu remarqué que tu n’avais pas envie des mêmes aliments lorsque tu dors bien et que tu te sens reposé(e) VS lorsque tu passes une nuit courte et/ou agitée ? \n\nJe te laisse défiler les slides, n’hésite pas à me faire part de tes expériences à ce sujet si cela te parle 😉\n\nBonne lecture ! \n\nLaure",
        "shortcode": "ChZ7R9-Igns",
        "children": {
          "data": [
            {
              "media_url": "https://scontent-cdg4-3.cdninstagram.com/v/t51.29350-15/299881139_765683404638336_4308222482077719545_n.jpg?stp=dst-jpg_e35_tt6&_nc_cat=111&ccb=1-7&_nc_sid=18de74&_nc_ohc=7FwN-5293cUQ7kNvwHU9amN&_nc_oc=AdnY-KhgUxTw4VqRpwYynQjs8aPu3k4Awqxr4-YX8kTtwH1N7HZoOWJeq0-EAzXePOT5CpGSELnztAQ0HE4Yg9F4&_nc_zt=23&_nc_ht=scontent-cdg4-3.cdninstagram.com&edm=AM6HXa8EAAAA&_nc_gid=Jxyk8iLhjOsd921zom1IKA&oh=00_AfO4CQk0vGwB9OA_6NcUXcdnxUi5ZbPXa_0lGoRM5ylsnA&oe=684A1AD7",
              "id": "17999171659490841"
            },
            {
              "media_url": "https://scontent-cdg4-3.cdninstagram.com/v/t51.29350-15/299709753_1094332354810463_7532122615752935582_n.jpg?stp=dst-jpg_e35_tt6&_nc_cat=110&ccb=1-7&_nc_sid=18de74&_nc_ohc=T-StEQDVZYUQ7kNvwGw_4mR&_nc_oc=Admldl-Gb8fMvoG-1B88USJpJZ7Htth2Wxap9VOSXOQR8suz6b15F-6gjnrkbfaILpEf5ijImifbR0Z5h-A6_gMx&_nc_zt=23&_nc_ht=scontent-cdg4-3.cdninstagram.com&edm=AM6HXa8EAAAA&_nc_gid=Jxyk8iLhjOsd921zom1IKA&oh=00_AfO867xI_LvdFIo0UgLb4rgu0CY1OgTT7_IwzJrfQOxhTQ&oe=684A21BB",
              "id": "17975790220646360"
            },
            {
              "media_url": "https://scontent-cdg4-1.cdninstagram.com/v/t51.29350-15/299691017_184118647447274_3108061320823155142_n.jpg?stp=dst-jpg_e35_tt6&_nc_cat=104&ccb=1-7&_nc_sid=18de74&_nc_ohc=EfnS7H5IK8wQ7kNvwEmRB4o&_nc_oc=AdmpGkOUZahvpdmmYT26ETFz0VRe97-jEdlWJ51aFy7RCdsRY7bIaMc54xNw_pi04ca_cgeIvmA9U_lJqv6AUPS6&_nc_zt=23&_nc_ht=scontent-cdg4-1.cdninstagram.com&edm=AM6HXa8EAAAA&_nc_gid=Jxyk8iLhjOsd921zom1IKA&oh=00_AfNLOx_m1SEYRJIu-GhshY8JH2RUrOV8ndNwP2aNLiP9Wg&oe=684A21C0",
              "id": "18314873629011132"
            },
            {
              "media_url": "https://scontent-cdg4-2.cdninstagram.com/v/t51.29350-15/300062518_375560404748784_3881194173533859708_n.jpg?stp=dst-jpg_e35_tt6&_nc_cat=100&ccb=1-7&_nc_sid=18de74&_nc_ohc=bbGL49tAfuAQ7kNvwHGpgnD&_nc_oc=AdnYtdVSv1evrNOK-NH9uKaW1iG1yiXczLKKha78pi--EDQAeP0VsHVFEuz-EtzHAUHRFl_u3bbWm8-Frqfgc-71&_nc_zt=23&_nc_ht=scontent-cdg4-2.cdninstagram.com&edm=AM6HXa8EAAAA&_nc_gid=Jxyk8iLhjOsd921zom1IKA&oh=00_AfNqyAV-M4pbk19hG-BCDHfzL20fwSV8zF2rzGp98lp4bQ&oe=684A1508",
              "id": "17925766973345888"
            },
            {
              "media_url": "https://scontent-cdg4-2.cdninstagram.com/v/t51.29350-15/299987770_438149818262391_176866963727402507_n.jpg?stp=dst-jpg_e35_tt6&_nc_cat=107&ccb=1-7&_nc_sid=18de74&_nc_ohc=Kp9CY0L9oDsQ7kNvwG9Ikhu&_nc_oc=AdnsY2-d8odxERTfIeQAnb8YpSlqWKmHNFR7CLMyu9t_OkKs_JrBXbqDymTaD7rJ9_4E5p7J0eNZ3HB7aV7-RBSU&_nc_zt=23&_nc_ht=scontent-cdg4-2.cdninstagram.com&edm=AM6HXa8EAAAA&_nc_gid=Jxyk8iLhjOsd921zom1IKA&oh=00_AfP8WpYHTeh6KUd-VpQG9fimozOzrXwzVjljIj_JlJsbIA&oe=684A332D",
              "id": "17978291383616101"
            },
            {
              "media_url": "https://scontent-cdg4-2.cdninstagram.com/v/t51.29350-15/299906682_1263496844401359_3841551497098394550_n.jpg?stp=dst-jpg_e35_tt6&_nc_cat=107&ccb=1-7&_nc_sid=18de74&_nc_ohc=Xfy65C93PwgQ7kNvwG-e7Ko&_nc_oc=AdnF7uwC1aQNd4Y6laie5rZugOVVIXEyVjKVo_SKQPqrvHZJxPYGHGYzpap1ocZBlnGXj-gznXENYRSYh0diEA6z&_nc_zt=23&_nc_ht=scontent-cdg4-2.cdninstagram.com&edm=AM6HXa8EAAAA&_nc_gid=Jxyk8iLhjOsd921zom1IKA&oh=00_AfNBTwZtB62nJ1UENIzBVzRUo7V9XPtAZelFF5vo4JJ6AA&oe=684A303C",
              "id": "17968276648784127"
            },
            {
              "media_url": "https://scontent-cdg4-3.cdninstagram.com/v/t51.29350-15/299997578_1188596945325161_8596234113694183845_n.jpg?stp=dst-jpg_e35_tt6&_nc_cat=111&ccb=1-7&_nc_sid=18de74&_nc_ohc=jrXdULNCLNgQ7kNvwGkQnXG&_nc_oc=AdmO9z52huoJxCxYuzOvUnzo6J-VcpU-h8b66JzLajVCgSPqV9ZT2T8aayuueJNjt-gX4ZnrbMVY5KLXqvg3QOJA&_nc_zt=23&_nc_ht=scontent-cdg4-3.cdninstagram.com&edm=AM6HXa8EAAAA&_nc_gid=Jxyk8iLhjOsd921zom1IKA&oh=00_AfN2hpYdKe-Og7-_zH_GwRm9AhCoEmLOi1WJW0Qxe_9SpA&oe=684A2060",
              "id": "18179313415229222"
            }
          ]
        },
        "timestamp": "2022-08-18T15:00:30+0000",
        "id": "18015008581430906"
      }
    },
    {
      "feedJSON": {
        "media_url": "https://scontent-cdg4-2.cdninstagram.com/v/t51.29350-15/295787007_1264921510977439_5694454154602962909_n.jpg?stp=dst-jpg_e35_tt6&_nc_cat=101&ccb=1-7&_nc_sid=18de74&_nc_ohc=aCvLDbr232UQ7kNvwFoRsDh&_nc_oc=Adl_wj6wqMkGqLgwFYS4vUFM_uJbrIjaW_023yYqbBcglpptLO33jl0xxE9LYFe6PYjFVls9mGG47Ixy0QryF7g4&_nc_zt=23&_nc_ht=scontent-cdg4-2.cdninstagram.com&edm=AM6HXa8EAAAA&_nc_gid=Jxyk8iLhjOsd921zom1IKA&oh=00_AfNLtzNeFZLp9t2yFxAKAmJ9Q_zUFEPNlmMZvdrzAZj_Og&oe=684A1D44",
        "media_type": "CAROUSEL_ALBUM",
        "like_count": 171,
        "comments_count": 18,
        "caption": "Le gras c’est la vie ☀️\n\nNon non ce n’est pas une blague ☺️ le bon gras est essentiel au fonctionnement de notre organisme !\n\nOn a longtemps pointé du doigt le gras et limité ses apports mais ce n’est pas sans conséquences..\n\nAujourd’hui 80% de la population est carencée en oméga 3. Notre corps ne sachant pas les synthétiser, seule l’alimentation peut nous les apporter. \n\nJe te laisse découvrir les slides 📖 \n\nEt toi, as-tu aussi diabolisé le gras, ou peut-être est-ce toujours le cas ?",
        "shortcode": "CgepH8SIzqq",
        "children": {
          "data": [
            {
              "media_url": "https://scontent-cdg4-2.cdninstagram.com/v/t51.29350-15/295787007_1264921510977439_5694454154602962909_n.jpg?stp=dst-jpg_e35_tt6&_nc_cat=101&ccb=1-7&_nc_sid=18de74&_nc_ohc=aCvLDbr232UQ7kNvwFoRsDh&_nc_oc=Adl_wj6wqMkGqLgwFYS4vUFM_uJbrIjaW_023yYqbBcglpptLO33jl0xxE9LYFe6PYjFVls9mGG47Ixy0QryF7g4&_nc_zt=23&_nc_ht=scontent-cdg4-2.cdninstagram.com&edm=AM6HXa8EAAAA&_nc_gid=Jxyk8iLhjOsd921zom1IKA&oh=00_AfNLtzNeFZLp9t2yFxAKAmJ9Q_zUFEPNlmMZvdrzAZj_Og&oe=684A1D44",
              "id": "17939597288236743"
            },
            {
              "media_url": "https://scontent-cdg4-3.cdninstagram.com/v/t51.29350-15/295966382_808792486953991_5414448566502193659_n.jpg?stp=dst-jpg_e35_tt6&_nc_cat=110&ccb=1-7&_nc_sid=18de74&_nc_ohc=tgWN6xJm36MQ7kNvwEsSmz9&_nc_oc=AdmtAaEgKPvc1PvzpQ8wjLZV0Qgo4M0JVKAHlDpEzK_DPdJhrm0Zh60toyIID52F46P6TuipKOJ4r_1Kozqq_YDy&_nc_zt=23&_nc_ht=scontent-cdg4-3.cdninstagram.com&edm=AM6HXa8EAAAA&_nc_gid=Jxyk8iLhjOsd921zom1IKA&oh=00_AfODYOPVDHPOA5lSNYPf_8Vi5bZkrpgUPHr9oLBHqYkVTA&oe=684A33D0",
              "id": "17929769837275802"
            },
            {
              "media_url": "https://scontent-cdg4-2.cdninstagram.com/v/t51.29350-15/295577942_1257184388354310_2777416158055749665_n.jpg?stp=dst-jpg_e35_tt6&_nc_cat=109&ccb=1-7&_nc_sid=18de74&_nc_ohc=JCZPoju26usQ7kNvwEJ-d4v&_nc_oc=AdmuvXRjB0WOlPQ1O9pFTmAGSScXOVB8y1qdt_9L6_i1It70_FeX0sz0RVJevKkdAhLGa-G-AaXSYvG2MjVwq5it&_nc_zt=23&_nc_ht=scontent-cdg4-2.cdninstagram.com&edm=AM6HXa8EAAAA&_nc_gid=Jxyk8iLhjOsd921zom1IKA&oh=00_AfOlULrU2pGKidsQWUZTFIgfEKIiZvOminzuA65etq8faA&oe=684A2CC4",
              "id": "17928258071434156"
            },
            {
              "media_url": "https://scontent-cdg4-1.cdninstagram.com/v/t51.29350-15/295683083_3148700825396834_7331030492801524316_n.jpg?stp=dst-jpg_e35_tt6&_nc_cat=102&ccb=1-7&_nc_sid=18de74&_nc_ohc=_9eJFsdOn2QQ7kNvwF7KbVq&_nc_oc=AdncZGM1SGOD9SU0IgKxHNKlhqcjR8f5UwqJJaNiz8y1sEiVEpUasTXIxieDW1apkPB9e1pg_z22w9A66-3ZPukK&_nc_zt=23&_nc_ht=scontent-cdg4-1.cdninstagram.com&edm=AM6HXa8EAAAA&_nc_gid=Jxyk8iLhjOsd921zom1IKA&oh=00_AfNhnNgJud7a40qjIplT8b8ylVsvC266yxqIaBvEsSlA_Q&oe=684A2BB5",
              "id": "18187137568202351"
            },
            {
              "media_url": "https://scontent-cdg4-1.cdninstagram.com/v/t51.29350-15/295741275_1094130161231828_8465744151856691212_n.jpg?stp=dst-jpg_e35_tt6&_nc_cat=102&ccb=1-7&_nc_sid=18de74&_nc_ohc=mfDq8ZFKrlsQ7kNvwFOaXKW&_nc_oc=AdnN1lcX4q_WwU--Gcr6UfFgtdkRF6HSAbCcfjq9vTj_xz4nz4ZbCJTP0xfARgqH4XUvovTo6u9KHHnnlJmYNeUh&_nc_zt=23&_nc_ht=scontent-cdg4-1.cdninstagram.com&edm=AM6HXa8EAAAA&_nc_gid=Jxyk8iLhjOsd921zom1IKA&oh=00_AfMNa8uk0bWRakmlRDExbiXhxVL9zSHAvJm-JhD6qThNOA&oe=684A0DE9",
              "id": "18022130860403741"
            },
            {
              "media_url": "https://scontent-cdg4-3.cdninstagram.com/v/t51.29350-15/295518107_645292523105166_5056482546305267960_n.jpg?stp=dst-jpg_e35_tt6&_nc_cat=111&ccb=1-7&_nc_sid=18de74&_nc_ohc=3Rikn_N2sJsQ7kNvwH4aZ65&_nc_oc=AdkvpgkzhNwOubvq7QUF7cMOepO460Wrymj5RBObSnk6Ug712buQRbJ40AJfmN7p8fsfAk0s4nqJ63ERdrshsgVI&_nc_zt=23&_nc_ht=scontent-cdg4-3.cdninstagram.com&edm=AM6HXa8EAAAA&_nc_gid=Jxyk8iLhjOsd921zom1IKA&oh=00_AfOwdUYyKhIWIJ9-mTK1bEReiXDAZ3IWH67kMZaUWPDSlA&oe=684A23A5",
              "id": "17929142306387289"
            },
            {
              "media_url": "https://scontent-cdg4-3.cdninstagram.com/v/t51.29350-15/295513509_204483745236791_4533151419950188033_n.jpg?stp=dst-jpg_e35_tt6&_nc_cat=111&ccb=1-7&_nc_sid=18de74&_nc_ohc=a4rNeY6W9qQQ7kNvwEzcHB5&_nc_oc=Adngr_DzkNH3UMDZRQg_JYNv5KIHXVYSYRcHmw8S0m8FSEWFH7YkVGVFbu0UpBZXX8fBurN9HYSo9XI6S1KOJlFe&_nc_zt=23&_nc_ht=scontent-cdg4-3.cdninstagram.com&edm=AM6HXa8EAAAA&_nc_gid=Jxyk8iLhjOsd921zom1IKA&oh=00_AfPaIywONcLYTDUcbZfGoJYU0mM-7C1kqdjhwP7jVPccUA&oe=684A26F9",
              "id": "17870130329706133"
            },
            {
              "media_url": "https://scontent-cdg4-1.cdninstagram.com/v/t51.29350-15/295618164_458357439154221_6440081368493652473_n.jpg?stp=dst-jpg_e35_tt6&_nc_cat=105&ccb=1-7&_nc_sid=18de74&_nc_ohc=q5fLBBl24n0Q7kNvwGYe0s3&_nc_oc=AdmGY4qek9Ic6VvhU36bW8ggLzWhX-PURcsyueyeO7mbZZ0T0D6sa4VPOynxjTbSVVeKqMF04qbejLERjgwqTlOC&_nc_zt=23&_nc_ht=scontent-cdg4-1.cdninstagram.com&edm=AM6HXa8EAAAA&_nc_gid=Jxyk8iLhjOsd921zom1IKA&oh=00_AfP0-KlltntBWyd4F71NgNwokJYf-VZLjqjEKt15X9dYoA&oe=684A0D6C",
              "id": "17949657395073193"
            }
          ]
        },
        "timestamp": "2022-07-26T14:26:39+0000",
        "id": "17965964788751844"
      }
    },
    {
      "feedJSON": {
        "media_url": "https://scontent-cdg4-2.cdninstagram.com/v/t51.29350-15/274600941_161920816184419_1511068552389975601_n.jpg?stp=dst-jpg_e35_tt6&_nc_cat=100&ccb=1-7&_nc_sid=18de74&_nc_ohc=0lNS1l6lug4Q7kNvwE4XGEU&_nc_oc=AdlzWX2xddZptv-dNdiZ6C-F0xd3Nq3naDdsB0cVRvTs7EJJYVTGx7FT6d0qazKblVfUZ4RwuogHgfpWXw3n6zYE&_nc_zt=23&_nc_ht=scontent-cdg4-2.cdninstagram.com&edm=AM6HXa8EAAAA&_nc_gid=Jxyk8iLhjOsd921zom1IKA&oh=00_AfPNecBOnuDmC8L0qqJ2z6SuxkXBaedqAzYi8rd3ewaxrA&oe=684A2339",
        "media_type": "CAROUSEL_ALBUM",
        "like_count": 75,
        "comments_count": 4,
        "caption": "Pourquoi est-ce que l’on digère mal un steak frites ? 🥩 🍟 \n\nJe t’en dis plus sur l’association des protéines et féculents dans ce post !\n \nAs-tu déjà fait le lien sur l’impact que cela avait sur ta digestion ? \n\nMoi clairement oui… J’ai encore mon repas de midi sur l’estomac 😅 (viande + pâtes…!). \n\nBonne lecture 📖 !\n\nLaure",
        "shortcode": "CaXV2rSgVjn",
        "children": {
          "data": [
            {
              "media_url": "https://scontent-cdg4-2.cdninstagram.com/v/t51.29350-15/274600941_161920816184419_1511068552389975601_n.jpg?stp=dst-jpg_e35_tt6&_nc_cat=100&ccb=1-7&_nc_sid=18de74&_nc_ohc=0lNS1l6lug4Q7kNvwE4XGEU&_nc_oc=AdlzWX2xddZptv-dNdiZ6C-F0xd3Nq3naDdsB0cVRvTs7EJJYVTGx7FT6d0qazKblVfUZ4RwuogHgfpWXw3n6zYE&_nc_zt=23&_nc_ht=scontent-cdg4-2.cdninstagram.com&edm=AM6HXa8EAAAA&_nc_gid=Jxyk8iLhjOsd921zom1IKA&oh=00_AfPNecBOnuDmC8L0qqJ2z6SuxkXBaedqAzYi8rd3ewaxrA&oe=684A2339",
              "id": "17898889409467434"
            },
            {
              "media_url": "https://scontent-cdg4-3.cdninstagram.com/v/t51.29350-15/274573929_5243619345671582_3373321064360971400_n.jpg?stp=dst-jpg_e35_tt6&_nc_cat=106&ccb=1-7&_nc_sid=18de74&_nc_ohc=quNVurPpnBAQ7kNvwE4rJ2g&_nc_oc=Adn6F3C6Vufn1dj7tPEw6jPR8DQpcEoddw8UFQ6VnfkKe3bMjTT_crK9kgeyPSJYL-y6IRJJLGmQAtaEB2pfSSbn&_nc_zt=23&_nc_ht=scontent-cdg4-3.cdninstagram.com&edm=AM6HXa8EAAAA&_nc_gid=Jxyk8iLhjOsd921zom1IKA&oh=00_AfOQl0sQevBzKsUDy5ZvVS_XRRkCLhMKsTJ_IqbXmVjIsA&oe=684A32C5",
              "id": "17951759431661865"
            },
            {
              "media_url": "https://scontent-cdg4-1.cdninstagram.com/v/t51.29350-15/274681954_993675917942009_3044016994031746336_n.jpg?stp=dst-jpg_e35_tt6&_nc_cat=104&ccb=1-7&_nc_sid=18de74&_nc_ohc=hqRjnp5WaiQQ7kNvwGVYn2Q&_nc_oc=AdkZwkbE9tdfpFiSjgboWwtlmuCpxDqsUHvz2aMuTjN6SNJQZ6yv90DIuD-j_VUQ6OnydMnaxa43N79nPgBxzMRi&_nc_zt=23&_nc_ht=scontent-cdg4-1.cdninstagram.com&edm=AM6HXa8EAAAA&_nc_gid=Jxyk8iLhjOsd921zom1IKA&oh=00_AfN8qmRib8fFQ8liDdGuYTfnFJZ1gpecSIlzWoDVWk4_RQ&oe=684A1B9C",
              "id": "18283003735040154"
            },
            {
              "media_url": "https://scontent-cdg4-1.cdninstagram.com/v/t51.29350-15/274634359_139107565263923_736744799245026889_n.jpg?stp=dst-jpg_e35_tt6&_nc_cat=105&ccb=1-7&_nc_sid=18de74&_nc_ohc=FFMUAMGtTgAQ7kNvwGxaA4g&_nc_oc=Adnc3S88aNDWmld1Mx4pluhHX49ymoLFhg0g8aGIjres1UqwjPK-QUekfNoQ-MC5YllJHa2hproPyAF7k3HLR9DJ&_nc_zt=23&_nc_ht=scontent-cdg4-1.cdninstagram.com&edm=AM6HXa8EAAAA&_nc_gid=Jxyk8iLhjOsd921zom1IKA&oh=00_AfOOSYqOlC0K7i-_BHhb9bL4MOSmUUnoOkb_rUzwFCdQYg&oe=684A0AEF",
              "id": "17945595379797711"
            }
          ]
        },
        "timestamp": "2022-02-24T15:15:13+0000",
        "id": "17888114753521901"
      }
    },
    {
      "feedJSON": {
        "media_url": "https://scontent-cdg4-3.cdninstagram.com/v/t51.29350-15/274257832_112518421240954_6097446311707741985_n.jpg?stp=dst-jpg_e35_tt6&_nc_cat=110&ccb=1-7&_nc_sid=18de74&_nc_ohc=BvdJFfN0k0AQ7kNvwH6yzSR&_nc_oc=AdkV5iTLl5e92eFk4rE_3Ndf9Z5GnUvBjT7D8l4sdgQv73V4RW6tZwNU3tYZMHW4jDdzS7woOchbrCdRlQjwykgG&_nc_zt=23&_nc_ht=scontent-cdg4-3.cdninstagram.com&edm=AM6HXa8EAAAA&_nc_gid=Jxyk8iLhjOsd921zom1IKA&oh=00_AfNQCoQ448Rne_od2dHwJ4lhIhe0-8TpPdwUGmXQR3Y5VA&oe=6849FD53",
        "media_type": "CAROUSEL_ALBUM",
        "like_count": 62,
        "comments_count": 10,
        "caption": "Les fruits au dessert 😋 !\n\nLes fruits sont de merveilleux aliments riches en vitamines et en fibres ! Mais voilà.. il vaut mieux éviter de les consommer à la fin du repas !\n\nN’as-tu jamais remarqué qu’ils pouvaient te procurer un inconfort au niveau digestif lors de leur prise en fin de repas ?\n\nJe te laisse découvrir ce post et me dire si toi aussi tu as déjà ressenti ces sensations !\n\nBonne lecture 📖 🍎 ! \n\nLaure",
        "shortcode": "CaPngfagdYN",
        "children": {
          "data": [
            {
              "media_url": "https://scontent-cdg4-3.cdninstagram.com/v/t51.29350-15/274257832_112518421240954_6097446311707741985_n.jpg?stp=dst-jpg_e35_tt6&_nc_cat=110&ccb=1-7&_nc_sid=18de74&_nc_ohc=BvdJFfN0k0AQ7kNvwH6yzSR&_nc_oc=AdkV5iTLl5e92eFk4rE_3Ndf9Z5GnUvBjT7D8l4sdgQv73V4RW6tZwNU3tYZMHW4jDdzS7woOchbrCdRlQjwykgG&_nc_zt=23&_nc_ht=scontent-cdg4-3.cdninstagram.com&edm=AM6HXa8EAAAA&_nc_gid=Jxyk8iLhjOsd921zom1IKA&oh=00_AfNQCoQ448Rne_od2dHwJ4lhIhe0-8TpPdwUGmXQR3Y5VA&oe=6849FD53",
              "id": "17925295475148437"
            },
            {
              "media_url": "https://scontent-cdg4-2.cdninstagram.com/v/t51.29350-15/274331279_923002635031758_1651479242097424245_n.jpg?stp=dst-jpg_e35_tt6&_nc_cat=109&ccb=1-7&_nc_sid=18de74&_nc_ohc=id_l18ZamcUQ7kNvwFR8QST&_nc_oc=Adl3Qbk1poVm50Ud4bpF318T4jqdn3BNolu7wxGmwgo6p6cEC0L86wuSE8vLT1Y-aUCkW1M36uahvvfhnMWIwtcu&_nc_zt=23&_nc_ht=scontent-cdg4-2.cdninstagram.com&edm=AM6HXa8EAAAA&_nc_gid=Jxyk8iLhjOsd921zom1IKA&oh=00_AfMEFaShSeP2XU0tCCEDh9ilOz1G7ddSR4Q233V0iCU8CQ&oe=684A15D9",
              "id": "18004002199392794"
            },
            {
              "media_url": "https://scontent-cdg4-2.cdninstagram.com/v/t51.29350-15/274472360_1384738021996977_8400423101423100372_n.jpg?stp=dst-jpg_e35_tt6&_nc_cat=107&ccb=1-7&_nc_sid=18de74&_nc_ohc=qW7ElPQtiBgQ7kNvwFoYpTy&_nc_oc=AdnmUHr796Ma_cxK5PMYH9KETVcwVPxHaQ3ioRiLO56UsTCR318z-huL8BVG4N_VeZHl4mqi0Vm9H343rZuo0ADv&_nc_zt=23&_nc_ht=scontent-cdg4-2.cdninstagram.com&edm=AM6HXa8EAAAA&_nc_gid=Jxyk8iLhjOsd921zom1IKA&oh=00_AfO0ETQv-OXum2IFZayHxpQo8vslLhfc-6gFDnbCHrJkEA&oe=684A1A07",
              "id": "18188779489086686"
            },
            {
              "media_url": "https://scontent-cdg4-1.cdninstagram.com/v/t51.29350-15/274644023_362645838792392_1125356000969918563_n.jpg?stp=dst-jpg_e35_tt6&_nc_cat=102&ccb=1-7&_nc_sid=18de74&_nc_ohc=z9pDKtsj1TQQ7kNvwG2ykpZ&_nc_oc=Adluhfb6VEBYtUbUboCYmo_BXrUN2aT_mp_P5x5u8yNTY65S49T6r_cVHmQalOEkx1Wzt9ZO26HoAdtdbZKilrVk&_nc_zt=23&_nc_ht=scontent-cdg4-1.cdninstagram.com&edm=AM6HXa8EAAAA&_nc_gid=Jxyk8iLhjOsd921zom1IKA&oh=00_AfM6E9j1PPhdOx_nf9vq4aokaooaRtNwvE3ddgxDJyeBUQ&oe=684A0CF8",
              "id": "18115875250279050"
            },
            {
              "media_url": "https://scontent-cdg4-2.cdninstagram.com/v/t51.29350-15/274354485_1011875079740663_8204024536193045823_n.jpg?stp=dst-jpg_e35_tt6&_nc_cat=107&ccb=1-7&_nc_sid=18de74&_nc_ohc=kbcTLiFdsKMQ7kNvwHMWdE8&_nc_oc=Adkh_QyK0ZK2-mCLgdJI0R3tNUV3dQ66YECx4B93XNjnBE1lQRK2LF83RE_OBpyYCKyFHXAiv3NUwhw31r3X_Y_3&_nc_zt=23&_nc_ht=scontent-cdg4-2.cdninstagram.com&edm=AM6HXa8EAAAA&_nc_gid=Jxyk8iLhjOsd921zom1IKA&oh=00_AfOCW-UAB3Mtw0YhVbPJgyDadXe-1BwKFTwaTUxifWWCXQ&oe=684A141A",
              "id": "17940654901779005"
            },
            {
              "media_url": "https://scontent-cdg4-1.cdninstagram.com/v/t51.29350-15/274369935_528834941805805_5018589785082464246_n.jpg?stp=dst-jpg_e35_tt6&_nc_cat=108&ccb=1-7&_nc_sid=18de74&_nc_ohc=VOScVf9s3LoQ7kNvwEv0Ovm&_nc_oc=AdnO41AJXbDfTC7tDDOucak9v0I8kkPYTxW2SKGuoftt26R0T_m-7pRxquDcLOxvdTrHisU08E0ULVXYF9uoazGo&_nc_zt=23&_nc_ht=scontent-cdg4-1.cdninstagram.com&edm=AM6HXa8EAAAA&_nc_gid=Jxyk8iLhjOsd921zom1IKA&oh=00_AfOB6PHh5wuefg7ODwxMCTJZYaLnzLE-0vQNvyGOBOCI1Q&oe=684A2BC0",
              "id": "17913728963498457"
            },
            {
              "media_url": "https://scontent-cdg4-3.cdninstagram.com/v/t51.29350-15/274303636_3171083413214495_277111114867894567_n.jpg?stp=dst-jpg_e35_tt6&_nc_cat=111&ccb=1-7&_nc_sid=18de74&_nc_ohc=Sf2kunXDY9MQ7kNvwGutqs_&_nc_oc=AdkD-IgTsYa5Ut3FiJgZK-lwcvXkOU0WvrzbvnOtWPuWPeWcc_nS3cQZsuJa4AadqSnz6jdRy70frSzu-tHR2XMZ&_nc_zt=23&_nc_ht=scontent-cdg4-3.cdninstagram.com&edm=AM6HXa8EAAAA&_nc_gid=Jxyk8iLhjOsd921zom1IKA&oh=00_AfNS7apTXfDe4ScrpLVE9hY6iuAaszWQCpvkdC6sSaVnoQ&oe=684A03BC",
              "id": "17935080469945933"
            }
          ]
        },
        "timestamp": "2022-02-21T15:15:33+0000",
        "id": "17928939160970141"
      }
    },
    {
      "feedJSON": {
        "media_url": "https://scontent-cdg4-3.cdninstagram.com/v/t51.29350-15/266848562_657167155442495_7369271009279098863_n.jpg?stp=dst-jpg_e35_tt6&_nc_cat=111&ccb=1-7&_nc_sid=18de74&_nc_ohc=vBqorNntuUwQ7kNvwE3Ppmy&_nc_oc=AdkQ2vPx_AC614p9XVZtIF9yiYA5Ea1QKUROdCrLgCiqYd8MA4Q04P0S49kkGTfZaIp5bohSbxqecofSTJgScgIa&_nc_zt=23&_nc_ht=scontent-cdg4-3.cdninstagram.com&edm=AM6HXa8EAAAA&_nc_gid=Jxyk8iLhjOsd921zom1IKA&oh=00_AfMZHr3Ab2xCb6MsBf98Rr2u_-ZruQvvNub1a2KmfFbXbg&oe=684A0E39",
        "media_type": "CAROUSEL_ALBUM",
        "like_count": 39,
        "comments_count": 1,
        "caption": "Les fêtes approchent…\nEt les repas copieux aussi ! 🍽 😋 \n\nAfin de vivre au mieux ces moments festifs, je te donne 6 conseils naturels et faciles à appliquer : \n\n❄️ Consomme des fruits et des légumes pour leur teneur en vitamines et en fibres ce qui favorisera la digestion. \n\n❄️ Bois beaucoup d’eau : cela facilitera l’élimination des déchets de la digestion.\n\n❄️ Pratique une activité physique : marcher pendant 30min après un repas copieux aide à réduire la glycémie et le taux de triglycérides. \n\n❄️ Compense la prise d’alcool par de l’eau : l’alcool est connu pour déshydrater alors il est indispensable de bien s’hydrater en contre-partie.\n\n❄️ Évite de trop salé : tout comme l’alcool, le sel déshydrate, augmente la pression artérielle et favorise l’hypertension. \n\n❄️ Utilise une bouillotte chaude sur ton foie pour l’aider à se détoxifier après un gros repas. \nLes infusions 🌱 de chardon-marie, fenouil, gingembre, verveine, menthe, mélisse.. sont idéales après un repas copieux. \n\nEt enfin PROFITE ! Ces moments sont exceptionnels dans l’année, alors pas de culpabilité..! On reprendra les bonnes habitudes juste après ! 😊 \n\nEt toi ? As-tu des petits rituels pour passer de bonnes fêtes ? 🎉",
        "shortcode": "CXgXLd_omQL",
        "children": {
          "data": [
            {
              "media_url": "https://scontent-cdg4-3.cdninstagram.com/v/t51.29350-15/266848562_657167155442495_7369271009279098863_n.jpg?stp=dst-jpg_e35_tt6&_nc_cat=111&ccb=1-7&_nc_sid=18de74&_nc_ohc=vBqorNntuUwQ7kNvwE3Ppmy&_nc_oc=AdkQ2vPx_AC614p9XVZtIF9yiYA5Ea1QKUROdCrLgCiqYd8MA4Q04P0S49kkGTfZaIp5bohSbxqecofSTJgScgIa&_nc_zt=23&_nc_ht=scontent-cdg4-3.cdninstagram.com&edm=AM6HXa8EAAAA&_nc_gid=Jxyk8iLhjOsd921zom1IKA&oh=00_AfMZHr3Ab2xCb6MsBf98Rr2u_-ZruQvvNub1a2KmfFbXbg&oe=684A0E39",
              "id": "17942987512726087"
            },
            {
              "media_url": "https://scontent-cdg4-1.cdninstagram.com/v/t51.29350-15/267121886_633556407998133_6522713639411977760_n.jpg?stp=dst-jpg_e35_tt6&_nc_cat=108&ccb=1-7&_nc_sid=18de74&_nc_ohc=wpbrzR6TQjoQ7kNvwEIu3yS&_nc_oc=AdmEjhTokZxPSDdZbCZ8PV-h4_uFpFFL2uzM0hvdRi9dAQC-uv66JminZjWuc1VgQ8oMPxwgFbGALcV-jlSIn4yq&_nc_zt=23&_nc_ht=scontent-cdg4-1.cdninstagram.com&edm=AM6HXa8EAAAA&_nc_gid=Jxyk8iLhjOsd921zom1IKA&oh=00_AfMjOCIbAN7Nw9s0tf6aCW2c-KtlxZOKToZ8Pmlv16V5BQ&oe=684A228C",
              "id": "17910285527248916"
            }
          ]
        },
        "timestamp": "2021-12-15T13:45:46+0000",
        "id": "17869277090593504"
      }
    }
  ],
  "pageInfo": {
    "pageCount": 20,
    "page": 14,
    "total": 99,
    "pageSize": 5
  }
}