{
  "nodes": [
    {
      "feedJSON": {
        "media_url": "https://scontent-cdg4-2.cdninstagram.com/v/t51.29350-15/258044845_636555777724740_7173449303030513618_n.jpg?stp=dst-jpg_e35_tt6&_nc_cat=100&ccb=1-7&_nc_sid=18de74&_nc_ohc=6yalyv65OZwQ7kNvwF9ITUF&_nc_oc=Admb1QtvvIsGEtFrh2Li1lpiriUIi5isFwGHYo8t9sgG57G0A5e1Y_QZ3VLNaFQbyAofGWxtKZZ4o15R5v_a2bZ5&_nc_zt=23&_nc_ht=scontent-cdg4-2.cdninstagram.com&edm=AM6HXa8EAAAA&_nc_gid=uKSsQs8gxM_wFWSAh6MQ1Q&oh=00_AfO5M1HHw6aOc_QAEG4YPbGoDWlgmryOTr0HSqGOwsXXSA&oe=684A0AFC",
        "media_type": "CAROUSEL_ALBUM",
        "like_count": 30,
        "comments_count": 1,
        "caption": "La chicorée ☕️ \nC’est un truc de grand-mère ça .. ! Attends un peu.. 😉\n\nJe vais te parler de cette boisson et de ses nombreux bienfaits..\n\nLa chicorée a connu son essor en France 🇫🇷 au moment du blocus continental de 1806 qui avait provoqué une pénurie de café…! \nC’est la torréfaction de la racine de la plante qui permet d’obtenir la boisson. \n\nElle contient beaucoup de polyphénols, des flavonoïdes, des tanins, des coumarines, des vitamines, des minéraux et de l’inuline (qui améliore la santé digestive et régule l’appétit). \n\nJe te donne 5 raisons de la consommer :\n\n☕️ Elle est un bon substitut au café ! Boisson chaude au goût de noisette et caramel, et amère comme le café (mais sans caféine) tu peux la consommer à toute heure de la journée ! 🕰 \n\n☕️ Elle est bonne pour ton foie et ton transit : c’est une plante détox drainante. Elle favorise l’évacuation des toxines du \nfoie et aide également en cas de troubles digestifs ou de constipation passagère.\n\n☕️ Elle est riche en antioxydants : riche en vitamine A et C, elle possède des nutriments qui protègent tes cellules du stress oxydatif. \nElle permet également de lutter contre les maladies cardiovasculaires 🫀. \n\n☕️ Elle est riche en oligo-éléments : fer, phosphore, vitamine B9, K et E 💪. \nIdéal pour éviter les carences 😉! \n\n☕️ Et enfin, elle est riche en fibres : elle stimule la flore intestinale et aide au bon transit. \nComme un prébiotique, elle contribuerait à faire baisser le taux de cholestérol et de sucre dans le sang🩸. \n\nPersonnellement, j’aime la diluer dans une boisson de riz avec un peu de sirop d’érable, le tout bien chaud ! \n\nUn régal ! 😋 \n\nEt toi ? As-tu des préjugés sur la chicorée ? \nC’est le moment de re(tester) ! 🙂",
        "shortcode": "CWVgmWEoYQg",
        "children": {
          "data": [
            {
              "media_url": "https://scontent-cdg4-2.cdninstagram.com/v/t51.29350-15/258044845_636555777724740_7173449303030513618_n.jpg?stp=dst-jpg_e35_tt6&_nc_cat=100&ccb=1-7&_nc_sid=18de74&_nc_ohc=6yalyv65OZwQ7kNvwF9ITUF&_nc_oc=Admb1QtvvIsGEtFrh2Li1lpiriUIi5isFwGHYo8t9sgG57G0A5e1Y_QZ3VLNaFQbyAofGWxtKZZ4o15R5v_a2bZ5&_nc_zt=23&_nc_ht=scontent-cdg4-2.cdninstagram.com&edm=AM6HXa8EAAAA&_nc_gid=uKSsQs8gxM_wFWSAh6MQ1Q&oh=00_AfO5M1HHw6aOc_QAEG4YPbGoDWlgmryOTr0HSqGOwsXXSA&oe=684A0AFC",
              "id": "18143306101211123"
            },
            {
              "media_url": "https://scontent-cdg4-2.cdninstagram.com/v/t51.29350-15/256783026_2902900826636374_8210284010222295275_n.jpg?stp=dst-jpg_e35_tt6&_nc_cat=107&ccb=1-7&_nc_sid=18de74&_nc_ohc=v2CiYtQYIGsQ7kNvwFIOyEE&_nc_oc=AdmnDmWbrBxpwl5edfeJdI8LeOwvGxgmKJKWFWRNnr5oRz_eevMXToEfLW5YD12JGC_D9JWnoNSgYO8EiSshX7cw&_nc_zt=23&_nc_ht=scontent-cdg4-2.cdninstagram.com&edm=AM6HXa8EAAAA&_nc_gid=uKSsQs8gxM_wFWSAh6MQ1Q&oh=00_AfOnB40dMdhnL5mhShh7Ys6WiIoNIx14zL3eaNS7PtuqRQ&oe=684A07E0",
              "id": "18138779476235158"
            }
          ]
        },
        "timestamp": "2021-11-16T12:05:03+0000",
        "id": "17906397032250244"
      }
    },
    {
      "feedJSON": {
        "media_url": "https://scontent-cdg4-1.cdninstagram.com/v/t51.29350-15/257470771_290991489572877_9153522934519161431_n.jpg?stp=dst-jpg_e35_tt6&_nc_cat=104&ccb=1-7&_nc_sid=18de74&_nc_ohc=HxJVVTAYcsAQ7kNvwEbjsmt&_nc_oc=AdlFUuacWgOrolfazIGfX3lvq1cFnyeaPk-Aq3m0PzVVC4UflJcN4Z12peVoswUBSVenMxXJfMXFmBHmXGPIh6x0&_nc_zt=23&_nc_ht=scontent-cdg4-1.cdninstagram.com&edm=AM6HXa8EAAAA&_nc_gid=uKSsQs8gxM_wFWSAh6MQ1Q&oh=00_AfNT8HVOAMLF4rPaQF_oTtsDvYVGNcrUE1fkSJ2hdY5Xeg&oe=684A0F9E",
        "media_type": "CAROUSEL_ALBUM",
        "like_count": 19,
        "comments_count": 1,
        "caption": "Les émotions 🙂 😢 😡 \n\nCe sont des réactions d’adaptation de notre organisme à un état affectif et qui sont d’intensité variable. \n\nLes émotions font appel à nos sensations physiques et mentales. \n\nOn compte 6 émotions de base : \n- La colère 😡 \n- La tristesse 😞 \n- La joie 🤩 \n- La peur 😨 \n- Le dégoût 🤢 \n- La surprise 😮 \n\nMais il y a d’autres émotions plus élaborées comme la jalousie (mélange de peur, de colère et de tristesse). \n\nLes émotions ont un impact très significatif sur ta santé. \n\nEn effet, le cerveau ne fait pas la différence entre l’imagination et la réalité. Une émotion imaginée a donc le même impact qu’une émotion réelle. \n\nDe plus, une émotion vécue dans le passé qui n’a pas été digérée aura toujours un impact dans ton présent. \n\nCette émotion emprisonnée va entraîner une baisse de tes défenses immunitaires 🦠.\nIl a été prouvé que ce stress émotionnel est même impliqué dans les maladies auto-immunes.. \n\nElle peut également engendrer des insomnies, de la dépression, des comportements compulsifs, des troubles alimentaires, des addictions, des pathologies cardio-vasculaires.. 🫀\n\nIl y a quelques temps une colère mal digérée m’avait provoqué des boutons sur le cou et le visage.. \nUne fois la colère digérée, ils avaient tous disparu… comme par magie…! 🪄 \n\nIl est donc primordial d’accueillir et d’apprivoiser les émotions qui t’importunent ! \n\nJe te donne quelques astuces pour cela : \n\n- Te protéger \n- Prendre conscience du positif dans ta vie\n- Pratiquer la cohérence cardiaque \n- Oser extérioriser tes émotions (éclat de rire, cri, dessin, danse, écriture..)\n- En discuter \n- Et biensur, prendre soin de toi ! 🥰 \n\nQuelle émotion t’es la plus désagréable ? Comment arrives-tu à la gérer ?",
        "shortcode": "CWOuFK8jZy8",
        "children": {
          "data": [
            {
              "media_url": "https://scontent-cdg4-1.cdninstagram.com/v/t51.29350-15/257470771_290991489572877_9153522934519161431_n.jpg?stp=dst-jpg_e35_tt6&_nc_cat=104&ccb=1-7&_nc_sid=18de74&_nc_ohc=HxJVVTAYcsAQ7kNvwEbjsmt&_nc_oc=AdlFUuacWgOrolfazIGfX3lvq1cFnyeaPk-Aq3m0PzVVC4UflJcN4Z12peVoswUBSVenMxXJfMXFmBHmXGPIh6x0&_nc_zt=23&_nc_ht=scontent-cdg4-1.cdninstagram.com&edm=AM6HXa8EAAAA&_nc_gid=uKSsQs8gxM_wFWSAh6MQ1Q&oh=00_AfNT8HVOAMLF4rPaQF_oTtsDvYVGNcrUE1fkSJ2hdY5Xeg&oe=684A0F9E",
              "id": "17891715356371098"
            },
            {
              "media_url": "https://scontent-cdg4-1.cdninstagram.com/v/t51.29350-15/256201766_1027427058038163_2328638544288199321_n.jpg?stp=dst-jpg_e35_tt6&_nc_cat=105&ccb=1-7&_nc_sid=18de74&_nc_ohc=jXGWHzMekAkQ7kNvwHrd_D2&_nc_oc=AdnqTr8iNQ0RXJrtsBY1g-T7ZN7zDz-C6QJrUfB2yPTuNfY9_4tPhWuwPpNTw36jSRo8ok9uYeRKm7foBJ1WIlux&_nc_zt=23&_nc_ht=scontent-cdg4-1.cdninstagram.com&edm=AM6HXa8EAAAA&_nc_gid=uKSsQs8gxM_wFWSAh6MQ1Q&oh=00_AfP8JXR3hbtktA6lUtlM_XbZ5gGg5ZMYw8lBjL7VGqf47Q&oe=684A1FB2",
              "id": "18266788783026844"
            },
            {
              "media_url": "https://scontent-cdg4-1.cdninstagram.com/v/t51.29350-15/255823927_1042791136481878_3624685075425278294_n.jpg?stp=dst-jpg_e35_tt6&_nc_cat=104&ccb=1-7&_nc_sid=18de74&_nc_ohc=wQ4j0TmZloIQ7kNvwHGJbc1&_nc_oc=Adnr4CYoIHXB98_ZQsRY58StEWE2qjUmXyJFg0KYiifoBJ4M2laNSUKohVrFfkchAcQKAsA-_Jh2SpiPVKkgkWYu&_nc_zt=23&_nc_ht=scontent-cdg4-1.cdninstagram.com&edm=AM6HXa8EAAAA&_nc_gid=uKSsQs8gxM_wFWSAh6MQ1Q&oh=00_AfM2zWbFV1fbNb7iuZis7qFW5AsH-Q4EErJyroylhyrxVA&oe=684A243B",
              "id": "17895501512324844"
            }
          ]
        },
        "timestamp": "2021-11-13T20:48:10+0000",
        "id": "17922590311950991"
      }
    },
    {
      "feedJSON": {
        "media_url": "https://scontent-cdg4-3.cdninstagram.com/v/t51.29350-15/254065527_1093277218148357_3486246072762374413_n.jpg?stp=dst-jpg_e35_tt6&_nc_cat=111&ccb=1-7&_nc_sid=18de74&_nc_ohc=3OvXZb2nuVUQ7kNvwH1mNLA&_nc_oc=Adk94u1r9XBMm5m_hwRxc2MCQRKaMjUzAKqkEED8m3YDnUZjEn9gd875pAn0ViZUl9BPweCjsUKGGNWrV0ZheYFB&_nc_zt=23&_nc_ht=scontent-cdg4-3.cdninstagram.com&edm=AM6HXa8EAAAA&_nc_gid=uKSsQs8gxM_wFWSAh6MQ1Q&oh=00_AfM6jcwYo22Bk102BfmnUtZYgv0icdDk3JaycjiMZf6Suw&oe=684A2B56",
        "media_type": "CAROUSEL_ALBUM",
        "like_count": 29,
        "comments_count": 9,
        "caption": "L’iridologie 👀 \n\nConnais-tu cette technique ? Il s’agit de l’une de mes spécialisations.\n\nCette technique est utilisée par certains médecins, homéopathes et naturopathes 🌱.\nIl s’agit de l’étude de l’iris qui est la partie colorée de l’œil 👁. \n\nElle permet d’apprécier l’état de santé globale d’une personne et d’appréhender la vitalité de l’individu 🏃‍♀️. \n\nElle est un outil précieux et permet même de voir quels sont les organes faibles et ceux plus forts !💪 . \n\nL’iridologie permet également d’anticiper sur certaines affections et maladies auxquelles l’individu est prédisposé 🦠. \n\nOn peut y détecter les faiblesses organiques avant même l’apparition des symptômes et de la pathologie. \nDes conseils et une hygiène vitale adaptés en conséquence permettront alors d’éviter certains soucis de santé 😉. \n\nFascinant non ? 🤩\n\nEn photo, je te dévoile mon iris 👁.",
        "shortcode": "CWEXD37o9f3",
        "children": {
          "data": [
            {
              "media_url": "https://scontent-cdg4-3.cdninstagram.com/v/t51.29350-15/254065527_1093277218148357_3486246072762374413_n.jpg?stp=dst-jpg_e35_tt6&_nc_cat=111&ccb=1-7&_nc_sid=18de74&_nc_ohc=3OvXZb2nuVUQ7kNvwH1mNLA&_nc_oc=Adk94u1r9XBMm5m_hwRxc2MCQRKaMjUzAKqkEED8m3YDnUZjEn9gd875pAn0ViZUl9BPweCjsUKGGNWrV0ZheYFB&_nc_zt=23&_nc_ht=scontent-cdg4-3.cdninstagram.com&edm=AM6HXa8EAAAA&_nc_gid=uKSsQs8gxM_wFWSAh6MQ1Q&oh=00_AfM6jcwYo22Bk102BfmnUtZYgv0icdDk3JaycjiMZf6Suw&oe=684A2B56",
              "id": "18110930395265546"
            },
            {
              "media_url": "https://scontent-cdg4-3.cdninstagram.com/v/t51.29350-15/254351269_611569476658388_146700080121041049_n.jpg?stp=dst-jpg_e35_tt6&_nc_cat=110&ccb=1-7&_nc_sid=18de74&_nc_ohc=UL4nbn8HAlwQ7kNvwHLTL2G&_nc_oc=AdmaNzvg3unAQ06MzR8-eJUbQnOJ890HSIrbDDnVlmMnzrKxabPo-Dq6MC8fTmMoBEWU4A46DsxAASo4GuF9kvBp&_nc_zt=23&_nc_ht=scontent-cdg4-3.cdninstagram.com&edm=AM6HXa8EAAAA&_nc_gid=uKSsQs8gxM_wFWSAh6MQ1Q&oh=00_AfN_pbVy_DAwKQe7kX8vkot_LK5Iabw6hZwSeiVtRK4Yyg&oe=684A30DB",
              "id": "17887482572456077"
            },
            {
              "media_url": "https://scontent-cdg4-2.cdninstagram.com/v/t51.29350-15/254853155_4644130248942232_8043264614908519284_n.jpg?stp=dst-jpg_e35_tt6&_nc_cat=109&ccb=1-7&_nc_sid=18de74&_nc_ohc=Kveu58yXTO4Q7kNvwEx8oFh&_nc_oc=Adm691Wc9GkJ4bgMZWcSTZCihA6u2DmscM2RigUXPGZiunH1d4EpFSKvTUrLVTZoROYG3cQn7cOu6k-fQIxByxja&_nc_zt=23&_nc_ht=scontent-cdg4-2.cdninstagram.com&edm=AM6HXa8EAAAA&_nc_gid=uKSsQs8gxM_wFWSAh6MQ1Q&oh=00_AfMpAwIVlrD-2Pa_ychU5s2ikqsI4-_-k3JkTwOg3EN62w&oe=684A0FC2",
              "id": "17898120989466611"
            }
          ]
        },
        "timestamp": "2021-11-09T20:14:37+0000",
        "id": "17916040855982550"
      }
    },
    {
      "feedJSON": {
        "media_url": "https://scontent-cdg4-1.cdninstagram.com/v/t51.29350-15/253898375_575454446891545_3054280082801285645_n.jpg?stp=dst-jpg_e35_tt6&_nc_cat=104&ccb=1-7&_nc_sid=18de74&_nc_ohc=PFRiyrmuZFYQ7kNvwEermhj&_nc_oc=AdndV5FGAeNp2GF-bFhI_M2iUIoL7yp1-UiJGBwnylNQieukmkzIiEU-LDU4NuE9AIAusDp7h2-_U5U51WlapdwV&_nc_zt=23&_nc_ht=scontent-cdg4-1.cdninstagram.com&edm=AM6HXa8EAAAA&_nc_gid=uKSsQs8gxM_wFWSAh6MQ1Q&oh=00_AfPcu5g5kan2DTa5yHq3Vr4tp9d_KYa4zWbX0ap4Ad_-uw&oe=684A03AF",
        "media_type": "CAROUSEL_ALBUM",
        "like_count": 25,
        "comments_count": 2,
        "caption": "Le butternut \n\nC’est une des courge phare de la saison!\nAvec son petit goût de noisette et sa chair onctueuse, c’est un légume faible en calories et réconfortant 😊.\nIl s’appelle également doubeurre ou courge cacahuète 🥜.\n\nCette courge est riche en nutriments essentiels et idéale pour faire le plein de vitamines 💪.\n\nJe te donne 6 raisons de la consommer :\n\n✅ elle permet de rétablir l’équilibre acido-basique de ton corps\n✅ elle est stimulante, idéal pour les baisses d’énergie de l’automne 🍂 \n✅ elle protège nos yeux 👀 et notre peau  grâce à son apport en vitamine A \n✅ elle est antioxydante \n✅ elle améliore ton confort digestif grâce à sa richesse en fibres\n✅ elle est bonne pour ta ligne 😉\n\nIci, j’ai préparé la version gratinée saupoudrée de graines de courges mais tu peux également la consommer sous forme de soupe, purée, frites, ou encore dorée à la poêle 😋.\n \nEt toi ? Connais-tu le butternut ? Comment le consommes-tu? ✌️",
        "shortcode": "CV-xfMKoD2n",
        "children": {
          "data": [
            {
              "media_url": "https://scontent-cdg4-1.cdninstagram.com/v/t51.29350-15/253898375_575454446891545_3054280082801285645_n.jpg?stp=dst-jpg_e35_tt6&_nc_cat=104&ccb=1-7&_nc_sid=18de74&_nc_ohc=PFRiyrmuZFYQ7kNvwEermhj&_nc_oc=AdndV5FGAeNp2GF-bFhI_M2iUIoL7yp1-UiJGBwnylNQieukmkzIiEU-LDU4NuE9AIAusDp7h2-_U5U51WlapdwV&_nc_zt=23&_nc_ht=scontent-cdg4-1.cdninstagram.com&edm=AM6HXa8EAAAA&_nc_gid=uKSsQs8gxM_wFWSAh6MQ1Q&oh=00_AfPcu5g5kan2DTa5yHq3Vr4tp9d_KYa4zWbX0ap4Ad_-uw&oe=684A03AF",
              "id": "17916478723981002"
            },
            {
              "media_url": "https://scontent-cdg4-3.cdninstagram.com/v/t51.29350-15/253359889_1000644437458223_4497198153960349834_n.jpg?stp=dst-jpg_e35_tt6&_nc_cat=106&ccb=1-7&_nc_sid=18de74&_nc_ohc=JBZ9VWmztqEQ7kNvwECR3Th&_nc_oc=Admeubn50i5IftTLmVpHcO1pfCjRiRdjz4HbJ0dOkt3rba3lI40h-tUPVq7THhUn-2YiaxXdFhTKAsqum_FJyJxk&_nc_zt=23&_nc_ht=scontent-cdg4-3.cdninstagram.com&edm=AM6HXa8EAAAA&_nc_gid=uKSsQs8gxM_wFWSAh6MQ1Q&oh=00_AfPKcDLruJ2qvQZEQmls3yJl68aMvFbXJcVf_PAKDhKa-Q&oe=684A111A",
              "id": "17919415043001942"
            },
            {
              "media_url": "https://scontent-cdg4-3.cdninstagram.com/v/t51.29350-15/246011090_475549470461673_1456797457244771566_n.jpg?stp=dst-jpg_e35_tt6&_nc_cat=110&ccb=1-7&_nc_sid=18de74&_nc_ohc=_68OzlVn30sQ7kNvwFJvxmO&_nc_oc=Adlf5sRpHfmb77o4XGt1nkRPEwfOLOf6YXhHMoFeuwqZuxnMKtKgyer9QQ4k_mcSMzAog3t_8Ip-K_ur8gA5g196&_nc_zt=23&_nc_ht=scontent-cdg4-3.cdninstagram.com&edm=AM6HXa8EAAAA&_nc_gid=uKSsQs8gxM_wFWSAh6MQ1Q&oh=00_AfN9NmQ-9xY6KO7exFnaeIXvtUpPMDLEyIKBwlVYQtBc5A&oe=684A28EE",
              "id": "17908191125232430"
            }
          ]
        },
        "timestamp": "2021-11-07T16:10:05+0000",
        "id": "17936633446737670"
      }
    },
    {
      "feedJSON": {
        "media_url": "https://scontent-cdg4-2.cdninstagram.com/v/t51.29350-15/254054552_210714707853850_3680698121379547549_n.jpg?stp=dst-jpg_e35_tt6&_nc_cat=109&ccb=1-7&_nc_sid=18de74&_nc_ohc=TeaJMozi4uAQ7kNvwFlJL58&_nc_oc=Adn6qzmvq1uLjUDyPGc2Q0oEhuVeifpxND0P69nuU5xvi5LlVfk9RsEpsNSeb_N6yshj2_ezAdf3Em551KNaZgFV&_nc_zt=23&_nc_ht=scontent-cdg4-2.cdninstagram.com&edm=AM6HXa8EAAAA&_nc_gid=uKSsQs8gxM_wFWSAh6MQ1Q&oh=00_AfMYmSPH_0Z7KWrPhtEBPXYLe5erZpAUARPbU9I4OePxYA&oe=684A3387",
        "media_type": "CAROUSEL_ALBUM",
        "like_count": 22,
        "comments_count": 3,
        "caption": "Le sommeil 💤 \n\nPour être en bonne santé, il faut bien se reposer… 🛌 mais ça, tu le sais déjà 😉 \n\nC’est vraiment l’un des plus gros piliers de ta santé avec l’alimentation, l’activité physique et l’équilibre psychologique 🧘‍♀️\n\nPendant le sommeil, ton corps se répare, tes cellules se renouvellent, ton système immunitaire se renforce tout comme ta mémoire 💪.\n\nC’est la mélatonine, l’hormone du sommeil, sécrétée par le cerveau au niveau de la glande pinéale qui te permet de trouver le sommeil 💤 . \n\nLa sécrétion de cette hormone est favorisée par l’obscurité. Si tu as des difficultés à t’endormir, je te conseille vivement d’éviter les écrans avant de dormir 😴.. Tamise ta pièce avec une lumière douce. \n\nCertaines plantes facilitent l’endormissement comme la verveine, la valériane, la mélisse, la camomille ou la passiflore. \nTu peux les consommer en infusion. Elles t’apaiseront et diminueront ton stress également 🌱. \n\nFais bien attention au manque de sommeil récurrent. ⚠️\n\nIl te provoquera :\n- De la fatigue chronique, de l’irritabilité 😡 \n- Une perte de mémoire \n- Une diminution du système immunitaire qui t’exposera davantage aux maladies 😷 \n- De l’hypertension \n- Un déséquilibre hormonal favorisant la prise de poids \n- Et même un risque de dépression 😞 .. \n\nEt toi ? Comment gère-tu ton sommeil ? As-tu des petits rituels pour bien t’endormir 😴 ?",
        "shortcode": "CV5hvijISWr",
        "children": {
          "data": [
            {
              "media_url": "https://scontent-cdg4-2.cdninstagram.com/v/t51.29350-15/254054552_210714707853850_3680698121379547549_n.jpg?stp=dst-jpg_e35_tt6&_nc_cat=109&ccb=1-7&_nc_sid=18de74&_nc_ohc=TeaJMozi4uAQ7kNvwFlJL58&_nc_oc=Adn6qzmvq1uLjUDyPGc2Q0oEhuVeifpxND0P69nuU5xvi5LlVfk9RsEpsNSeb_N6yshj2_ezAdf3Em551KNaZgFV&_nc_zt=23&_nc_ht=scontent-cdg4-2.cdninstagram.com&edm=AM6HXa8EAAAA&_nc_gid=uKSsQs8gxM_wFWSAh6MQ1Q&oh=00_AfMYmSPH_0Z7KWrPhtEBPXYLe5erZpAUARPbU9I4OePxYA&oe=684A3387",
              "id": "17921034409985529"
            },
            {
              "media_url": "https://scontent-cdg4-1.cdninstagram.com/v/t51.29350-15/253394457_1347117379041044_119017361444857939_n.jpg?stp=dst-jpg_e35_tt6&_nc_cat=102&ccb=1-7&_nc_sid=18de74&_nc_ohc=KIGjw-c9CEMQ7kNvwFImIou&_nc_oc=AdmbtEw5sbMwkvUR18hXLH07rYRY5SFCma3sfya1ridFwSw779UhY2hsxxEAtrPj00UIVglwPcjJ7bUgG452YaIm&_nc_zt=23&_nc_ht=scontent-cdg4-1.cdninstagram.com&edm=AM6HXa8EAAAA&_nc_gid=uKSsQs8gxM_wFWSAh6MQ1Q&oh=00_AfN7I_DkmC7A6mPJ0z_argBktphgcZ70cRCMU5WJcSErLg&oe=684A12D2",
              "id": "18110610307266911"
            },
            {
              "media_url": "https://scontent-cdg4-1.cdninstagram.com/v/t51.29350-15/254060434_1563639753990958_4967795208540302628_n.jpg?stp=dst-jpg_e35_tt6&_nc_cat=102&ccb=1-7&_nc_sid=18de74&_nc_ohc=2g2DUsO0xXMQ7kNvwFdo5Ga&_nc_oc=Adnydm_aDSXDVOtgP7Ymm4_k-uxVDQuv7Azhu4xE-o6boYo6PHafxOqIJYOzkmUq2st7Tp971HEBlPEhxJ8gJhci&_nc_zt=23&_nc_ht=scontent-cdg4-1.cdninstagram.com&edm=AM6HXa8EAAAA&_nc_gid=uKSsQs8gxM_wFWSAh6MQ1Q&oh=00_AfMzBITKHQ57C1f6H-nLGaP4cKKe95LPdm4KFzMHquolKw&oe=684A157F",
              "id": "17921329051973816"
            }
          ]
        },
        "timestamp": "2021-11-05T15:16:18+0000",
        "id": "17906120021201703"
      }
    }
  ],
  "pageInfo": {
    "pageCount": 20,
    "page": 17,
    "total": 99,
    "pageSize": 5
  }
}