{
  "nodes": [
    {
      "feedJSON": {
        "media_url": "https://scontent-cdg4-2.cdninstagram.com/o1/v/t16/f2/m86/AQMCd6o34oMbELspsAWGo3Q6b-IQAEe5L15zhkgt0CoLYWPp-uGBVdxdCnN8jBRKgmO8EXJf0hEKFTgjknP0xj9O27ezqyAw2uLYDKs.mp4?efg=eyJ2ZW5jb2RlX3RhZyI6InZ0c192b2RfdXJsZ2VuLmNsaXBzLnVua25vd24tQzMuNzIwLmRhc2hfYmFzZWxpbmVfMV92MSJ9&_nc_ht=scontent-cdg4-2.cdninstagram.com&edm=AM6HXa8EAAAA&_nc_gid=LjiY-W0TOtCnefgHl_MvlA&_nc_cat=102&_nc_oc=AdlFAvIBofuDMmnIRnc9tziulImRiB1gzjNXmdQ-bDSYd-gD2o-yyZPY48pOSRLIlMWg8ODtcoHaC3VQxJvrxSb4&vs=2260741870988826_2845430488&_nc_vs=HBksFQIYUmlnX3hwdl9yZWVsc19wZXJtYW5lbnRfc3JfcHJvZC83MzQ4QTZDRTk2ODBDNDg2REIyREEyQjIwRjM0MjlCNF92aWRlb19kYXNoaW5pdC5tcDQVAALIARIAFQIYOnBhc3N0aHJvdWdoX2V2ZXJzdG9yZS9HQzRUWHh3bkVYQ2YtWGdEQU9QXzlSX2JOQXcxYnFfRUFBQUYVAgLIARIAKAAYABsBiAd1c2Vfb2lsATEVAAAmkPaDhLSBikEVAigCQzMsF0BFa6XjU%2FfPGBJkYXNoX2Jhc2VsaW5lXzFfdjERAHUAZeadAQA%3D&ccb=9-4&oh=00_AfMGbhgPztrkmsW00DtcA4RUFac4TpFgfSM4iv1umyqz2A&oe=68460C12&_nc_sid=1d576d",
        "media_type": "VIDEO",
        "thumbnail_url": "https://scontent-cdg4-3.cdninstagram.com/v/t51.75761-15/476381987_18488148220059471_3816574237079402441_n.jpg?stp=dst-jpg_e35_tt6&_nc_cat=110&ccb=1-7&_nc_sid=18de74&_nc_ohc=rUPLDDB7_YEQ7kNvwF9-4DP&_nc_oc=AdkM2qEa6fTU3RojswOvXPSYomNoo-m-xif0X603PM4-Wrnj_-tG_Byc003ZQqlMIi6P1fi68EYx4OslNp2XX_-N&_nc_zt=23&_nc_ht=scontent-cdg4-3.cdninstagram.com&edm=AM6HXa8EAAAA&_nc_gid=LjiY-W0TOtCnefgHl_MvlA&oh=00_AfMOjo8n3eybL4TODcthsXZa3B_SaDxsWSvSfZYzP0Tj-A&oe=684A1C5A",
        "like_count": 6,
        "comments_count": 2,
        "caption": "✨ Découvrez le pouvoir du drainage lymphatique ✨\n\nOFFRE DE LANCEMENT 50€ au lieu de 80€ le drainage lymphatique d’1h - Baron (proche Créon) \n\nVous vous sentez fatigué(e), gonflé(e) ou simplement en quête de légèreté et de bien-être ? 🌿 Le drainage lymphatique est une technique douce et naturelle qui aide votre corps à éliminer les toxines, à réduire la rétention d’eau et à retrouver une sensation de vitalité.\n\nAu sein de mon cabinet de naturopathie, je vous propose un accompagnement personnalisé pour vous reconnecter à votre corps et vous offrir un moment de pure détente.\n\n🌸 Les bienfaits du drainage lymphatique : \n* Diminution de la rétention d’eau\n* Amélioration de la sensation de jambes lourdes\n* Évacuation des toxines\n* Regain d’énergie\n* Amélioration des troubles digestifs tels que la constipation, les ballonnements, les douleurs..\n* Renforcement du système immunitaire\n* Réduction de la cellulite\n* Amélioration de la silhouette\n\n👉 Prêt(e) à vous sentir plus léger(e) et revitalisé(e) ? Prenez rendez-vous dès aujourd’hui pour une séance de drainage lymphatique adaptée à vos besoins !\n\nUne offre de lancement est en cours jusqu’au 15 février inclus : 50€ au lieu de 80€ le drainage lymphatique d’1h. Profitez-en !\n\n📍 Cabinet de Baron (proche Créon) et Latresne (Bordeaux rive droite)\n🌐 laurenaturo.fr\n\nOffrez à votre corps le soin qu’il mérite. 🍃 À très vite !\n\n#santenaturellebordeaux #bienetrebordeaux #latresne #bouliac #Créon #farguessainthilaire #saintquentindebaron #libournemaville #nérigean #baron33 #drainagelymphatiquebordeaux #bordeauxmaville #drainagelymphatiquelibourne #bienêtrelibourne #massagesbordeaux",
        "shortcode": "DFtOsMkCvKL",
        "timestamp": "2025-02-05T21:51:19+0000",
        "id": "18286932010219908"
      }
    },
    {
      "feedJSON": {
        "media_url": "https://scontent-cdg4-2.cdninstagram.com/o1/v/t16/f2/m86/AQOU1Au8Nqp6K6aKlIEoPiLOWr99NJtCTGscHnlUbdDOpCH6yNoaJH6GzZ-Ca534uTvwL6DkWqSG-vbFXF_38Pd_vxc-G2gVB0ZrIGA.mp4?efg=eyJ2ZW5jb2RlX3RhZyI6InZ0c192b2RfdXJsZ2VuLmNsaXBzLnVua25vd24tQzMuNzIwLmRhc2hfYmFzZWxpbmVfMV92MSJ9&_nc_ht=scontent-cdg4-2.cdninstagram.com&edm=AM6HXa8EAAAA&_nc_gid=LjiY-W0TOtCnefgHl_MvlA&_nc_cat=106&_nc_oc=AdlGhQQWj3Vn_vegbuVs3onsDu2D249WsQEKhOAxgBQKr7EWQC9ENdVCfmAJln3eps4sBuYtNLNjIW481zXgVGiT&vs=1008833151076456_194653202&_nc_vs=HBksFQIYUmlnX3hwdl9yZWVsc19wZXJtYW5lbnRfc3JfcHJvZC8xODQwMjEzMTYxNDM3MUUwQzBDRDU4MjA2RTQyOTI4Rl92aWRlb19kYXNoaW5pdC5tcDQVAALIARIAFQIYOnBhc3N0aHJvdWdoX2V2ZXJzdG9yZS9HQmlrU2h3YVFrTTg2Y3dGQUV5UlNtYm9yWjR1YnFfRUFBQUYVAgLIARIAKAAYABsBiAd1c2Vfb2lsATEVAAAmtL3bkqnw3z8VAigCQzMsF0ArmZmZmZmaGBJkYXNoX2Jhc2VsaW5lXzFfdjERAHUAZeadAQA%3D&ccb=9-4&oh=00_AfPgniEBTABZLdRy9Pgh4rKJr_7cOxMJreTPtu0PK_g2uQ&oe=68462936&_nc_sid=1d576d",
        "media_type": "VIDEO",
        "thumbnail_url": "https://scontent-cdg4-2.cdninstagram.com/v/t51.71878-15/475185268_642898088111231_5420149810633932967_n.jpg?stp=dst-jpg_e35_tt6&_nc_cat=107&ccb=1-7&_nc_sid=18de74&_nc_ohc=xcPsvKdX74UQ7kNvwFFj6mt&_nc_oc=Admi9_Qh0hyS_KPLeuwTEKcOgEMc0L4eoC22QphN3WPBtpFGNH7W74qnxk29KpoAihHUzwjKjWSqdxKPjCh0T4HN&_nc_zt=23&_nc_ht=scontent-cdg4-2.cdninstagram.com&edm=AM6HXa8EAAAA&_nc_gid=LjiY-W0TOtCnefgHl_MvlA&oh=00_AfMjz75TmXGZMDJvxsYopv6MQGsS3P-Ka3M4j1VE0IQn_A&oe=684A2CC2",
        "like_count": 17,
        "comments_count": 1,
        "caption": "🌿 Votre corps vous parle, écoutez-le ! 🌿\n\nVous vous sentez souvent fatigué(e), gonflé(e) ou sujet(te) à des infections répétées ? Ces signes peuvent indiquer une stagnation de la lymphe. Le système lymphatique est votre allié pour éliminer les toxines et renforcer votre immunité, mais il peut parfois avoir besoin d’un petit coup de pouce. 💧\n\n🔎 Signes à surveiller :\n✨ Gonflements (jambes, chevilles, visage)\n✨ Fatigue persistante\n✨ Peau terne, acné ou cellulite\n✨ Infections fréquentes ou ganglions enflés\n✨ Sensation de lourdeur ou douleurs inexpliquées\n\n💡 Comment stimuler votre lymphe ?\n💃 Bougez ! Marchez, dansez ou testez le trampoline.\n💆‍♀️ Essayez un drainage lymphatique manuel.\n🥗 Adoptez une alimentation riche en fruits et légumes.\n💧 Restez hydraté(e) pour aider votre corps à drainer naturellement.\n🧘‍♂️ Prenez soin de votre mental avec des techniques de relaxation.\n\nPrendre soin de son système lymphatique, c’est investir dans son bien-être global. 🌟\n\nOFFRE DECOUVERTE jusqu'au 15 février : le drainage d'1h est à 50€ au lieu de 80€. \nRDV sur Baron (proche Créon) et Latresne.\n\n👉 Dites-moi : Reconnaissez-vous certains de ces symptômes ?\n💬 Partagez en commentaire et taguez un(e) ami(e) qui pourrait en bénéficier !\n📲 Enregistrez ce post pour ne pas oublier ces précieux conseils.",
        "shortcode": "DFS8G0AipX9",
        "timestamp": "2025-01-26T16:45:13+0000",
        "id": "18264382960250288"
      }
    },
    {
      "feedJSON": {
        "media_url": "https://scontent-cdg4-2.cdninstagram.com/o1/v/t16/f2/m86/AQPF3LhjQSmhiY-KZbuBu1UXJpF3MS7OMbt1MphCSj23oYbBa0eRn7qVp8mDCRXJcyCC3KuUh-q6HU7bfreBBqs9af2ycgvV7Z0Kq20.mp4?efg=eyJ2ZW5jb2RlX3RhZyI6InZ0c192b2RfdXJsZ2VuLmNsaXBzLnVua25vd24tQzMuMzYwLmRhc2hfYmFzZWxpbmVfM192MSJ9&_nc_ht=scontent-cdg4-2.cdninstagram.com&edm=AM6HXa8EAAAA&_nc_gid=LjiY-W0TOtCnefgHl_MvlA&_nc_cat=102&_nc_oc=AdkFcgWzF9RN2dzkP_AyRe99_wPrvNdbb2of9y4aw9W4u4pe3cjbZGD7EpSAfDziAsqB1QoAvvSW6LfFS3LO_Sum&vs=633969625959724_96300578&_nc_vs=HBksFQIYUmlnX3hwdl9yZWVsc19wZXJtYW5lbnRfc3JfcHJvZC9GNTRENDFDMTRCMzRBOTQ0MDQ2N0Q1MEQwREM5RUU4RF92aWRlb19kYXNoaW5pdC5tcDQVAALIARIAFQIYOnBhc3N0aHJvdWdoX2V2ZXJzdG9yZS9HSWNaUFJ4Slc2OFZOemtDQUNDNHM0ZFJuMVpQYnFfRUFBQUYVAgLIARIAKAAYABsBiAd1c2Vfb2lsATEVAAAmzO7LgsKvkkAVAigCQzMsF0BFbtkWhysCGBJkYXNoX2Jhc2VsaW5lXzNfdjERAHUAZeadAQA%3D&ccb=9-4&oh=00_AfOJYyeEVODLmq0fFPVoxqLGjZN4rU_F5OIMmyix1J7I_w&oe=68463DE6&_nc_sid=1d576d",
        "media_type": "VIDEO",
        "thumbnail_url": "https://scontent-cdg4-1.cdninstagram.com/v/t51.75761-15/487208073_18498751108059471_2597577379574360251_n.jpg?stp=dst-jpg_e35_tt6&_nc_cat=104&ccb=1-7&_nc_sid=18de74&_nc_ohc=LFZkbU3ewzoQ7kNvwHLCtEg&_nc_oc=AdnIH7MMKBYCmIaInKwToT4dFyFVgOC6XAPJRcre5ofb7euJszNw7MqK8bB2I-bs0HGCKtlTKhcoNQaDmwAWwI_K&_nc_zt=23&_nc_ht=scontent-cdg4-1.cdninstagram.com&edm=AM6HXa8EAAAA&_nc_gid=LjiY-W0TOtCnefgHl_MvlA&oh=00_AfNoB2rWDu7cyyjpaiM3YBFJTBirFMDhZPNnHJkWn6XCaw&oe=684A349E",
        "like_count": 38,
        "comments_count": 1,
        "caption": "✨ Découvrez le pouvoir du drainage lymphatique ✨ \n\nVous vous sentez fatigué(e), gonflé(e) ou simplement en quête de légèreté et de bien-être ? 🌿 Le drainage lymphatique est une technique douce et naturelle qui aide votre corps à éliminer les toxines, à réduire la rétention d’eau et à retrouver une sensation de vitalité.\n\nAu sein de mon cabinet de naturopathie, je vous propose un accompagnement personnalisé pour vous reconnecter à votre corps et vous offrir un moment de pure détente.\n\n🌸 Les bienfaits du drainage lymphatique : \n* Diminution de la rétention d’eau\n* Amélioration de la sensation de jambes lourdes\n* Évacuation des toxines\n* Regain d’énergie\n* Amélioration des troubles digestifs tels que la constipation, les ballonnements, les douleurs..\n* Renforcement du système immunitaire\n* Réduction de la cellulite\n* Amélioration de la silhouette\n\n👉 Prêt(e) à vous sentir plus léger(e) et revitalisé(e) ? Prenez rendez-vous dès aujourd’hui pour une séance de drainage lymphatique adaptée à vos besoins !\n\nUne offre de lancement est en cours ce mois de janvier : 50€ au lieu de 80€ le drainage lymphatique d’1h. Profitez-en ! \n\n📍 Cabinet de Baron (proche Créon) et Latresne (Bordeaux rive droite) \n🌐 laurenaturo.fr \n\nOffrez à votre corps le soin qu’il mérite. 🍃 À très vite !",
        "shortcode": "DE0Fj2giDMI",
        "timestamp": "2025-01-14T17:15:27+0000",
        "id": "18036912227458492"
      }
    },
    {
      "feedJSON": {
        "media_url": "https://scontent-cdg4-3.cdninstagram.com/v/t51.75761-15/472633700_18483617116059471_145234938384648892_n.jpg?stp=dst-jpg_e35_tt6&_nc_cat=111&ccb=1-7&_nc_sid=18de74&_nc_ohc=5GD01OCpc9UQ7kNvwG38Vqj&_nc_oc=Adku4T-0scArqopsUYd8vWJLGyzofz3WwswjCDnNw0dc5DJEOi1HDZSSbQ00itjKK9dHSjusNyvjxSAt6hdI4QP0&_nc_zt=23&_nc_ht=scontent-cdg4-3.cdninstagram.com&edm=AM6HXa8EAAAA&_nc_gid=LjiY-W0TOtCnefgHl_MvlA&oh=00_AfMnPGGlTsSFDoNIpSur0w434uKt7tApxnzsftQzsjSKzw&oe=684A3291",
        "media_type": "CAROUSEL_ALBUM",
        "like_count": 21,
        "comments_count": 1,
        "caption": "💧 Qu’est-ce que le drainage lymphatique ? 💧\n\nLe drainage lymphatique est une technique douce et naturelle qui stimule le système lymphatique, un acteur clé de votre santé. 🌱\n\n👉 Le drainage lymphatique, pour quoi faire ?\n🌸 Améliorer la circulation des fluides\n🌸 Renforcer le système immunitaire\n🌸 Réduire les gonflements et la rétention d’eau\n🌸 Détoxifier l’organisme\n\nC’est une méthode douce et relaxante qui convient à tout le monde !\n📅 Envie d’essayer ? Prends rendez-vous pour une séance personnalisée. Ton bien-être mérite toute ton attention 🌿.\n\n\t•\t“Dis-moi en commentaire si tu as déjà entendu parler du drainage lymphatique 💬.”\n\n\t•\t“Partage ce post avec une personne qui pourrait en bénéficier 🌸.”\n\n\t•\t“Abonne-toi pour des astuces bien-être et santé naturelle 🌱.”",
        "shortcode": "DEp41vNCPgM",
        "children": {
          "data": [
            {
              "media_url": "https://scontent-cdg4-3.cdninstagram.com/v/t51.75761-15/472633700_18483617116059471_145234938384648892_n.jpg?stp=dst-jpg_e35_tt6&_nc_cat=111&ccb=1-7&_nc_sid=18de74&_nc_ohc=5GD01OCpc9UQ7kNvwG38Vqj&_nc_oc=Adku4T-0scArqopsUYd8vWJLGyzofz3WwswjCDnNw0dc5DJEOi1HDZSSbQ00itjKK9dHSjusNyvjxSAt6hdI4QP0&_nc_zt=23&_nc_ht=scontent-cdg4-3.cdninstagram.com&edm=AM6HXa8EAAAA&_nc_gid=LjiY-W0TOtCnefgHl_MvlA&oh=00_AfMnPGGlTsSFDoNIpSur0w434uKt7tApxnzsftQzsjSKzw&oe=684A3291",
              "id": "18027999503533390"
            },
            {
              "media_url": "https://scontent-cdg4-2.cdninstagram.com/v/t51.75761-15/472551872_18483617131059471_1094858638123256311_n.jpg?stp=dst-jpg_e35_tt6&_nc_cat=101&ccb=1-7&_nc_sid=18de74&_nc_ohc=3u9ATpp6TEYQ7kNvwH4z8Z_&_nc_oc=Adk3Dc88Xf9MJ7M6-lANYiq0Hpxr4ikC__m2SbyOERFYbOvosIZItbrY5aT7X21qdsD1-HH0PQb7B2Mc0RiP9f1f&_nc_zt=23&_nc_ht=scontent-cdg4-2.cdninstagram.com&edm=AM6HXa8EAAAA&_nc_gid=LjiY-W0TOtCnefgHl_MvlA&oh=00_AfPPaNsDWBH227ARlD-0HAH9AP4JBXdp_TdzuQhmwhJv6A&oe=684A153A",
              "id": "18067979722790539"
            },
            {
              "media_url": "https://scontent-cdg4-2.cdninstagram.com/v/t51.75761-15/472331257_18483617134059471_8198186273890699207_n.jpg?stp=dst-jpg_e35_tt6&_nc_cat=107&ccb=1-7&_nc_sid=18de74&_nc_ohc=ZuB7cIPsj_oQ7kNvwFOh3Go&_nc_oc=AdlaykokDTBzYImim7hbTlRkt8gpYxXlErIl8J2cHrTTvVOs9PAYMQyqHw-8e56GBQq38GXevgVMtF0-S6C4IBll&_nc_zt=23&_nc_ht=scontent-cdg4-2.cdninstagram.com&edm=AM6HXa8EAAAA&_nc_gid=LjiY-W0TOtCnefgHl_MvlA&oh=00_AfNR1XsdIPNjVwdaXh4vaFPkLPv841ukpJStuBKiO_GaVA&oe=684A0DD5",
              "id": "17918882603937252"
            },
            {
              "media_url": "https://scontent-cdg4-2.cdninstagram.com/v/t51.75761-15/470938247_18483617143059471_8148741360276114855_n.jpg?stp=dst-jpg_e35_tt6&_nc_cat=107&ccb=1-7&_nc_sid=18de74&_nc_ohc=iC7mTK6v0gwQ7kNvwEzPqLU&_nc_oc=Adkh_ocv_EB211soJfBiLV0u53QZmatbPibZ8SoFD5oNOu7MMj3X1WgqfgBE8zdUP-Uat_mg2xwQ-sYi1ytzPrym&_nc_zt=23&_nc_ht=scontent-cdg4-2.cdninstagram.com&edm=AM6HXa8EAAAA&_nc_gid=LjiY-W0TOtCnefgHl_MvlA&oh=00_AfNmxMf01U7HKKbGG2Si7igKPRxAmqlAEkW1FSkEeoR_hA&oe=684A0ADF",
              "id": "18131524945380575"
            },
            {
              "media_url": "https://scontent-cdg4-3.cdninstagram.com/v/t51.75761-15/472630485_18483617152059471_4833898737942152864_n.jpg?stp=dst-jpg_e35_tt6&_nc_cat=110&ccb=1-7&_nc_sid=18de74&_nc_ohc=vdQ-5w7EUj4Q7kNvwH-mAjq&_nc_oc=Adkz9YgMSGskoFIrBGmHLzoSUnz1SjV3f5lqiUwtuyZBCwtSkCl0JrKQgD2FsX4vH-ZlnOjntB_rbU_BNsNlxBqn&_nc_zt=23&_nc_ht=scontent-cdg4-3.cdninstagram.com&edm=AM6HXa8EAAAA&_nc_gid=LjiY-W0TOtCnefgHl_MvlA&oh=00_AfNR5ucODBcgqARkqffyGz10t6beKs8Z7XJWV6Mv3cQ89g&oe=684A22AD",
              "id": "18043460996019395"
            },
            {
              "media_url": "https://scontent-cdg4-2.cdninstagram.com/v/t51.75761-15/472648258_18483617161059471_2048916226496469250_n.jpg?stp=dst-jpg_e35_tt6&_nc_cat=103&ccb=1-7&_nc_sid=18de74&_nc_ohc=r9acHL0nspoQ7kNvwHFWrNk&_nc_oc=AdkqBOvIkc9sqx9GXG9dwLOV-5ChCgpGh9Q6TNMZbjGCQAkXSnS_5heiuqi1MvrgxN1U6yPoY07QJMN_toUsty8l&_nc_zt=23&_nc_ht=scontent-cdg4-2.cdninstagram.com&edm=AM6HXa8EAAAA&_nc_gid=LjiY-W0TOtCnefgHl_MvlA&oh=00_AfO1-fZ8wU03YOApPjiq7Jy7VEV1UPaXKT_3wjJM1UiySQ&oe=684A1F0B",
              "id": "18028451648620464"
            }
          ]
        },
        "timestamp": "2025-01-10T18:05:48+0000",
        "id": "18080297629593496"
      }
    },
    {
      "feedJSON": {
        "media_url": "https://scontent-cdg4-2.cdninstagram.com/o1/v/t16/f2/m82/AQMY8ZeLIMzeewN-22iqrzIWj0BfYCxCIHb3c7PwnS1E5xMOVDzq8NYJsT653mFmXtj1cIUqE9VoWoQ4Su5ErhUOjnEIqrtetwEFLoQ.mp4?efg=eyJ2ZW5jb2RlX3RhZyI6InZ0c192b2RfdXJsZ2VuLmNsaXBzLnVua25vd24tQzMuNzIwLmRhc2hfYmFzZWxpbmVfMV92MSJ9&_nc_ht=scontent-cdg4-2.cdninstagram.com&edm=AM6HXa8EAAAA&_nc_gid=LjiY-W0TOtCnefgHl_MvlA&_nc_cat=109&_nc_oc=AdkOQniYWagqBLOrBsO7xlsdFc5QIcAoSyUO3mVZK_470S0gWRHn65yb-0kr8Q53x2lgU9VQyJP2F92YMeC1ehfc&vs=343053008355948_3082595857&_nc_vs=HBkcFQIYT2lnX3hwdl9yZWVsc19wZXJtYW5lbnRfcHJvZC9EMzRFNkVGMTg0RjNGRkFCQUE4MDJFRUQ4NTg5QjA5MV92aWRlb19kYXNoaW5pdC5tcDQVAALIARIAKAAYABsBiAd1c2Vfb2lsATEVAAAmuITfueCbgkAVAigCQzMsF0A0XbItDlYEGBJkYXNoX2Jhc2VsaW5lXzFfdjERAHUAZeadAQA%3D&ccb=9-4&oh=00_AfNm5BNVxUqPuHhFESTUAl3Hh_aBttJEnXKBHCVMe37WsA&oe=68463C23&_nc_sid=1d576d",
        "media_type": "VIDEO",
        "thumbnail_url": "https://scontent-cdg4-2.cdninstagram.com/v/t51.29350-15/409188935_361116016515482_1730764217313206377_n.jpg?stp=dst-jpg_e35_tt6&_nc_cat=100&ccb=1-7&_nc_sid=18de74&_nc_ohc=YljDpmcqUb8Q7kNvwFCqJU-&_nc_oc=Adk1QztYjEmF7shh2CSnE8eeTNxKfUl246mgejnCdi88ybPs81_74ypxHtnZzwiIIGLCeYcBqAyApy01P_7mKRm2&_nc_zt=23&_nc_ht=scontent-cdg4-2.cdninstagram.com&edm=AM6HXa8EAAAA&_nc_gid=LjiY-W0TOtCnefgHl_MvlA&oh=00_AfPqwyKZgJ9D_HDDoh3Tl3k0W-OopUHLuMKf-T_kpUHmpw&oe=684A240B",
        "like_count": 6,
        "comments_count": 1,
        "caption": "Je vous propose un concours pour gagner 1 première séance de Naturopathie d’1h30 pour faire un bilan et bien démarrer la nouvelle année ! 😀 (en visio ou au cabinet de Baron (33))\n\n🌟 Idéal pour prendre de bonnes habitudes et prendre soin de vous.\n\n🌟 Vous pouvez bien sûr offrir ce cadeau si vous êtes l’heureux gagnant !\n\n🌟 Pour participer, il faut :\n- être abonné à mon compte\n- liker la publication\n- inviter 2 amis qui ont besoin d’être en forme en 2024 😀\n- et une chance supplémentaire de gagner si tu repartages mon post en story en me taguant !\n\n🌟 Le tirage au sort et le partage des résultats se fera le 24 décembre 🎄🎄🎄\n\nBonne chance à tous 🤞\n.\n.\n.\nJe m’appelle Laure et je suis Naturopathe Iridologue.\nJe vous accompagne et vous donne les clés pour retrouver votre santé et votre bien-être au naturel 🌱.\n\nN’hésitez pas à réserver une consultation ou un appel découverte offert ici : https://laurenaturo.fr\n\nC’est avec plaisir et bienveillance que je vous accompagnerai !\n\nA bientôt,\n\nLaure",
        "shortcode": "C0llgQmC4yW",
        "timestamp": "2023-12-08T09:42:19+0000",
        "id": "17982784157381004"
      }
    }
  ],
  "pageInfo": {
    "pageCount": 20,
    "page": 4,
    "total": 99,
    "pageSize": 5
  }
}