{"nodes":[{"feedJSON":{"media_type":"CAROUSEL_ALBUM","like_count":75,"comments_count":4,"caption":"Pourquoi est-ce que l’on digère mal un steak frites ? 🥩 🍟 \n\nJe t’en dis plus sur l’association des protéines et féculents dans ce post !\n \nAs-tu déjà fait le lien sur l’impact que cela avait sur ta digestion ? \n\nMoi clairement oui… J’ai encore mon repas de midi sur l’estomac 😅 (viande + pâtes…!). \n\nBonne lecture 📖 !\n\nLaure","shortcode":"CaXV2rSgVjn","children":{"data":[{"id":"17898889409467434","media":[{"rawOptions":{"src":"https://ln-admin.laurenaturo.fr/uploads/17888114753521901_media_url_027634472a.jpeg","width":480,"height":480,"format":"webp"},"options":{"src":"https://ln-admin.laurenaturo.fr/uploads/17888114753521901_media_url_027634472a.jpeg","width":480,"height":480,"format":"webp"},"src":"/_astro/17888114753521901_media_url_027634472a_ZqhJN7.webp","srcSet":{"values":[],"attribute":""},"attributes":{"width":480,"height":480,"loading":"lazy","decoding":"async"}}]},{"id":"17951759431661865","media":[{"rawOptions":{"src":"https://ln-admin.laurenaturo.fr/uploads/17888114753521901_media_url_868542723c.jpeg","width":480,"height":480,"format":"webp"},"options":{"src":"https://ln-admin.laurenaturo.fr/uploads/17888114753521901_media_url_868542723c.jpeg","width":480,"height":480,"format":"webp"},"src":"/_astro/17888114753521901_media_url_868542723c_Z1H68lV.webp","srcSet":{"values":[],"attribute":""},"attributes":{"width":480,"height":480,"loading":"lazy","decoding":"async"}}]},{"id":"18283003735040154","media":[{"rawOptions":{"src":"https://ln-admin.laurenaturo.fr/uploads/17888114753521901_media_url_1aee6793c5.jpeg","width":480,"height":480,"format":"webp"},"options":{"src":"https://ln-admin.laurenaturo.fr/uploads/17888114753521901_media_url_1aee6793c5.jpeg","width":480,"height":480,"format":"webp"},"src":"/_astro/17888114753521901_media_url_1aee6793c5_Z2wtaJN.webp","srcSet":{"values":[],"attribute":""},"attributes":{"width":480,"height":480,"loading":"lazy","decoding":"async"}}]},{"id":"17945595379797711","media":[{"rawOptions":{"src":"https://ln-admin.laurenaturo.fr/uploads/17888114753521901_media_url_d1a4b77e5c.jpeg","width":480,"height":480,"format":"webp"},"options":{"src":"https://ln-admin.laurenaturo.fr/uploads/17888114753521901_media_url_d1a4b77e5c.jpeg","width":480,"height":480,"format":"webp"},"src":"/_astro/17888114753521901_media_url_d1a4b77e5c_Z105efA.webp","srcSet":{"values":[],"attribute":""},"attributes":{"width":480,"height":480,"loading":"lazy","decoding":"async"}}]}]},"timestamp":"2022-02-24T15:15:13+0000","id":"17888114753521901","media":[{"rawOptions":{"src":"https://ln-admin.laurenaturo.fr/uploads/17888114753521901_media_url_8e2a947abe.jpeg","width":480,"height":480,"format":"webp"},"options":{"src":"https://ln-admin.laurenaturo.fr/uploads/17888114753521901_media_url_8e2a947abe.jpeg","width":480,"height":480,"format":"webp"},"src":"/_astro/17888114753521901_media_url_8e2a947abe_22tj4c.webp","srcSet":{"values":[],"attribute":""},"attributes":{"width":480,"height":480,"loading":"lazy","decoding":"async"}}]}},{"feedJSON":{"media_type":"CAROUSEL_ALBUM","like_count":62,"comments_count":10,"caption":"Les fruits au dessert 😋 !\n\nLes fruits sont de merveilleux aliments riches en vitamines et en fibres ! Mais voilà.. il vaut mieux éviter de les consommer à la fin du repas !\n\nN’as-tu jamais remarqué qu’ils pouvaient te procurer un inconfort au niveau digestif lors de leur prise en fin de repas ?\n\nJe te laisse découvrir ce post et me dire si toi aussi tu as déjà ressenti ces sensations !\n\nBonne lecture 📖 🍎 ! \n\nLaure","shortcode":"CaPngfagdYN","children":{"data":[{"id":"17925295475148437","media":[{"rawOptions":{"src":"https://ln-admin.laurenaturo.fr/uploads/17928939160970141_media_url_0fd114974d.jpeg","width":480,"height":480,"format":"webp"},"options":{"src":"https://ln-admin.laurenaturo.fr/uploads/17928939160970141_media_url_0fd114974d.jpeg","width":480,"height":480,"format":"webp"},"src":"/_astro/17928939160970141_media_url_0fd114974d_vAGwz.webp","srcSet":{"values":[],"attribute":""},"attributes":{"width":480,"height":480,"loading":"lazy","decoding":"async"}}]},{"id":"18004002199392794","media":[{"rawOptions":{"src":"https://ln-admin.laurenaturo.fr/uploads/17928939160970141_media_url_20f9574cfa.jpeg","width":480,"height":480,"format":"webp"},"options":{"src":"https://ln-admin.laurenaturo.fr/uploads/17928939160970141_media_url_20f9574cfa.jpeg","width":480,"height":480,"format":"webp"},"src":"/_astro/17928939160970141_media_url_20f9574cfa_131uYG.webp","srcSet":{"values":[],"attribute":""},"attributes":{"width":480,"height":480,"loading":"lazy","decoding":"async"}}]},{"id":"18188779489086686","media":[{"rawOptions":{"src":"https://ln-admin.laurenaturo.fr/uploads/17928939160970141_media_url_87d99b4fc2.jpeg","width":480,"height":480,"format":"webp"},"options":{"src":"https://ln-admin.laurenaturo.fr/uploads/17928939160970141_media_url_87d99b4fc2.jpeg","width":480,"height":480,"format":"webp"},"src":"/_astro/17928939160970141_media_url_87d99b4fc2_1KxtrS.webp","srcSet":{"values":[],"attribute":""},"attributes":{"width":480,"height":480,"loading":"lazy","decoding":"async"}}]},{"id":"18115875250279050","media":[{"rawOptions":{"src":"https://ln-admin.laurenaturo.fr/uploads/17928939160970141_media_url_ce94739792.jpeg","width":480,"height":480,"format":"webp"},"options":{"src":"https://ln-admin.laurenaturo.fr/uploads/17928939160970141_media_url_ce94739792.jpeg","width":480,"height":480,"format":"webp"},"src":"/_astro/17928939160970141_media_url_ce94739792_1aamVo.webp","srcSet":{"values":[],"attribute":""},"attributes":{"width":480,"height":480,"loading":"lazy","decoding":"async"}}]},{"id":"17940654901779005","media":[{"rawOptions":{"src":"https://ln-admin.laurenaturo.fr/uploads/17928939160970141_media_url_427a9d85c0.jpeg","width":480,"height":480,"format":"webp"},"options":{"src":"https://ln-admin.laurenaturo.fr/uploads/17928939160970141_media_url_427a9d85c0.jpeg","width":480,"height":480,"format":"webp"},"src":"/_astro/17928939160970141_media_url_427a9d85c0_1JxFzO.webp","srcSet":{"values":[],"attribute":""},"attributes":{"width":480,"height":480,"loading":"lazy","decoding":"async"}}]},{"id":"17913728963498457","media":[{"rawOptions":{"src":"https://ln-admin.laurenaturo.fr/uploads/17928939160970141_media_url_8554c79bef.jpeg","width":480,"height":480,"format":"webp"},"options":{"src":"https://ln-admin.laurenaturo.fr/uploads/17928939160970141_media_url_8554c79bef.jpeg","width":480,"height":480,"format":"webp"},"src":"/_astro/17928939160970141_media_url_8554c79bef_Z127Pn2.webp","srcSet":{"values":[],"attribute":""},"attributes":{"width":480,"height":480,"loading":"lazy","decoding":"async"}}]},{"id":"17935080469945933","media":[{"rawOptions":{"src":"https://ln-admin.laurenaturo.fr/uploads/17928939160970141_media_url_47ebc2aff8.jpeg","width":480,"height":480,"format":"webp"},"options":{"src":"https://ln-admin.laurenaturo.fr/uploads/17928939160970141_media_url_47ebc2aff8.jpeg","width":480,"height":480,"format":"webp"},"src":"/_astro/17928939160970141_media_url_47ebc2aff8_rgf4Y.webp","srcSet":{"values":[],"attribute":""},"attributes":{"width":480,"height":480,"loading":"lazy","decoding":"async"}}]}]},"timestamp":"2022-02-21T15:15:33+0000","id":"17928939160970141","media":[{"rawOptions":{"src":"https://ln-admin.laurenaturo.fr/uploads/17928939160970141_media_url_a80943379f.jpeg","width":480,"height":480,"format":"webp"},"options":{"src":"https://ln-admin.laurenaturo.fr/uploads/17928939160970141_media_url_a80943379f.jpeg","width":480,"height":480,"format":"webp"},"src":"/_astro/17928939160970141_media_url_a80943379f_2hHBFU.webp","srcSet":{"values":[],"attribute":""},"attributes":{"width":480,"height":480,"loading":"lazy","decoding":"async"}}]}},{"feedJSON":{"media_type":"CAROUSEL_ALBUM","like_count":39,"comments_count":1,"caption":"Les fêtes approchent…\nEt les repas copieux aussi ! 🍽 😋 \n\nAfin de vivre au mieux ces moments festifs, je te donne 6 conseils naturels et faciles à appliquer : \n\n❄️ Consomme des fruits et des légumes pour leur teneur en vitamines et en fibres ce qui favorisera la digestion. \n\n❄️ Bois beaucoup d’eau : cela facilitera l’élimination des déchets de la digestion.\n\n❄️ Pratique une activité physique : marcher pendant 30min après un repas copieux aide à réduire la glycémie et le taux de triglycérides. \n\n❄️ Compense la prise d’alcool par de l’eau : l’alcool est connu pour déshydrater alors il est indispensable de bien s’hydrater en contre-partie.\n\n❄️ Évite de trop salé : tout comme l’alcool, le sel déshydrate, augmente la pression artérielle et favorise l’hypertension. \n\n❄️ Utilise une bouillotte chaude sur ton foie pour l’aider à se détoxifier après un gros repas. \nLes infusions 🌱 de chardon-marie, fenouil, gingembre, verveine, menthe, mélisse.. sont idéales après un repas copieux. \n\nEt enfin PROFITE ! Ces moments sont exceptionnels dans l’année, alors pas de culpabilité..! On reprendra les bonnes habitudes juste après ! 😊 \n\nEt toi ? As-tu des petits rituels pour passer de bonnes fêtes ? 🎉","shortcode":"CXgXLd_omQL","children":{"data":[{"id":"17942987512726087","media":[{"rawOptions":{"src":"https://ln-admin.laurenaturo.fr/uploads/17869277090593504_media_url_554b9fbc94.jpeg","width":1080,"height":1080,"format":"webp"},"options":{"src":"https://ln-admin.laurenaturo.fr/uploads/17869277090593504_media_url_554b9fbc94.jpeg","width":1080,"height":1080,"format":"webp"},"src":"/_astro/17869277090593504_media_url_554b9fbc94_msWUo.webp","srcSet":{"values":[],"attribute":""},"attributes":{"width":1080,"height":1080,"loading":"lazy","decoding":"async"}}]},{"id":"17910285527248916","media":[{"rawOptions":{"src":"https://ln-admin.laurenaturo.fr/uploads/17869277090593504_media_url_0cf3758870.jpeg","width":1080,"height":1080,"format":"webp"},"options":{"src":"https://ln-admin.laurenaturo.fr/uploads/17869277090593504_media_url_0cf3758870.jpeg","width":1080,"height":1080,"format":"webp"},"src":"/_astro/17869277090593504_media_url_0cf3758870_Z1T6aME.webp","srcSet":{"values":[],"attribute":""},"attributes":{"width":1080,"height":1080,"loading":"lazy","decoding":"async"}}]}]},"timestamp":"2021-12-15T13:45:46+0000","id":"17869277090593504","media":[{"rawOptions":{"src":"https://ln-admin.laurenaturo.fr/uploads/17869277090593504_media_url_1da64cbdcb.jpeg","width":1080,"height":1080,"format":"webp"},"options":{"src":"https://ln-admin.laurenaturo.fr/uploads/17869277090593504_media_url_1da64cbdcb.jpeg","width":1080,"height":1080,"format":"webp"},"src":"/_astro/17869277090593504_media_url_1da64cbdcb_Z1I9lXP.webp","srcSet":{"values":[],"attribute":""},"attributes":{"width":1080,"height":1080,"loading":"lazy","decoding":"async"}}]}},{"feedJSON":{"media_type":"CAROUSEL_ALBUM","like_count":31,"comments_count":1,"caption":"Recette des truffes au chocolat-coco 🍫 🥥 \n\nComme plusieurs d’entre vous me l’avez demandé, voici la recette des truffes !\n\nIdéales pour les fêtes! Elles sont sans beurre et donc plus digestes 😉 \n\nSi tu as envie de les tester ce week-end, je te livre la recette dans ce carrousel ! \n\nN’hésite pas à partager si tu veux que quelqu’un te les prépare 😀\n\nBon appétit 😋","shortcode":"CXVgA6hI2hs","children":{"data":[{"id":"17872290461566276","media":[{"rawOptions":{"src":"https://ln-admin.laurenaturo.fr/uploads/17930480965798298_media_url_49aae2e99f.jpeg","width":1080,"height":1080,"format":"webp"},"options":{"src":"https://ln-admin.laurenaturo.fr/uploads/17930480965798298_media_url_49aae2e99f.jpeg","width":1080,"height":1080,"format":"webp"},"src":"/_astro/17930480965798298_media_url_49aae2e99f_Kd1sv.webp","srcSet":{"values":[],"attribute":""},"attributes":{"width":1080,"height":1080,"loading":"lazy","decoding":"async"}}]},{"id":"18136964953245226","media":[{"rawOptions":{"src":"https://ln-admin.laurenaturo.fr/uploads/17930480965798298_media_url_6213348fc9.jpeg","width":1080,"height":1080,"format":"webp"},"options":{"src":"https://ln-admin.laurenaturo.fr/uploads/17930480965798298_media_url_6213348fc9.jpeg","width":1080,"height":1080,"format":"webp"},"src":"/_astro/17930480965798298_media_url_6213348fc9_1qRFke.webp","srcSet":{"values":[],"attribute":""},"attributes":{"width":1080,"height":1080,"loading":"lazy","decoding":"async"}}]},{"id":"17982169000431773","media":[{"rawOptions":{"src":"https://ln-admin.laurenaturo.fr/uploads/17930480965798298_media_url_d7b200a71b.jpeg","width":1080,"height":1080,"format":"webp"},"options":{"src":"https://ln-admin.laurenaturo.fr/uploads/17930480965798298_media_url_d7b200a71b.jpeg","width":1080,"height":1080,"format":"webp"},"src":"/_astro/17930480965798298_media_url_d7b200a71b_Z1cHJ7A.webp","srcSet":{"values":[],"attribute":""},"attributes":{"width":1080,"height":1080,"loading":"lazy","decoding":"async"}}]},{"id":"17914416242179659","media":[{"rawOptions":{"src":"https://ln-admin.laurenaturo.fr/uploads/17930480965798298_media_url_2f36a2d09e.jpeg","width":1080,"height":1080,"format":"webp"},"options":{"src":"https://ln-admin.laurenaturo.fr/uploads/17930480965798298_media_url_2f36a2d09e.jpeg","width":1080,"height":1080,"format":"webp"},"src":"/_astro/17930480965798298_media_url_2f36a2d09e_Z1Os9zn.webp","srcSet":{"values":[],"attribute":""},"attributes":{"width":1080,"height":1080,"loading":"lazy","decoding":"async"}}]},{"id":"17912726153191608","media":[{"rawOptions":{"src":"https://ln-admin.laurenaturo.fr/uploads/17930480965798298_media_url_0c11733e22.jpeg","width":1080,"height":1080,"format":"webp"},"options":{"src":"https://ln-admin.laurenaturo.fr/uploads/17930480965798298_media_url_0c11733e22.jpeg","width":1080,"height":1080,"format":"webp"},"src":"/_astro/17930480965798298_media_url_0c11733e22_jHYkX.webp","srcSet":{"values":[],"attribute":""},"attributes":{"width":1080,"height":1080,"loading":"lazy","decoding":"async"}}]}]},"timestamp":"2021-12-11T08:31:20+0000","id":"17930480965798298","media":[{"rawOptions":{"src":"https://ln-admin.laurenaturo.fr/uploads/17930480965798298_media_url_74d1569d4a.jpeg","width":1080,"height":1080,"format":"webp"},"options":{"src":"https://ln-admin.laurenaturo.fr/uploads/17930480965798298_media_url_74d1569d4a.jpeg","width":1080,"height":1080,"format":"webp"},"src":"/_astro/17930480965798298_media_url_74d1569d4a_1VU7Vh.webp","srcSet":{"values":[],"attribute":""},"attributes":{"width":1080,"height":1080,"loading":"lazy","decoding":"async"}}]}},{"feedJSON":{"media_type":"CAROUSEL_ALBUM","like_count":31,"comments_count":3,"caption":"Truffes au chocolat noir 🍫 \n\nAvec ce temps maussade et à l’approche des fêtes, j’avais envie d’un peu de réconfort 🍫 😁. \n\nAujourd’hui j’ai imaginé une nouvelle recette de truffes. Je les ai réalisées avec du lait de coco et du chocolat noir. \n\nPuis j’en ai roulé quelques unes dans du coco râpé 🥥 ..\n\nUn pur délice.. même le petit dernier de 15 mois a adoré ..! \n\nÉcris-moi en commentaire si tu veux la recette 😉","shortcode":"CXMYsbFIqAO","children":{"data":[{"id":"17879480471517861","media":[{"rawOptions":{"src":"https://ln-admin.laurenaturo.fr/uploads/17914504394175989_media_url_4cf4d8b1a6.jpeg","width":1440,"height":1800,"format":"webp"},"options":{"src":"https://ln-admin.laurenaturo.fr/uploads/17914504394175989_media_url_4cf4d8b1a6.jpeg","width":1440,"height":1800,"format":"webp"},"src":"/_astro/17914504394175989_media_url_4cf4d8b1a6_l4SB8.webp","srcSet":{"values":[],"attribute":""},"attributes":{"width":1440,"height":1800,"loading":"lazy","decoding":"async"}}]},{"id":"17921795932945890","media":[{"rawOptions":{"src":"https://ln-admin.laurenaturo.fr/uploads/17914504394175989_media_url_0115b18c89.jpeg","width":1440,"height":1800,"format":"webp"},"options":{"src":"https://ln-admin.laurenaturo.fr/uploads/17914504394175989_media_url_0115b18c89.jpeg","width":1440,"height":1800,"format":"webp"},"src":"/_astro/17914504394175989_media_url_0115b18c89_ZplO9q.webp","srcSet":{"values":[],"attribute":""},"attributes":{"width":1440,"height":1800,"loading":"lazy","decoding":"async"}}]}]},"timestamp":"2021-12-07T19:34:12+0000","id":"17914504394175989","media":[{"rawOptions":{"src":"https://ln-admin.laurenaturo.fr/uploads/17914504394175989_media_url_8ac9d570a8.jpeg","width":1440,"height":1800,"format":"webp"},"options":{"src":"https://ln-admin.laurenaturo.fr/uploads/17914504394175989_media_url_8ac9d570a8.jpeg","width":1440,"height":1800,"format":"webp"},"src":"/_astro/17914504394175989_media_url_8ac9d570a8_Z2ucxxV.webp","srcSet":{"values":[],"attribute":""},"attributes":{"width":1440,"height":1800,"loading":"lazy","decoding":"async"}}]}}],"pageInfo":{"pageCount":21,"page":15,"total":102,"pageSize":5}}