{
  "nodes": [
    {
      "feedJSON": {
        "media_url": "https://scontent-cdg4-2.cdninstagram.com/v/t39.30808-6/484979104_1095046785968475_3713464138109974594_n.jpg?stp=dst-jpg_e35_tt6&_nc_cat=100&ccb=1-7&_nc_sid=18de74&_nc_ohc=lV-uA5fNQREQ7kNvwG-baOC&_nc_oc=AdmXI-8lK5WeUi-oWG1s7b14ev2B2FqnyC453UVCq4bddMnf5WBFo-aUa7IW6NvFs5iXeChUH4KOcIaDcOro2Mu4&_nc_zt=23&_nc_ht=scontent-cdg4-2.cdninstagram.com&edm=AM6HXa8EAAAA&_nc_gid=8kgyB1Pk2a030Lir7Nuc9Q&oh=00_AfMJlLBpAY0zjGQ4E8hzLt3BuTu4_jNru-tJi4k2G5XMvA&oe=684A297B",
        "media_type": "IMAGE",
        "like_count": 22,
        "comments_count": 1,
        "caption": "Petite citation à méditer 😌\n.\n.\n.\nJe m’appelle Laure et je suis Naturopathe Iridologue.\nJe vous accompagne et vous donne les clés pour retrouver votre santé et votre bien-être au naturel 🌱.\n\nN’hésitez pas à réserver une consultation ou un appel découverte offert ici : https://laurenaturo.fr\n\nC’est avec plaisir et bienveillance que je vous accompagnerai !\n\nA bientôt,\n\nLaure",
        "shortcode": "CtzNzoeIOqy",
        "timestamp": "2023-06-22T17:00:08+0000",
        "id": "17972739218228605"
      }
    },
    {
      "feedJSON": {
        "media_url": "https://scontent-cdg4-2.cdninstagram.com/v/t51.29350-15/354499691_310829611423176_7558579352605993584_n.jpg?stp=dst-jpg_e35_tt6&_nc_cat=107&ccb=1-7&_nc_sid=18de74&_nc_ohc=NV8T-DSFqe4Q7kNvwGKZyNd&_nc_oc=AdnOdjrtQqaeIkuHeTcwLohN_PzeTrnsACU6Y1rNavXLPT51TvGMP9Ddl6lQ26J4mz1ucbJUuAPwIEPBREbDbftz&_nc_zt=23&_nc_ht=scontent-cdg4-2.cdninstagram.com&edm=AM6HXa8EAAAA&_nc_gid=8kgyB1Pk2a030Lir7Nuc9Q&oh=00_AfOBtSPEsYKzVqlaObqCy3tYKnkFfo8NGKQOrG-8J7JN2A&oe=684A20FA",
        "media_type": "CAROUSEL_ALBUM",
        "like_count": 14,
        "comments_count": 1,
        "caption": "Voici les 6 premiers conseils à appliquer si tu souhaites diminuer ton stress au quotidien ☀️ \n\n✅ Mise sur une alimentation santé avec des aliments anti-stress riches en anti-oxydants (oléagineux, fruits, légumes, germe de blé, poissons, viandes…), magnésium (céréales complètes, fruits secs, oléagineux, crustacés, poissons gras..), vitamine B6 (jaune d’oeuf, céréales germées, légumineuses, viande..) et oméga-3 (huile de lin, de colza, mâche, petits poissons gras…).\n\n✅ Evite, voire supprime tous les excitants (alcool, drogue, café ☕️ , thé noir, cola, sucres rapides…).\n\n✅ Dors suffisamment 😴 (minimum 7h) et à heure fixe. Le sommeil est indispensable à ta santé physique et mentale.\n\n✅ Accorde toi du temps de qualité rien que pour toi : yoga🧘‍♀️ , chant, danse, lecture 📖 , promenade… à toi de voir ce qui te nourrit et recharge tes batteries !\n\n✅ Pratique une activité physique régulière 🏃‍♀️ (idéalement tous les jours min. 30min). Cela peut être 30min de marche par exemple🚶‍♂️ \n\n✅ Choisis des plantes adaptées 🌱  à l’aide de ton naturopathe. En infusion par exemple, de nombreuses plantes peuvent t’apporter un réel soutien (éleuthérocoque, passiflore, mélisse, oranger…)\n\nSi tu as besoin d’aller plus loin de façon personnalisée, je t’accompagne afin de retrouver ton bien-être 🌱.\n\nN’hésite pas à réserver ta consultation ou ton appel découverte offert ici : https://laurenaturo.fr\n\n C’est avec plaisir et bienveillance que je t’accompagnerai ! \n\nA bientôt, \n\nLaure",
        "shortcode": "CtrVxnyNj0B",
        "children": {
          "data": [
            {
              "media_url": "https://scontent-cdg4-2.cdninstagram.com/v/t51.29350-15/354499691_310829611423176_7558579352605993584_n.jpg?stp=dst-jpg_e35_tt6&_nc_cat=107&ccb=1-7&_nc_sid=18de74&_nc_ohc=NV8T-DSFqe4Q7kNvwGKZyNd&_nc_oc=AdnOdjrtQqaeIkuHeTcwLohN_PzeTrnsACU6Y1rNavXLPT51TvGMP9Ddl6lQ26J4mz1ucbJUuAPwIEPBREbDbftz&_nc_zt=23&_nc_ht=scontent-cdg4-2.cdninstagram.com&edm=AM6HXa8EAAAA&_nc_gid=8kgyB1Pk2a030Lir7Nuc9Q&oh=00_AfOBtSPEsYKzVqlaObqCy3tYKnkFfo8NGKQOrG-8J7JN2A&oe=684A20FA",
              "id": "17974311482366461"
            },
            {
              "media_url": "https://scontent-cdg4-2.cdninstagram.com/v/t51.29350-15/354515059_1271806287057604_2491796898942440248_n.jpg?stp=dst-jpg_e35_tt6&_nc_cat=109&ccb=1-7&_nc_sid=18de74&_nc_ohc=VXdrnHZy2nYQ7kNvwHGiRPA&_nc_oc=AdkUu5we1wUlgknYfyB03GG-NQapKsWd8ZIWydBFx8-KgGRUBoPXVDEpiHeRe1iSiYet7wmsds5jw2ezY4ZdPO7O&_nc_zt=23&_nc_ht=scontent-cdg4-2.cdninstagram.com&edm=AM6HXa8EAAAA&_nc_gid=8kgyB1Pk2a030Lir7Nuc9Q&oh=00_AfPJ51JzbRB9qBsn0-oxLYv0Q07OE8O8_bumJbINRZzQfQ&oe=684A1715",
              "id": "18052104739438488"
            }
          ]
        },
        "timestamp": "2023-06-19T15:35:49+0000",
        "id": "17968565912300266"
      }
    },
    {
      "feedJSON": {
        "media_url": "https://scontent-cdg4-2.cdninstagram.com/o1/v/t16/f2/m82/AQOT3A7Zq2UvBRcooNW1NuDNKXuxJaTQUfLeSYlKOSHdFfhAtGULCsL2MAjtMNfveBb0EAn5VVbyB4-rZHxw4oP8v-1eJgnfiabvej0.mp4?efg=eyJ2ZW5jb2RlX3RhZyI6InZ0c192b2RfdXJsZ2VuLmNsaXBzLnVua25vd24tQzMuNzIwLmRhc2hfYmFzZWxpbmVfMV92MSJ9&_nc_ht=scontent-cdg4-2.cdninstagram.com&edm=AM6HXa8EAAAA&_nc_gid=8kgyB1Pk2a030Lir7Nuc9Q&_nc_cat=110&_nc_oc=AdnboEu5EYm_OVarBkc5H8QEJTvAM9J0tWtekxL13uX2UweXPDuGoyDRowlrpj5o1Zhcx66HgdO4RXTh-u1P1PQx&vs=164151303306049_3169965478&_nc_vs=HBksFQIYT2lnX3hwdl9yZWVsc19wZXJtYW5lbnRfcHJvZC83RDQ0NzRBRkQ2QTM2MzhFRTBBQzU0MjIwOEU0M0FBNV92aWRlb19kYXNoaW5pdC5tcDQVAALIARIAFQIYOnBhc3N0aHJvdWdoX2V2ZXJzdG9yZS9HRnF6RnhVR2kycllBMEVDQU56U1FuTmo4YU1fYnFfRUFBQUYVAgLIARIAKAAYABsBiAd1c2Vfb2lsATEVAAAmhsf3zay4%2FT8VAigCQzMsF0BGO6XjU%2FfPGBJkYXNoX2Jhc2VsaW5lXzFfdjERAHUAZeadAQA%3D&ccb=9-4&oh=00_AfPaY5gSThjb6HZEemOFthTdSkChdShOkrtYpWb8rw66GA&oe=684635B6&_nc_sid=1d576d",
        "media_type": "VIDEO",
        "thumbnail_url": "https://scontent-cdg4-2.cdninstagram.com/v/t51.36329-15/353569258_915086712926993_8815608044001235866_n.jpg?stp=dst-jpg_e35_tt6&_nc_cat=101&ccb=1-7&_nc_sid=18de74&_nc_ohc=XgxGvCPuR8AQ7kNvwFYFXAR&_nc_oc=AdkT1-Pt15c2l64hyxrOF1rx4L2z6DyhhH7wNxN-KcRQ8i7L6ankgSs9OvGmmnpI3h2xvm0ww7YGa1d8PCMCZLxc&_nc_zt=23&_nc_ht=scontent-cdg4-2.cdninstagram.com&edm=AM6HXa8EAAAA&_nc_gid=8kgyB1Pk2a030Lir7Nuc9Q&oh=00_AfPfPdAuR6WRYyMsFimn8howUT3Q7UoK6iSzvKyH1ZmsiQ&oe=684A1935",
        "like_count": 14,
        "comments_count": 1,
        "caption": "🍒 Pudding chia avoine cerises 🍒 \n\nPetit déjeuner simple et rapide en 5 min chrono⏱️!\n\nLa recette : \n🥛 150ml de lait végétal\n🥄 4 c. à soupe de flocons d’avoine\n🥄 1 c. à soupe de graines de chia \n❄️ 1 nuit au frigo \nTopping : \n🍁 2 c. à soupe de sirop d’érable\n🍒 des cerises (dénoyautées)\n\nComme topping, tu peux varier et choisir les fruits que tu souhaites : framboises, fraises, bananes, kiwis avec du beurre de cacahuète, de la noix de coco râpé, du chocolat 🍫… \n\n✅ Les flocons d’avoine sont riches en fer, calcium, magnésium, phosphore, et potassium. Grâce à leur richesse en fibres, on se sent rapidement rassasié et la glycémie est régulée (adieu les hypoglycémies)!. \n\n✅ Les graines de chia sont riches en fibres, source d’omega-3, de zinc, de vitamine B1, B2 et B3, ainsi que de potassium.\n\n✅ Le lait végétal ne contient ni cholestérol, ni lactose et est riche en vitamines et minéraux. \n\nEn bref le petit déjeuner parfait, sain et équilibré !\n\nAs-tu déjà essayé cette recette ? Dis-moi en commentaire 😉\n\n.\n.\n.\n\nJe m’appelle Laure et je suis Naturopathe Iridologue.\nJe vous accompagne et vous donne les clés pour retrouver votre santé et votre bien-être au naturel 🌱.\n\nN’hésitez pas à réserver une consultation ou un appel découverte offert ici : https://laurenaturo.fr\n\n C’est avec plaisir et bienveillance que je vous accompagnerai !\n\nA bientôt, \n\nLaure",
        "shortcode": "Ctb6rEVMkpx",
        "timestamp": "2023-06-13T15:52:26+0000",
        "id": "18064778125371787"
      }
    },
    {
      "feedJSON": {
        "media_url": "https://scontent-cdg4-2.cdninstagram.com/v/t51.29350-15/338746798_1370328200456901_8601962470774524036_n.jpg?stp=dst-jpg_e35_tt6&_nc_cat=101&ccb=1-7&_nc_sid=18de74&_nc_ohc=U9GVYBE0FUAQ7kNvwFu1j1c&_nc_oc=Adm0RIH0PqhntwlqNrBDuyXwcP3NhY3wKkjLYx_acTshFZAIjtOac2QbO-_rPXh1LOegkNyWCWEa2Sx-X-rh_bvD&_nc_zt=23&_nc_ht=scontent-cdg4-2.cdninstagram.com&edm=AM6HXa8EAAAA&_nc_gid=8kgyB1Pk2a030Lir7Nuc9Q&oh=00_AfPAuOduKss--0GGAOXZoILl1Sz3pHjj3L28x9ZZGyzMLQ&oe=684A28CC",
        "media_type": "IMAGE",
        "like_count": 24,
        "comments_count": 1,
        "caption": "Petite citation du jour qui fait du bien 😌 \n.\n.\n.\nJe m’appelle Laure et je suis Naturopathe Iridologue.\nJe vous accompagne et vous donne les clés pour retrouver votre santé et votre bien-être au naturel 🌱.\n\nN’hésitez pas à réserver une consultation ou un appel découverte offert ici : https://laurenaturo.fr\n\n C’est avec plaisir et bienveillance que je vous accompagnerai !\n\nA bientôt, \n\nLaure",
        "shortcode": "Cqa396NNED6",
        "timestamp": "2023-03-30T16:33:20+0000",
        "id": "18078416047317516"
      }
    },
    {
      "feedJSON": {
        "media_url": "https://scontent-cdg4-2.cdninstagram.com/v/t51.29350-15/337542136_922822612191897_1552040728935315640_n.jpg?stp=dst-jpg_e35_tt6&_nc_cat=101&ccb=1-7&_nc_sid=18de74&_nc_ohc=gVCkrIk_HOwQ7kNvwG8wDtr&_nc_oc=AdktgCAKi0tHS0rNlqmqnGc9RmH76zC05A8Ln-7VNJyDHEQsTb8uIQ2tmeJVKH_J8fNAKkOmrIitFxWlW21oCC5D&_nc_zt=23&_nc_ht=scontent-cdg4-2.cdninstagram.com&edm=AM6HXa8EAAAA&_nc_gid=8kgyB1Pk2a030Lir7Nuc9Q&oh=00_AfP5RWXMFZ_gqLIMOK2ZrQyccVVr4M43-D7JDCv7rwdFUw&oe=684A1D01",
        "media_type": "CAROUSEL_ALBUM",
        "like_count": 21,
        "comments_count": 1,
        "caption": "Aujourd’hui je te donne 6 conseils faciles à mettre en place pour bien dormir. \n\nEt toi ? Quelles sont tes astuces ?\n\n………………………………………….\n\nJe m’appelle Laure et je suis Naturopathe Iridologue.\nJe vous accompagne et vous donne les clés pour retrouver votre santé et votre bien-être au naturel 🌱.\n\nN’hésitez pas à réserver une consultation ou un appel découverte offert ici : https://laurenaturo.fr\n\n C’est avec plaisir et bienveillance que je vous accompagnerai !\n\nA bientôt, \n\nLaure",
        "shortcode": "CqDzteWo7Yr",
        "children": {
          "data": [
            {
              "media_url": "https://scontent-cdg4-2.cdninstagram.com/v/t51.29350-15/337542136_922822612191897_1552040728935315640_n.jpg?stp=dst-jpg_e35_tt6&_nc_cat=101&ccb=1-7&_nc_sid=18de74&_nc_ohc=gVCkrIk_HOwQ7kNvwG8wDtr&_nc_oc=AdktgCAKi0tHS0rNlqmqnGc9RmH76zC05A8Ln-7VNJyDHEQsTb8uIQ2tmeJVKH_J8fNAKkOmrIitFxWlW21oCC5D&_nc_zt=23&_nc_ht=scontent-cdg4-2.cdninstagram.com&edm=AM6HXa8EAAAA&_nc_gid=8kgyB1Pk2a030Lir7Nuc9Q&oh=00_AfP5RWXMFZ_gqLIMOK2ZrQyccVVr4M43-D7JDCv7rwdFUw&oe=684A1D01",
              "id": "17968679627487323"
            },
            {
              "media_url": "https://scontent-cdg4-2.cdninstagram.com/v/t51.29350-15/337088125_908079583753426_7357946889377032620_n.jpg?stp=dst-jpg_e35_tt6&_nc_cat=107&ccb=1-7&_nc_sid=18de74&_nc_ohc=0QvJfYVK4doQ7kNvwGV5ryi&_nc_oc=AdnKQyHjHE11Y5XL0745D8_6u_lVwDb0LFaest8estBMmmhnzwmREnwL-NGJ6QUZMUiz_bp50rciwbP59U-0WzU9&_nc_zt=23&_nc_ht=scontent-cdg4-2.cdninstagram.com&edm=AM6HXa8EAAAA&_nc_gid=8kgyB1Pk2a030Lir7Nuc9Q&oh=00_AfNRuVfkDN-F3wAdiUExn_DvvoUV92-0bnjBriknEJPhGQ&oe=684A0368",
              "id": "17997423121687704"
            }
          ]
        },
        "timestamp": "2023-03-21T17:33:36+0000",
        "id": "17988191617760120"
      }
    }
  ],
  "pageInfo": {
    "pageCount": 20,
    "page": 6,
    "total": 99,
    "pageSize": 5
  }
}