{
  "nodes": [
    {
      "feedJSON": {
        "media_url": "https://scontent-cdg4-2.cdninstagram.com/o1/v/t16/f2/m86/AQNl9VWke8WXFHEfzy8RyLk9Q1iMKee74oZZecLUivBBg6kOpP8PFR_7PqUSLydOOIVsd6mAqqfroQUYvRkoIJiMaD0OEEXVeXu2fVE.mp4?efg=eyJ2ZW5jb2RlX3RhZyI6InZ0c192b2RfdXJsZ2VuLmNsaXBzLnVua25vd24tQzMuNzIwLmRhc2hfYmFzZWxpbmVfMV92MSJ9&_nc_ht=scontent-cdg4-2.cdninstagram.com&edm=AM6HXa8EAAAA&_nc_gid=LjiY-W0TOtCnefgHl_MvlA&_nc_cat=107&_nc_oc=AdnS6084OpWIQCSIuTImkRBP9qmaXfIIMs2H_cT1S8CWy4lPiWelu4Dfg0GoN6yP8BbC7_mb1UBVFuTu1wRRAkzA&vs=611060805072398_454356704&_nc_vs=HBksFQIYUmlnX3hwdl9yZWVsc19wZXJtYW5lbnRfc3JfcHJvZC84NjQ5RUM1MEExNTcyRkJEMzY5M0QxNUU1ODEyMDM5Ml92aWRlb19kYXNoaW5pdC5tcDQVAALIARIAFQIYOnBhc3N0aHJvdWdoX2V2ZXJzdG9yZS9HTVFKdFJ5ZFNxRUl3WlFEQUIzQ3ZTTUxLeUp3YnFfRUFBQUYVAgLIARIAKAAYABsBiAd1c2Vfb2lsATEVAAAm%2Funjot%2FloEAVAigCQzMsF0A5Z%2B%2Bdsi0OGBJkYXNoX2Jhc2VsaW5lXzFfdjERAHUAZeadAQA%3D&ccb=9-4&oh=00_AfPW0ErdHyDXtN0vIumwxx-cP-RG-e-UEidbR068lVkRsA&oe=6846304D&_nc_sid=1d576d",
        "media_type": "VIDEO",
        "thumbnail_url": "https://scontent-cdg4-1.cdninstagram.com/v/t51.75761-15/482197692_18491945992059471_8022853170373564234_n.jpg?stp=dst-jpg_e35_tt6&_nc_cat=108&ccb=1-7&_nc_sid=18de74&_nc_ohc=H7t-F9Mjg3EQ7kNvwFTj_Gd&_nc_oc=Adlce33kFLfso86w4B7N0HIOF_eRoesUc_cRzOGpx0jD1wGWhLLr0pk-JnXNLwxvrOeSz6aXz_cniNJPpE6Qr_yz&_nc_zt=23&_nc_ht=scontent-cdg4-1.cdninstagram.com&edm=AM6HXa8EAAAA&_nc_gid=LjiY-W0TOtCnefgHl_MvlA&oh=00_AfNLsLCcZqVs2C1wL4e-1danc9ODyLzAGNnG8KbYsQEY9w&oe=684A087F",
        "like_count": 7,
        "comments_count": 1,
        "caption": "Prenez soin de votre bien-être naturellement ! ✨\n\nVous cherchez à retrouver vitalité, équilibre et légèreté ? \nEn tant que naturopathe et praticienne en drainage lymphatique, je vous accompagne vers une meilleure santé grâce à des méthodes naturelles et efficaces. 🌿💆‍♀️\n\n📍 Où me retrouver ?\n🔹 Latresne – Tous les mardis\n🔹 Créon – Le reste de la semaine, samedi inclus\n\nQue ce soit pour booster votre immunité, améliorer votre digestion, soulager vos jambes lourdes, réduire votre stress… ou simplement prendre un moment pour vous, je suis là pour vous guider.\n\n💌 Prenez rendez-vous dès maintenant et offrez à votre corps ce dont il a besoin !",
        "shortcode": "DGiyhTuCH9p",
        "timestamp": "2025-02-26T17:07:22+0000",
        "id": "18488067595024480"
      }
    },
    {
      "feedJSON": {
        "media_url": "https://scontent-cdg4-1.cdninstagram.com/v/t51.75761-15/475265257_18491409976059471_4159451366632477094_n.jpg?stp=dst-jpg_e35_tt6&_nc_cat=105&ccb=1-7&_nc_sid=18de74&_nc_ohc=reYLL6u4h6MQ7kNvwEoZzx0&_nc_oc=Adn0iSmLYitd6pn5-zrVrHviG3Te1OWBxnjLGQ9fPWzuIi78mJU043IaKLiPTKyfJk78dz8lT0BK5LdJPZDFXin0&_nc_zt=23&_nc_ht=scontent-cdg4-1.cdninstagram.com&edm=AM6HXa8EAAAA&_nc_gid=LjiY-W0TOtCnefgHl_MvlA&oh=00_AfM-sQY38FQ3lyqmFkok6JYeSZniocZNu7MAK3lGzU635A&oe=684A24A5",
        "media_type": "CAROUSEL_ALBUM",
        "like_count": 19,
        "comments_count": 1,
        "caption": "🌿 Le Psyllium Blond : Allié magique de votre Digestion ! \n\nBallonnements, constipation, transit irrégulier… Vous connaissez ces désagréments ? 😣 Bonne nouvelle : la nature a une solution pour vous ! 🎉\n\nLe psyllium blond, une fibre végétale exceptionnelle, agit comme un régulateur naturel du transit. Il absorbe l’eau et forme un gel dans l’intestin, facilitant ainsi la digestion sans irriter l’intestin. 💧\n\n✨ Pourquoi l’adopter ?\n✅ Soulage la constipation ET la diarrhée\n✅ Apaise le syndrome de l’intestin irritable (SII)\n✅ Nourrit la flore intestinale et améliore l’équilibre du microbiote\n✅ Aide à réduire le cholestérol et réguler la glycémie\n✅ Apporte une sensation de satiété, idéal pour la gestion du poids\n\n💡 Découvrez ce carrousel pour découvrir tous ses bienfaits et comment l’utiliser au quotidien !\n\n📌 Enregistrez ce post pour y revenir plus tard et partagez-le avec vos amis qui pourraient en avoir besoin !\n\n💬 Vous avez déjà testé le psyllium ? Quels effets avez-vous remarqués ? Dites-moi en commentaire ! ⬇️",
        "shortcode": "DGbJn6Fiz2K",
        "children": {
          "data": [
            {
              "media_url": "https://scontent-cdg4-1.cdninstagram.com/v/t51.75761-15/475265257_18491409976059471_4159451366632477094_n.jpg?stp=dst-jpg_e35_tt6&_nc_cat=105&ccb=1-7&_nc_sid=18de74&_nc_ohc=reYLL6u4h6MQ7kNvwEoZzx0&_nc_oc=Adn0iSmLYitd6pn5-zrVrHviG3Te1OWBxnjLGQ9fPWzuIi78mJU043IaKLiPTKyfJk78dz8lT0BK5LdJPZDFXin0&_nc_zt=23&_nc_ht=scontent-cdg4-1.cdninstagram.com&edm=AM6HXa8EAAAA&_nc_gid=LjiY-W0TOtCnefgHl_MvlA&oh=00_AfM-sQY38FQ3lyqmFkok6JYeSZniocZNu7MAK3lGzU635A&oe=684A24A5",
              "id": "18133884922388679"
            },
            {
              "media_url": "https://scontent-cdg4-2.cdninstagram.com/v/t51.75761-15/480857158_18491410003059471_6862455664036033255_n.jpg?stp=dst-jpg_e35_tt6&_nc_cat=107&ccb=1-7&_nc_sid=18de74&_nc_ohc=QRpGO_XW8BEQ7kNvwEMU0i7&_nc_oc=Adn80B9vbax653LjviVMEjWXWaA78pnfcRgZHtaOJNrObTAEg0VP6SHwIBQUCpQmYSvu7Uz7vGTcKZcsPDrc5zZn&_nc_zt=23&_nc_ht=scontent-cdg4-2.cdninstagram.com&edm=AM6HXa8EAAAA&_nc_gid=LjiY-W0TOtCnefgHl_MvlA&oh=00_AfOWI_e5OjNPGQv9pc8eE9oxM1lCZ2QT1ajbOPISpG9hqQ&oe=684A036C",
              "id": "18027927305626491"
            },
            {
              "media_url": "https://scontent-cdg4-3.cdninstagram.com/v/t51.75761-15/472697636_18491409991059471_2037214980268941472_n.jpg?stp=dst-jpg_e35_tt6&_nc_cat=110&ccb=1-7&_nc_sid=18de74&_nc_ohc=nowyv5y7jvQQ7kNvwGKW5Ml&_nc_oc=AdmD3aNEKQHDhySALvqgamQztiy08ERQ4fZZMv-i5WRTA2QNpi7g8aQyw9soVbvwGrGc_A7gjn_NsIp2oTYUFpoZ&_nc_zt=23&_nc_ht=scontent-cdg4-3.cdninstagram.com&edm=AM6HXa8EAAAA&_nc_gid=LjiY-W0TOtCnefgHl_MvlA&oh=00_AfOgOUwKAIcIz6Xs3aPJuq4TTEwUtoeCoCNtbfsHm-TC-g&oe=684A160E",
              "id": "18047827433225072"
            },
            {
              "media_url": "https://scontent-cdg4-3.cdninstagram.com/v/t51.75761-15/481583357_18491410000059471_662543764617553062_n.jpg?stp=dst-jpg_e35_tt6&_nc_cat=111&ccb=1-7&_nc_sid=18de74&_nc_ohc=QnoV_LSIqnYQ7kNvwE6l0oj&_nc_oc=AdnwU_bcPPfPMqoEFhIKMojM8655rfOmUasRnDE_YXutl4kAdSdOCxJxziBAsIkcdT8k9hDSG1Z2X3SRPZrgSn6Q&_nc_zt=23&_nc_ht=scontent-cdg4-3.cdninstagram.com&edm=AM6HXa8EAAAA&_nc_gid=LjiY-W0TOtCnefgHl_MvlA&oh=00_AfOVEQyOsFMIyMXGJq6voCfH1mHqDmI-bxdeVyIsf4D-OQ&oe=684A20C0",
              "id": "17976578888683602"
            },
            {
              "media_url": "https://scontent-cdg4-2.cdninstagram.com/v/t51.75761-15/481186115_18491410021059471_5941148643619886915_n.jpg?stp=dst-jpg_e35_tt6&_nc_cat=109&ccb=1-7&_nc_sid=18de74&_nc_ohc=nIhD62d1ODQQ7kNvwE87uo3&_nc_oc=AdkwhFOxA2p0NWOgiV-9RQmScvlUOzZ2vIThMgGir82GnAzmm-NYa4uuHmtUFUILUKqjbLCWPuWxEJV2dSABxycB&_nc_zt=23&_nc_ht=scontent-cdg4-2.cdninstagram.com&edm=AM6HXa8EAAAA&_nc_gid=LjiY-W0TOtCnefgHl_MvlA&oh=00_AfMTBWskaGiSXESgo4B7BGHKJy9T3v1Sypmt2jOE5E6S3g&oe=684A3547",
              "id": "18038615483435571"
            },
            {
              "media_url": "https://scontent-cdg4-3.cdninstagram.com/v/t51.75761-15/472718315_18491410018059471_3343060670088813555_n.jpg?stp=dst-jpg_e35_tt6&_nc_cat=110&ccb=1-7&_nc_sid=18de74&_nc_ohc=vIwZlOUbWnAQ7kNvwGT03Om&_nc_oc=AdnrXZhZIEwBrW5EgBQRoHCuzayXwrZsImik7bHWJfLKduWdrnXL72qxQwSVgjd0PwXRgBR1OBjQMjoTUwUA-o5k&_nc_zt=23&_nc_ht=scontent-cdg4-3.cdninstagram.com&edm=AM6HXa8EAAAA&_nc_gid=LjiY-W0TOtCnefgHl_MvlA&oh=00_AfPMrhxliIqS89n1xIqQQ8iYWS_R0iOXwKHolcr_dc-Mmw&oe=684A042F",
              "id": "17924365071020672"
            },
            {
              "media_url": "https://scontent-cdg4-1.cdninstagram.com/v/t51.75761-15/472726478_18491410030059471_3424586355900701993_n.jpg?stp=dst-jpg_e35_tt6&_nc_cat=108&ccb=1-7&_nc_sid=18de74&_nc_ohc=wZU5lKQ8L6wQ7kNvwGaVUcX&_nc_oc=AdmDnvtSahxYsM_YNzmYvlNnRVrnjsYs5Zr2pK4b-j17vnv-wghd9GGi4_phORzKG-ycgCEvt7ZHk1xwp4WOVPMd&_nc_zt=23&_nc_ht=scontent-cdg4-1.cdninstagram.com&edm=AM6HXa8EAAAA&_nc_gid=LjiY-W0TOtCnefgHl_MvlA&oh=00_AfPUoQRU8s6g3uQQZ4_Jig179vY9cc4cFpQSqKGoiH9iFA&oe=684A00BD",
              "id": "18059286524072561"
            },
            {
              "media_url": "https://scontent-cdg4-1.cdninstagram.com/v/t51.75761-15/481205323_18491410033059471_8413978310589104157_n.jpg?stp=dst-jpg_e35_tt6&_nc_cat=102&ccb=1-7&_nc_sid=18de74&_nc_ohc=s-aK4hFyN1IQ7kNvwEkhD3j&_nc_oc=AdnTxLq49fp6JkouuhjNbypeqObmmGXRNGYSi_jWbkM85z1FHEiA_466jq9_4pqh_RocFQ7mZAaWgVhrhIMpRt4x&_nc_zt=23&_nc_ht=scontent-cdg4-1.cdninstagram.com&edm=AM6HXa8EAAAA&_nc_gid=LjiY-W0TOtCnefgHl_MvlA&oh=00_AfNeZMK7l0IlotwJvtE-T9w6RjMDoiqdf_IbHMwOr7rnrg&oe=684A2E97",
              "id": "18004559567718232"
            }
          ]
        },
        "timestamp": "2025-02-23T17:46:39+0000",
        "id": "18068903854683579"
      }
    },
    {
      "feedJSON": {
        "media_url": "https://scontent-cdg4-3.cdninstagram.com/v/t51.75761-15/474788063_18490822972059471_3875273173681451672_n.jpg?stp=dst-jpg_e35_tt6&_nc_cat=106&ccb=1-7&_nc_sid=18de74&_nc_ohc=hG5GqMGICjUQ7kNvwHUqZKY&_nc_oc=AdkusiGdQHo95JmJ4jnYvhUA-vUn3nllbaKcSRNd8kXSNMf-Rs_OyVV0-rNr7EUso_KgcXnSb_GWiDTvEPuV7dyD&_nc_zt=23&_nc_ht=scontent-cdg4-3.cdninstagram.com&edm=AM6HXa8EAAAA&_nc_gid=LjiY-W0TOtCnefgHl_MvlA&oh=00_AfNmYUHnsf5-LNqrIqGzS_805YA-2qss3iZ23atn-hyEJg&oe=684A1334",
        "media_type": "IMAGE",
        "like_count": 10,
        "comments_count": 1,
        "caption": "✨ DRAINAGE LYMPHATIQUE & CELLULITE : LE DUO GAGNANT ! ✨\n\nLa cellulite est un problème qui touche 90 % des femmes, peu importe leur poids ou leur morphologie. Mais bonne nouvelle : le drainage lymphatique est une solution naturelle et efficace pour réduire cet aspect peau d’orange et retrouver une peau plus lisse !\n\n🔍 Pourquoi a-t-on de la cellulite ?\n\nLa cellulite est souvent causée par une mauvaise circulation sanguine et lymphatique, entraînant :\n❌ Une accumulation de toxines dans les tissus\n❌ Une rétention d’eau qui crée des gonflements\n❌ Une stagnation des graisses, qui forment les fameux capitons\n\n💆‍♀️ Le drainage lymphatique peut être un allié puissant !\n\nCe massage rythmé va stimuler ton système lymphatique, ce qui permet de :\n✅ Détoxifier l’organisme en éliminant les déchets et toxines\n✅ Réduire la rétention d’eau, pour des jambes et un ventre moins gonflés\n✅ Améliorer la circulation sanguine, et donc la nutrition de ta peau\n✅ Lisser l’aspect peau d’orange en aidant à déstocker les graisses\n\n🔥 Les résultats sont là !\n\nDès les premières séances, tu peux ressentir une sensation de légèreté et une peau plus tonique. Avec une cure régulière, l’aspect de la cellulite est visiblement atténué !\n\n💡 Maximiser les effets du drainage : \n\nPour des résultats optimaux, adopte ces bonnes habitudes :\n🥗 Alimentation équilibrée : privilégie les aliments riches en antioxydants et limite le sucre\n💦 Hydratation : bois au moins 1,5 L d’eau par jour pour faciliter l’élimination des toxines\n🏃‍♀️ Activité physique : marche, natation, yoga… tout ce qui stimule la circulation\n🛀 Auto-massage : complète avec des massages à l’huile, avec un brossage à sec ou bien une ventouse anticellulite\n\n🌿 Naturel, efficace et relaxant, le drainage lymphatique est une vraie pépite pour retrouver une peau plus lisse et des jambes légères !\n\nTu as déjà testé ? Partage-moi en commentaire ton expérience ! 😌💬✨",
        "shortcode": "DGTUxwQCIJr",
        "timestamp": "2025-02-20T16:50:00+0000",
        "id": "17899288569137342"
      }
    },
    {
      "feedJSON": {
        "media_url": "https://scontent-cdg4-2.cdninstagram.com/o1/v/t16/f2/m86/AQNSVtq-dbfvK4V8R7lk9t0DfP52yd1Qbn1sXaVO7yBjG5FqqoyDU7p2LeGiTqT030ugC7_ahSGhaQd13jry2u6Fty8H4auaAWAjL2E.mp4?efg=eyJ2ZW5jb2RlX3RhZyI6InZ0c192b2RfdXJsZ2VuLmNsaXBzLnVua25vd24tQzMuNzIwLmRhc2hfYmFzZWxpbmVfMV92MSJ9&_nc_ht=scontent-cdg4-2.cdninstagram.com&edm=AM6HXa8EAAAA&_nc_gid=LjiY-W0TOtCnefgHl_MvlA&_nc_cat=104&_nc_oc=AdkvE_nKBprUe--B8z-LVQps3btQbpWNrZvjWZekqJTD9XcV9DTNpx1JPOoXlQPKQfSzU0BumsnScckJ20rXdW_U&vs=1272241123867413_3000240121&_nc_vs=HBksFQIYUmlnX3hwdl9yZWVsc19wZXJtYW5lbnRfc3JfcHJvZC9BQTRDQTc5RTU0QTNEN0I1MUIyODI4OTc2MzhDQjQ4OF92aWRlb19kYXNoaW5pdC5tcDQVAALIARIAFQIYOnBhc3N0aHJvdWdoX2V2ZXJzdG9yZS9HRWQzbkJ5Vzh3ZDNaUjBFQUhSaUxTMTN2czBzYmtZTEFBQUYVAgLIARIAKAAYABsBiAd1c2Vfb2lsATEVAAAmmuqnh4fq2EEVAigCQzMsF0BFa6XjU%2FfPGBJkYXNoX2Jhc2VsaW5lXzFfdjERAHUAZeadAQA%3D&ccb=9-4&oh=00_AfMDLz7bEnWDJITQex0Dgw02YqU6DkKlx5sr0RNYUQ5kfw&oe=68461B68&_nc_sid=1d576d",
        "media_type": "VIDEO",
        "thumbnail_url": "https://scontent-cdg4-2.cdninstagram.com/v/t51.75761-15/480000500_18490293055059471_2554776956526598005_n.jpg?stp=dst-jpg_e35_tt6&_nc_cat=109&ccb=1-7&_nc_sid=18de74&_nc_ohc=L9IJ8r1xB08Q7kNvwGEpf7U&_nc_oc=AdmfWS-XtsHjC5_nLdN4YnG79u9Z1tM5LFMlUzA5BCCxgpMi9un-broiHnfqIWdZLYuNk0_ph-6SCZqZ-qVa5Q8O&_nc_zt=23&_nc_ht=scontent-cdg4-2.cdninstagram.com&edm=AM6HXa8EAAAA&_nc_gid=LjiY-W0TOtCnefgHl_MvlA&oh=00_AfOhxy5Fp-BxZyPav8YFM-h9zv-reLb3FBD5JiP4DKU35Q&oe=684A2698",
        "like_count": 6,
        "comments_count": 1,
        "caption": "Vous vous sentez fatigué(e), gonflé(e) ou simplement en quête de légèreté et de bien-être ? 🌿 Le drainage lymphatique est une technique naturelle qui aide votre corps à éliminer les toxines, à réduire la rétention d’eau et à retrouver une sensation de vitalité.\n\nAu sein de mon cabinet de naturopathie, je vous propose un accompagnement personnalisé pour vous reconnecter à votre corps et vous offrir un moment de pure détente.\n\n🌸 Les bienfaits du drainage lymphatique : \n* Diminution de la rétention d’eau\n* Amélioration de la sensation de jambes lourdes\n* Évacuation des toxines\n* Regain d’énergie\n* Amélioration des troubles digestifs tels que la constipation, les ballonnements, les douleurs..\n* Renforcement du système immunitaire\n* Réduction de la cellulite\n* Amélioration de la silhouette\n\n👉 Prêt(e) à vous sentir plus léger(e) et revitalisé(e) ? Prenez rendez-vous dès aujourd’hui pour une séance de drainage lymphatique adaptée à vos besoins !\n\n📍 Cabinet de Baron (proche Créon) et Latresne (Bordeaux rive droite)\n🌐 laurenaturo.fr\n\nOffrez à votre corps le soin qu’il mérite. 🍃 À très vite !",
        "shortcode": "DGLgYSGCe5-",
        "timestamp": "2025-02-17T16:01:52+0000",
        "id": "17976558059681991"
      }
    },
    {
      "feedJSON": {
        "media_url": "https://scontent-cdg4-2.cdninstagram.com/v/t51.75761-15/475663946_18488790745059471_5403117262037846210_n.jpg?stp=dst-jpg_e35_tt6&_nc_cat=107&ccb=1-7&_nc_sid=18de74&_nc_ohc=PYEYPsoeTS8Q7kNvwHe4f2o&_nc_oc=AdnO-nri2GQKnsqdAnFk76-9c7cQXepQxbOLAuDAXKWZAxfqUFa_AoBrSQXwd1KEvS32D4-QbEga0nHoADda94kY&_nc_zt=23&_nc_ht=scontent-cdg4-2.cdninstagram.com&edm=AM6HXa8EAAAA&_nc_gid=LjiY-W0TOtCnefgHl_MvlA&oh=00_AfMDPtVTEoHFSzkqD2BOCdZgswvb0LGB6cBQgVwd3jESLg&oe=684A0198",
        "media_type": "CAROUSEL_ALBUM",
        "like_count": 14,
        "comments_count": 1,
        "caption": "✨ Découvrez le secret d’un corps sain et d’une beauté éclatante : le drainage lymphatique en cure! ✨\n\nEnvie de vous sentir plus légère, de booster votre système immunitaire, et de sublimer votre peau? 💆‍♀️🌿 Avec une cure de drainage lymphatique, profitez de bienfaits qui transforment votre bien-être au quotidien :\n\n💧 Détox en profondeur pour éliminer les toxines\n💖 Diminution de la rétention d’eau et gonflements\n🌟 Une peau lumineuse et plus lisse\n⏳ Relaxation garantie pour un esprit apaisé\n\n👉 Faire une cure, c’est s’offrir un véritable renouveau, sur le long terme. ✨\n\n📅 Prête à passer à l’action? Réservez votre première séance dès maintenant et commencez votre transformation. 💝\nhttps://laurenaturo.fr/drainage-lymphatique/",
        "shortcode": "DF26XhXCeMa",
        "children": {
          "data": [
            {
              "media_url": "https://scontent-cdg4-2.cdninstagram.com/v/t51.75761-15/475663946_18488790745059471_5403117262037846210_n.jpg?stp=dst-jpg_e35_tt6&_nc_cat=107&ccb=1-7&_nc_sid=18de74&_nc_ohc=PYEYPsoeTS8Q7kNvwHe4f2o&_nc_oc=AdnO-nri2GQKnsqdAnFk76-9c7cQXepQxbOLAuDAXKWZAxfqUFa_AoBrSQXwd1KEvS32D4-QbEga0nHoADda94kY&_nc_zt=23&_nc_ht=scontent-cdg4-2.cdninstagram.com&edm=AM6HXa8EAAAA&_nc_gid=LjiY-W0TOtCnefgHl_MvlA&oh=00_AfMDPtVTEoHFSzkqD2BOCdZgswvb0LGB6cBQgVwd3jESLg&oe=684A0198",
              "id": "18062390698912254"
            },
            {
              "media_url": "https://scontent-cdg4-1.cdninstagram.com/v/t51.75761-15/472664956_18488790754059471_699983707310963612_n.jpg?stp=dst-jpg_e35_tt6&_nc_cat=102&ccb=1-7&_nc_sid=18de74&_nc_ohc=y2s7Y0o3VFsQ7kNvwEnE62c&_nc_oc=Adm_0eMqpLIBi9hwZ1zaucaNwaqS6sR2-P6Ya2vZnkW9wl9L61rSDtIBPT4YZdAS3In5xbzyYkQ6ccTyyndZhaSl&_nc_zt=23&_nc_ht=scontent-cdg4-1.cdninstagram.com&edm=AM6HXa8EAAAA&_nc_gid=LjiY-W0TOtCnefgHl_MvlA&oh=00_AfOQpUuidHOJ0tIw0yhrB2OzBRhfn-oqBJYEKDCSCfo07w&oe=6849FE64",
              "id": "18162094126327155"
            },
            {
              "media_url": "https://scontent-cdg4-3.cdninstagram.com/v/t51.75761-15/477605941_18488790757059471_2276400211938377816_n.jpg?stp=dst-jpg_e35_tt6&_nc_cat=111&ccb=1-7&_nc_sid=18de74&_nc_ohc=paESo0OOAswQ7kNvwHOu3fy&_nc_oc=AdncZuIM10aeWS27ey8gQZajfXoi3XfL3R0b8VjKaLHR6xs9fKXD6VxIILqHWkXqxyYWQ_nrQvCnOUdhpTRVr6ur&_nc_zt=23&_nc_ht=scontent-cdg4-3.cdninstagram.com&edm=AM6HXa8EAAAA&_nc_gid=LjiY-W0TOtCnefgHl_MvlA&oh=00_AfNeSWAR-_j_FotRIJ1_fqyAPyXeIXg94omXfLrqEzfJxQ&oe=6849FDAF",
              "id": "18069943414758928"
            },
            {
              "media_url": "https://scontent-cdg4-3.cdninstagram.com/v/t51.75761-15/474763393_18488790760059471_5264405708454531674_n.jpg?stp=dst-jpg_e35_tt6&_nc_cat=106&ccb=1-7&_nc_sid=18de74&_nc_ohc=Fj4rVuPsgMcQ7kNvwG34K0Z&_nc_oc=AdkYAxOvonJhL7kaWxRuTJPfFXP1QG7tgUQ6zjYv1a79K7HZdD3lfvAiOiTKl6FBx-fH1gWTN2HQ9UH0DI9PUbsa&_nc_zt=23&_nc_ht=scontent-cdg4-3.cdninstagram.com&edm=AM6HXa8EAAAA&_nc_gid=LjiY-W0TOtCnefgHl_MvlA&oh=00_AfPZ2We7n7tw0hpzy1izlT54c30c9WVBnA6JaHPuOkgZ7A&oe=684A0E92",
              "id": "18056961755004160"
            },
            {
              "media_url": "https://scontent-cdg4-3.cdninstagram.com/v/t51.75761-15/472599048_18488790769059471_4239471387388719354_n.jpg?stp=dst-jpg_e35_tt6&_nc_cat=111&ccb=1-7&_nc_sid=18de74&_nc_ohc=BcxuMr7ar8MQ7kNvwFazOSN&_nc_oc=AdnvShcSFW8mrUcEM-BDXrTc3lOsdnjR2epz1-O14inNTlzEQaYPD8KHzzL8g8V1nCju19FG24SsONjFD3P9IGLu&_nc_zt=23&_nc_ht=scontent-cdg4-3.cdninstagram.com&edm=AM6HXa8EAAAA&_nc_gid=LjiY-W0TOtCnefgHl_MvlA&oh=00_AfPtNzzXVFzQcSTqReIIdusP7ACNMGf_UYDJYvzezklTlg&oe=684A352D",
              "id": "18058172450295794"
            },
            {
              "media_url": "https://scontent-cdg4-2.cdninstagram.com/v/t51.75761-15/472611173_18488790772059471_85324434858835855_n.jpg?stp=dst-jpg_e35_tt6&_nc_cat=109&ccb=1-7&_nc_sid=18de74&_nc_ohc=BOd1ypDWlAUQ7kNvwFcxjaW&_nc_oc=AdlH9ixZ4osRy2RFhWHeFaMnZwltE1TNid_t3tOirI-tta7vLy7ITMoyy_0bqgNky10bDFGKn3pO7rH7y5oa6nYT&_nc_zt=23&_nc_ht=scontent-cdg4-2.cdninstagram.com&edm=AM6HXa8EAAAA&_nc_gid=LjiY-W0TOtCnefgHl_MvlA&oh=00_AfPOYbrGtfiKpa62EWKgVxIf4f1NdT0h844oJQEDNAeUsw&oe=684A263A",
              "id": "17960797364893998"
            },
            {
              "media_url": "https://scontent-cdg4-1.cdninstagram.com/v/t51.75761-15/478141130_18488790781059471_8753589618006768171_n.jpg?stp=dst-jpg_e35_tt6&_nc_cat=102&ccb=1-7&_nc_sid=18de74&_nc_ohc=A7jLfFyhmIoQ7kNvwF2nJon&_nc_oc=Adn8w2JYb62AJodBthPEySnyIUY37PgYN9LencUnFf5Ymt4dfuO_EcOAJ4apo3qcngQksNUFE1WkIsoQGmBbrsTk&_nc_zt=23&_nc_ht=scontent-cdg4-1.cdninstagram.com&edm=AM6HXa8EAAAA&_nc_gid=LjiY-W0TOtCnefgHl_MvlA&oh=00_AfPx_UbIMRECGG98ymZrKH5V3FEC1dfrwKQWYiOKv-t0wg&oe=684A117F",
              "id": "18077340472651374"
            }
          ]
        },
        "timestamp": "2025-02-09T16:00:00+0000",
        "id": "18035221085440695"
      }
    }
  ],
  "pageInfo": {
    "pageCount": 20,
    "page": 3,
    "total": 99,
    "pageSize": 5
  }
}