{
  "nodes": [
    {
      "feedJSON": {
        "media_url": "https://scontent-cdg4-3.cdninstagram.com/v/t51.29350-15/246037383_1278939129236451_5515922680341682464_n.jpg?stp=dst-jpg_e35_tt6&_nc_cat=110&ccb=1-7&_nc_sid=18de74&_nc_ohc=JOuBfWxnnSoQ7kNvwEKVgi4&_nc_oc=AdmcB-O4a3dxg49ieoz4uJltYArFNCTdiJucNb6LgzgynZOomOnA9LMUkq8jv5xUrhGs4dwKpJkWNalk8Tqtqrqh&_nc_zt=23&_nc_ht=scontent-cdg4-3.cdninstagram.com&edm=AM6HXa8EAAAA&_nc_gid=uKSsQs8gxM_wFWSAh6MQ1Q&oh=00_AfNNIjqC5b-iTlcorcF_9OLJ_ZRUzJStydsXcuwBnNLbBg&oe=684A024A",
        "media_type": "CAROUSEL_ALBUM",
        "like_count": 39,
        "comments_count": 3,
        "caption": "Petite lecture du soir sur les huiles essentielles… 🧐\n\nOn n’en parle pas assez mais elles peuvent nous être d’un grand secours. \nElles sont :\n- anti-infectieuses\n- antiseptiques\n- antivirales\n\nCe sont les seules alternatives aux antibiotiques et elles ont largement fait leur preuve dans ce domaine.\n\nCertaines sont également antidouleurs, cicatrisantes, anti-hémorragiques, digestives, régulatrices de l’immunité ou déstockent même les graisses infiltrées. \n\nA chaque huile essentielle son rôle ! Et la plupart du temps, elles en ont plusieurs 💪.\n\nElles sont extrêmement efficaces dans les infections respiratoires. L’huile essentielle de pin sylvestre en fait partie. \n\nA glisser dans ta trousse à pharmacie pour la saison automne-hiver 😉🍂❄️ !",
        "shortcode": "CVJKE5MgHEv",
        "children": {
          "data": [
            {
              "media_url": "https://scontent-cdg4-3.cdninstagram.com/v/t51.29350-15/246037383_1278939129236451_5515922680341682464_n.jpg?stp=dst-jpg_e35_tt6&_nc_cat=110&ccb=1-7&_nc_sid=18de74&_nc_ohc=JOuBfWxnnSoQ7kNvwEKVgi4&_nc_oc=AdmcB-O4a3dxg49ieoz4uJltYArFNCTdiJucNb6LgzgynZOomOnA9LMUkq8jv5xUrhGs4dwKpJkWNalk8Tqtqrqh&_nc_zt=23&_nc_ht=scontent-cdg4-3.cdninstagram.com&edm=AM6HXa8EAAAA&_nc_gid=uKSsQs8gxM_wFWSAh6MQ1Q&oh=00_AfNNIjqC5b-iTlcorcF_9OLJ_ZRUzJStydsXcuwBnNLbBg&oe=684A024A",
              "id": "17938646608651073"
            },
            {
              "media_url": "https://scontent-cdg4-2.cdninstagram.com/v/t51.29350-15/245864393_4795192910548696_5839437548528057493_n.jpg?stp=dst-jpg_e35_tt6&_nc_cat=107&ccb=1-7&_nc_sid=18de74&_nc_ohc=jRKiTpL-U7kQ7kNvwFTrzPz&_nc_oc=Adl5hVEETDBKGrUX-DBMjoiamyPALuQ4JvouTp1kaLHW1HuuUz_aG1i0tCxfJf4Ebxixg66NIbn0wHEkb9X1dEw0&_nc_zt=23&_nc_ht=scontent-cdg4-2.cdninstagram.com&edm=AM6HXa8EAAAA&_nc_gid=uKSsQs8gxM_wFWSAh6MQ1Q&oh=00_AfOq-45jze79eH5vKQOoHPcEjrQZlwitTpeNwEJHPSlfNA&oe=684A2273",
              "id": "17861715446597968"
            }
          ]
        },
        "timestamp": "2021-10-17T20:25:58+0000",
        "id": "18015142477337290"
      }
    },
    {
      "feedJSON": {
        "media_url": "https://scontent-cdg4-1.cdninstagram.com/v/t51.29350-15/245839591_3071585249792673_7389212254935015935_n.jpg?stp=dst-jpg_e35_tt6&_nc_cat=102&ccb=1-7&_nc_sid=18de74&_nc_ohc=ngqwhk9zhmgQ7kNvwGLllka&_nc_oc=AdlgVnUQ1ltVupJr38Yqn-WPXP_1CK8kbl4iI6Bbp9MzbLCkIqqdLWfgYluLoYk_k0AZ3aWJjht7_ONtaIHhCcpL&_nc_zt=23&_nc_ht=scontent-cdg4-1.cdninstagram.com&edm=AM6HXa8EAAAA&_nc_gid=uKSsQs8gxM_wFWSAh6MQ1Q&oh=00_AfMuScbIFlu0AhTop3pyQvJnzkNseFPaMKUAAUHlMkPlww&oe=684A14AB",
        "media_type": "CAROUSEL_ALBUM",
        "like_count": 32,
        "comments_count": 3,
        "caption": "Prendre de la hauteur…Faire une pause…\n \nAujourd’hui j’assiste à un joli spectacle d’envolée de montgolfières ce qui m’a inspiré ce texte. \nPrendre de la hauteur, prendre du recul.. On devrait tous le faire régulièrement, histoire de ne pas se « noyer » dans son quotidien si chargé. Nos vies sont ponctuées d’obligations, une petite spirale infernale parfois.. \n\nAlors prenons un peu de hauteur, un peu de temps, au moins le week-end pour se déconnecter et se détendre.. 😎 \n\nPrenons le temps de respirer et d’observer ce qui nous entoure, ces petites choses du quotidien que nous ne voyons même plus.. \nA cela, nous pouvons ajouter des exercices de respiration comme la cohérence cardiaque (je vous en parlerai dans un prochain post) ou bien le Yoga. 🧘‍♂️ \n\nFaites juste une pause, respirer profondément et soufflez longuement… \nC’est physiologique , cela vous apportera une sensation de calme, de sérénité, diminuera votre rythme cardiaque, votre tension artérielle et régulera vos émotions si vous le faites régulièrement 😉\n\nAlors, prenez de la hauteur et prenez soin de vous. Promis votre corps et votre esprit vous le rendront 🙏",
        "shortcode": "CVGN7lfIzaF",
        "children": {
          "data": [
            {
              "media_url": "https://scontent-cdg4-1.cdninstagram.com/v/t51.29350-15/245839591_3071585249792673_7389212254935015935_n.jpg?stp=dst-jpg_e35_tt6&_nc_cat=102&ccb=1-7&_nc_sid=18de74&_nc_ohc=ngqwhk9zhmgQ7kNvwGLllka&_nc_oc=AdlgVnUQ1ltVupJr38Yqn-WPXP_1CK8kbl4iI6Bbp9MzbLCkIqqdLWfgYluLoYk_k0AZ3aWJjht7_ONtaIHhCcpL&_nc_zt=23&_nc_ht=scontent-cdg4-1.cdninstagram.com&edm=AM6HXa8EAAAA&_nc_gid=uKSsQs8gxM_wFWSAh6MQ1Q&oh=00_AfMuScbIFlu0AhTop3pyQvJnzkNseFPaMKUAAUHlMkPlww&oe=684A14AB",
              "id": "18258715741059858"
            },
            {
              "media_url": "https://scontent-cdg4-2.cdninstagram.com/v/t51.29350-15/245826504_416772496687094_4381812443447965241_n.jpg?stp=dst-jpg_e35_tt6&_nc_cat=103&ccb=1-7&_nc_sid=18de74&_nc_ohc=qvyNLGCbBjcQ7kNvwGYr0E1&_nc_oc=Adl1OvRPljOuWsTXMoj79dmQa6jUl2-M5XMwAeaKK90hbgEWNNW08gNzBVduQDZ1DFBRIL43IhkbjEI3f3feOJ0a&_nc_zt=23&_nc_ht=scontent-cdg4-2.cdninstagram.com&edm=AM6HXa8EAAAA&_nc_gid=uKSsQs8gxM_wFWSAh6MQ1Q&oh=00_AfOQZ7YAnlwx9RC9CXK3crKoW2ePYhtZqFMdLGcs1FbufQ&oe=684A0DAF",
              "id": "18108248929256747"
            },
            {
              "media_url": "https://scontent-cdg4-2.cdninstagram.com/v/t51.29350-15/245800316_573317703975812_1739853607177946279_n.jpg?stp=dst-jpg_e35_tt6&_nc_cat=103&ccb=1-7&_nc_sid=18de74&_nc_ohc=cG-GeWlVAq0Q7kNvwF-t_ka&_nc_oc=AdmLDIgk5emDFIjbqGB3oMZFC9U22DpsiiMfJA_Kzhy8nY1Ww9O-APG1Af9RuMNVHLUEwdCfdsokJQ3cKxJNRa5t&_nc_zt=23&_nc_ht=scontent-cdg4-2.cdninstagram.com&edm=AM6HXa8EAAAA&_nc_gid=uKSsQs8gxM_wFWSAh6MQ1Q&oh=00_AfNjjMxrDrkliiLlq4reehOrC8IC6rAV03iedsULxjI22g&oe=684A332B",
              "id": "17941048720584881"
            }
          ]
        },
        "timestamp": "2021-10-16T17:01:55+0000",
        "id": "17981027260418101"
      }
    },
    {
      "feedJSON": {
        "media_url": "https://scontent-cdg4-1.cdninstagram.com/v/t51.29350-15/245799370_172279715073625_8300345416544886854_n.jpg?stp=dst-jpg_e35_tt6&_nc_cat=102&ccb=1-7&_nc_sid=18de74&_nc_ohc=5TU8mTwbJ3oQ7kNvwEjX1w7&_nc_oc=AdnLK3k1tEQhNyCHbu4cF3CUonu0m4Hym6RPsWOJG7L-DnT0zCWWjJ3dKpF1-8w3n1L7K-zCG5ugINWxw7utJCFm&_nc_zt=23&_nc_ht=scontent-cdg4-1.cdninstagram.com&edm=AM6HXa8EAAAA&_nc_gid=uKSsQs8gxM_wFWSAh6MQ1Q&oh=00_AfPVmklO5MYQD_IZMeliBfo5s0pCADFodciwyDP-RN0xGQ&oe=684A0D6F",
        "media_type": "CAROUSEL_ALBUM",
        "like_count": 21,
        "comments_count": 1,
        "caption": "Les ions négatifs .. \n\nTu connais ? 🧐\nIls sont très bénéfiques sur notre santé mais malheureusement, notre mode de vie nous expose plutôt aux ions positifs..(pollution atmosphérique, climatisation, télévision, chauffage électrique, téléphone portable, tabac, changement de temps..). Tout cela entraîne fatigue chronique, problème respiratoire, maux de tête et même dépression..). \n\nIl est donc important de faire le plein d’ions négatifs ! Mais comment ..?? \nOn les retrouve en grande quantité à la campagne, au soleil, en bord de mer, à la montagne, près d’une chute d’eau ou après un orage ou sous la pluie. \nEt encore plus facilement : en aérant son intérieur, en prenant une douche, en lisant à côté d’une fontaine.. \n\nLes ions négatifs favorise le calme et la relaxation. Ils ont un impact sur la stabilisation de notre métabolisme. En bref, ils nous font du bien 🤩 \n\nEt si vraiment vous voulez avoir des ions négatifs à portée de main, il existe des ioniseurs tout comme le mien en photo. Parfait pour une bonne nuit de sommeil 😴😉 ! \n\nAvais-tu remarqué les effets de ces ions positifs et négatifs ? Dans quelle situation ?",
        "shortcode": "CVDkNwjIXmo",
        "children": {
          "data": [
            {
              "media_url": "https://scontent-cdg4-1.cdninstagram.com/v/t51.29350-15/245799370_172279715073625_8300345416544886854_n.jpg?stp=dst-jpg_e35_tt6&_nc_cat=102&ccb=1-7&_nc_sid=18de74&_nc_ohc=5TU8mTwbJ3oQ7kNvwEjX1w7&_nc_oc=AdnLK3k1tEQhNyCHbu4cF3CUonu0m4Hym6RPsWOJG7L-DnT0zCWWjJ3dKpF1-8w3n1L7K-zCG5ugINWxw7utJCFm&_nc_zt=23&_nc_ht=scontent-cdg4-1.cdninstagram.com&edm=AM6HXa8EAAAA&_nc_gid=uKSsQs8gxM_wFWSAh6MQ1Q&oh=00_AfPVmklO5MYQD_IZMeliBfo5s0pCADFodciwyDP-RN0xGQ&oe=684A0D6F",
              "id": "17877454202544437"
            },
            {
              "media_url": "https://scontent-cdg4-3.cdninstagram.com/v/t51.29350-15/245820813_133559412359798_145840770170937955_n.jpg?stp=dst-jpg_e35_tt6&_nc_cat=110&ccb=1-7&_nc_sid=18de74&_nc_ohc=1XNLBq4TSJoQ7kNvwFkjqet&_nc_oc=AdnAVkyh2zXjZnoQ2D8QzvueKUJJWwAuch3a2Q-3rtLyLfu-ETdKlAvhE43YBlLzlEl8fwsvSuDOJkwZ8at-xrHw&_nc_zt=23&_nc_ht=scontent-cdg4-3.cdninstagram.com&edm=AM6HXa8EAAAA&_nc_gid=uKSsQs8gxM_wFWSAh6MQ1Q&oh=00_AfPeCL8ipbY4Ikn7UnU99GDHe58_GSAEvNHeoXw80mc4Wg&oe=6849FFCC",
              "id": "17925903361876749"
            },
            {
              "media_url": "https://scontent-cdg4-1.cdninstagram.com/v/t51.29350-15/245656225_125726873150250_4778551456692911244_n.jpg?stp=dst-jpg_e35_tt6&_nc_cat=104&ccb=1-7&_nc_sid=18de74&_nc_ohc=9j1WQXDy-ugQ7kNvwGjXWbT&_nc_oc=AdmwGlS_aDvesPfP3lsusmqty2A3Ko7KlFWdNZaKkUPHAoHVGYNc4TqSGNxKzjUji9s2aKOtDTYEU5nYfMwuCL4-&_nc_zt=23&_nc_ht=scontent-cdg4-1.cdninstagram.com&edm=AM6HXa8EAAAA&_nc_gid=uKSsQs8gxM_wFWSAh6MQ1Q&oh=00_AfNhL06nmitXlu11jtU5iMTV0ieigArZ4dUb2Stkx6fdVg&oe=684A2D5E",
              "id": "18262859932054283"
            }
          ]
        },
        "timestamp": "2021-10-15T16:18:55+0000",
        "id": "17867473097611245"
      }
    },
    {
      "feedJSON": {
        "media_url": "https://scontent-cdg4-1.cdninstagram.com/v/t51.29350-15/245320130_389245766196568_9218826036953937504_n.jpg?stp=dst-jpg_e35_tt6&_nc_cat=108&ccb=1-7&_nc_sid=18de74&_nc_ohc=h6FpWXZkObkQ7kNvwEBRdbO&_nc_oc=AdkOuoUjXaBefwXT6EGDzmrwlh0xGob830H4WCtDlxlhjZrZ9IPKZsE0gmHVOL4O8CsnIoedTgPgRuVBVj8CEJBw&_nc_zt=23&_nc_ht=scontent-cdg4-1.cdninstagram.com&edm=AM6HXa8EAAAA&_nc_gid=uKSsQs8gxM_wFWSAh6MQ1Q&oh=00_AfN9d-AtnS9w2lwTVDNmaWmO6THRAG0BeAKwdf7jCOMkYA&oe=684A1656",
        "media_type": "CAROUSEL_ALBUM",
        "like_count": 26,
        "comments_count": 3,
        "caption": "C’est bientôt Halloween et c’est la saison des citrouilles et courges en tout genre 🎃 ! \nMais quels sont ses bienfaits ..? 🤔\n\nJe vous donne 7 raisons de la consommer :\n1 - Elle réduit le risque de cancer\nElle contient du bêta-carotène, un anti-oxydant qui joue un rôle dans l’oxydation et donc dans la prévention du cancer tout comme l’orange, la patate douce et la carotte.\n\n2- Elle aide à protéger la peau \nSes anti-oxydants et sa vitamine A nous donnent une belle peau \n\n3- Elle est idéale pour récupérer après une séance de sport 🏋️‍♀️ \nPar son apport en potassium, elle aide à rétablir l’équilibre des électrolytes de l’organisme après un entraînement sportif. \n\n4- Elle aide à stimuler le système immunitaire \nGrâce à sa vitamine A, on fait le plein pour lutter contre les microbes.\n\n5- Elle améliore le transit intestinal \nGrâce à son riche apport en fibres, notre bidou nous remercie.\n\n6- Elle aide à la gestion du poids\nElle est peu calorique et contient des fibres qui permettent une bonne digestion et donc un bon transit : un cocktail gagnant dans la gestion du poids. \n\n7- Elle est facile à cuisiner et à conserver \nElle se conserve longuement alors plus d’excuse pour ne pas en acheter !\n\nEt si tout comme moi, vous avez avez des enfants (ou adultes) un peu réticents.. N’hésitez pas à la cuisiner! Elle est aussi bonne sucrée que salée ! En gratin, poêlée, risotto, soupe, velouté, purée… et gâteau ! \nVous pouvez voir la tarte que j’ai préparée pour mes petits gloutons !\nAlors plus d’excuses pour délaisser la citrouille, à vos fourneaux ! \nEt vous, connaissez-vous ce fruit ? (oui oui c’est un fruit 😉). Comment le cuisinez-vous ?",
        "shortcode": "CVAyPeoolFF",
        "children": {
          "data": [
            {
              "media_url": "https://scontent-cdg4-1.cdninstagram.com/v/t51.29350-15/245320130_389245766196568_9218826036953937504_n.jpg?stp=dst-jpg_e35_tt6&_nc_cat=108&ccb=1-7&_nc_sid=18de74&_nc_ohc=h6FpWXZkObkQ7kNvwEBRdbO&_nc_oc=AdkOuoUjXaBefwXT6EGDzmrwlh0xGob830H4WCtDlxlhjZrZ9IPKZsE0gmHVOL4O8CsnIoedTgPgRuVBVj8CEJBw&_nc_zt=23&_nc_ht=scontent-cdg4-1.cdninstagram.com&edm=AM6HXa8EAAAA&_nc_gid=uKSsQs8gxM_wFWSAh6MQ1Q&oh=00_AfN9d-AtnS9w2lwTVDNmaWmO6THRAG0BeAKwdf7jCOMkYA&oe=684A1656",
              "id": "18202174258105489"
            },
            {
              "media_url": "https://scontent-cdg4-1.cdninstagram.com/v/t51.29350-15/246011885_231371695643787_3667074375326803902_n.jpg?stp=dst-jpg_e35_tt6&_nc_cat=102&ccb=1-7&_nc_sid=18de74&_nc_ohc=sffSGT9N-aIQ7kNvwFxJqSh&_nc_oc=AdnaPYjYWSjrEsQhCsAu4j23naewNZmxNEABgsdaPJ5aUqUABz79azmo2Dc-AsnzrrNvUdCSdUyuhaOum1zzNRm1&_nc_zt=23&_nc_ht=scontent-cdg4-1.cdninstagram.com&edm=AM6HXa8EAAAA&_nc_gid=uKSsQs8gxM_wFWSAh6MQ1Q&oh=00_AfP9Co5t36mqgdo67WlOyVRD1FBjQzAEh406ZONhIAoMiw&oe=684A32F5",
              "id": "18185949430133294"
            },
            {
              "media_url": "https://scontent-cdg4-1.cdninstagram.com/v/t51.29350-15/243580495_597472817957231_4384254796239060431_n.jpg?stp=dst-jpg_e35_tt6&_nc_cat=104&ccb=1-7&_nc_sid=18de74&_nc_ohc=Z0BBDEpohhgQ7kNvwGx2Z0r&_nc_oc=AdnduW0qLXMuzvtuAFS_ktnd8GNbekVoIL4XjELgEgvbrq6rNcgKjXp11V1I-DRaSeNfxDAphzZUy7o_yEwr7kfs&_nc_zt=23&_nc_ht=scontent-cdg4-1.cdninstagram.com&edm=AM6HXa8EAAAA&_nc_gid=uKSsQs8gxM_wFWSAh6MQ1Q&oh=00_AfNYr4XpsPI4zKuWparKOzxigoAycOz9pJvTFjZos6TUoQ&oe=684A05D1",
              "id": "18256153021011169"
            }
          ]
        },
        "timestamp": "2021-10-14T14:23:46+0000",
        "id": "17971601743451217"
      }
    }
  ],
  "pageInfo": {
    "pageCount": 20,
    "page": 20,
    "total": 99,
    "pageSize": 5
  }
}